<eagle xmlns="eagle" version="6.5.0">
  <drawing>
    <library>
      <packages>
        <package xmlns="eagle" name="SOIC-8">
          <description>&lt;B&gt;SOIC-8&lt;/B&gt;</description>
          <wire x1="2.194" y1="2.7146" x2="2.194" y2="2.8512" width="0.1524" layer="21"/>
          <wire x1="-2.194" y1="-2.7146" x2="-2.194" y2="-2.8512" width="0.1524" layer="21"/>
          <wire x1="-2.194" y1="-2.8512" x2="2.194" y2="-2.8512" width="0.1524" layer="21"/>
          <wire x1="2.194" y1="-2.8512" x2="2.194" y2="-2.7146" width="0.1524" layer="21"/>
          <wire x1="2.194" y1="2.8512" x2="0.3048" y2="2.8512" width="0.1524" layer="21"/>
          <wire x1="-0.3048" y1="2.8512" x2="-2.194" y2="2.8512" width="0.1524" layer="21"/>
          <wire x1="-2.194" y1="2.8512" x2="-2.194" y2="2.7146" width="0.1524" layer="21"/>
          <wire x1="0.3048" y1="2.8512" x2="-0.3048" y2="2.8512" width="0.1524" layer="21" curve="-180"/>
          <text x="-2.2" y="3.2" size="1.016" layer="25" font="vector" ratio="15" rot="SR0">&gt;NAME</text>
          <circle x="-2.782059375" y="2.78958125" radius="0.1" width="0.2" layer="21"/>
          <smd name="1" x="-2.4" y="1.905" dx="2" dy="0.6" layer="1"/>
          <smd name="2" x="-2.4" y="0.635" dx="2" dy="0.6" layer="1"/>
          <smd name="3" x="-2.4" y="-0.635" dx="2" dy="0.6" layer="1"/>
          <smd name="4" x="-2.4" y="-1.905" dx="2" dy="0.6" layer="1"/>
          <smd name="8" x="2.4" y="1.905" dx="2" dy="0.6" layer="1"/>
          <smd name="7" x="2.4" y="0.635" dx="2" dy="0.6" layer="1"/>
          <smd name="6" x="2.4" y="-0.635" dx="2" dy="0.6" layer="1"/>
          <smd name="5" x="2.4" y="-1.905" dx="2" dy="0.6" layer="1"/>
        </package>
      </packages>
      <symbols>
        <symbol name="OP_AMP_1_W_POWER">
          <description>&lt;B&gt;OP AMP 1&lt;/B&gt; -- with power pins&lt;P&gt;
Designed for half of the Texas Instruments TL972IDR</description>
          <pin name="IN1+" x="-15.24" y="5.08" visible="off" direction="pas"/>
          <pin name="IN1-" x="-15.24" y="-5.08" visible="off" direction="pas"/>
          <pin name="OUT1" x="20.32" y="0" visible="off" direction="pas" rot="R180"/>
          <wire x1="12.7" y1="0" x2="-7.62" y2="10.16" width="0.254" layer="94"/>
          <wire x1="-7.62" y1="10.16" x2="-7.62" y2="-10.16" width="0.254" layer="94"/>
          <wire x1="-7.62" y1="-10.16" x2="12.7" y2="0" width="0.254" layer="94"/>
          <pin name="V+" x="2.54" y="12.7" visible="off" direction="pas" rot="R270"/>
          <pin name="V-" x="2.54" y="-12.7" visible="off" direction="pas" rot="R90"/>
          <text x="-6.604" y="4.064" size="2.54" layer="94" ratio="6">+</text>
          <text x="-6.604" y="-6.35" size="3.81" layer="94" ratio="6">-</text>
          <text x="-1.016" y="9.144" size="1.9304" layer="94" ratio="6">V+</text>
          <text x="-1.016" y="-11.176" size="1.9304" layer="94" ratio="6">V-</text>
          <text x="-15.24" y="11.938" size="1.9304" layer="95" ratio="6">&gt;NAME</text>
          <text x="0.508" y="0" size="1.9304" layer="96" ratio="6" align="center">&gt;VALUE</text>
        </symbol>
      </symbols>
      <devicesets>
        <deviceset name="TL971IDR" prefix="U">
          <gates>
            <gate name="A" symbol="OP_AMP_1_W_POWER" x="0" y="0"/>
          </gates>
          <devices>
            <device xmlns="eagle" name="" package="SOIC-8">
              <connects>
                <connect gate="A" pin="IN1+" pad="3"/>
                <connect gate="A" pin="IN1-" pad="2"/>
                <connect gate="A" pin="OUT1" pad="6"/>
                <connect gate="A" pin="V+" pad="7"/>
                <connect gate="A" pin="V-" pad="4"/>
              </connects>
              <technologies>
                <technology name=""/>
              </technologies>
            </device>
          </devices>
        </deviceset>
      </devicesets>
    </library>
  </drawing>
</eagle>