<?xml version="1.0" encoding="utf-8"?>
<!DOCTYPE eagle SYSTEM "eagle.dtd">
<eagle version="6.6.0">
<drawing>
<settings>
<setting alwaysvectorfont="no"/>
<setting verticaltext="up"/>
</settings>
<grid distance="1.2" unitdist="mm" unit="mm" style="lines" multiple="1" display="yes" altdistance="0.025" altunitdist="inch" altunit="inch"/>
<layers>
</layers>
<library>
<packages>
<package name="MINI3-G3-B">
<smd name="P$1" x="-1.2" y="0.95" dx="1" dy="1" layer="1" rot="R270"/>
<smd name="P$2" x="-1.2" y="-0.95" dx="1" dy="1" layer="1" rot="R270"/>
<smd name="P$3" x="1.2" y="0" dx="1" dy="1" layer="1" rot="R270"/>
<circle x="-1.97" y="1.9" radius="0.1542" width="0" layer="21"/>
<wire x1="-0.75" y1="1.95" x2="0.7" y2="1.95" width="0.127" layer="21"/>
<wire x1="0.7" y1="-1.95" x2="-0.75" y2="-1.95" width="0.127" layer="21"/>
<wire x1="0.75" y1="1.95" x2="0.75" y2="0.9" width="0.127" layer="21"/>
<wire x1="0.75" y1="-0.9" x2="0.75" y2="-1.95" width="0.127" layer="21"/>
<wire x1="-0.75" y1="0.2" x2="-0.75" y2="-0.2" width="0.127" layer="21"/>
<text x="-1.64" y="2.3" size="1.27" layer="25" font="vector" ratio="15" distance="40">&gt;NAME</text>
<wire x1="-0.75" y1="1.95" x2="-0.75" y2="1.75" width="0.127" layer="21"/>
<wire x1="-0.75" y1="-1.95" x2="-0.75" y2="-1.75" width="0.127" layer="21"/>
</package>
</packages>
<symbols>
<symbol name="DIODE">
<wire x1="-1.27" y1="0" x2="1.27" y2="0" width="0.254" layer="94"/>
<text x="-5.08" y="-2.54" size="1.778" layer="95" rot="R90">&gt;NAME</text>
<text x="-2.54" y="-2.54" size="1.778" layer="96" rot="R90">&gt;VALUE</text>
<polygon width="0.254" layer="94">
<vertex x="0" y="0"/>
<vertex x="-1.27" y="2.54"/>
<vertex x="1.27" y="2.54"/>
</polygon>
<pin name="A" x="0" y="5.08" visible="pad" length="short" rot="R270"/>
<pin name="C" x="0" y="-2.54" visible="pad" length="short" rot="R90"/>
</symbol>
</symbols>
<devicesets>
<deviceset name="DB3X207K0L">
<gates>
<gate name="G$1" symbol="DIODE" x="0" y="0"/>
</gates>
<devices>
<device name="" package="MINI3-G3-B">
<connects>
<connect gate="G$1" pin="A" pad="P$1"/>
<connect gate="G$1" pin="C" pad="P$3"/>
</connects>
<technologies>
<technology name=""/>
</technologies>
</device>
</devices>
</deviceset>
</devicesets>
</library>
</drawing>
</eagle>
