<?xml version="1.0" encoding="utf-8"?>
<!DOCTYPE eagle SYSTEM "eagle.dtd">
<eagle version="6.6.0">
<drawing>
<settings>
<setting alwaysvectorfont="no"/>
<setting verticaltext="up"/>
</settings>
<grid distance="1.3" unitdist="mm" unit="mm" style="lines" multiple="1" display="yes" altdistance="0.025" altunitdist="inch" altunit="inch"/>
<layers>
</layers>
<library>
<packages>
<package name="SMA-DIODE">
<description>&lt;B&gt;Diode&lt;/B&gt;&lt;p&gt;
Basic SMA packaged diode. Good for reverse polarization protection. Common part #: MBRA140</description>
<wire x1="-2.3" y1="1.3" x2="2.3" y2="1.3" width="0.1524" layer="21"/>
<wire x1="2.3" y1="-1.3" x2="-2.3" y2="-1.3" width="0.1524" layer="21"/>
<wire x1="0.7" y1="1" x2="0.7" y2="-1" width="0.1524" layer="21"/>
<smd name="A" x="-2" y="0" dx="2" dy="2" layer="1" rot="R180"/>
<smd name="C" x="2" y="0" dx="2" dy="2" layer="1"/>
<text x="-2.286" y="1.651" size="1.016" layer="25" font="vector" ratio="15">&gt;NAME</text>
<circle x="3.1" y="1.4" radius="0.1542" width="0" layer="21"/>
</package>
</packages>
<symbols>
<symbol name="DIODE-SCHOTTKY">
<wire x1="-1.27" y1="-1.27" x2="1.27" y2="0" width="0.254" layer="94"/>
<wire x1="1.27" y1="0" x2="-1.27" y2="1.27" width="0.254" layer="94"/>
<wire x1="1.27" y1="1.27" x2="1.27" y2="0" width="0.254" layer="94"/>
<wire x1="-1.27" y1="1.27" x2="-1.27" y2="0" width="0.254" layer="94"/>
<wire x1="-1.27" y1="0" x2="-1.27" y2="-1.27" width="0.254" layer="94"/>
<wire x1="1.27" y1="0" x2="1.27" y2="-1.27" width="0.254" layer="94"/>
<wire x1="1.27" y1="1.27" x2="1.778" y2="1.524" width="0.254" layer="94"/>
<wire x1="1.27" y1="-1.27" x2="0.762" y2="-1.524" width="0.254" layer="94"/>
<text x="2.54" y="0.4826" size="1.778" layer="95">&gt;NAME</text>
<text x="2.54" y="-2.3114" size="1.778" layer="96">&gt;VALUE</text>
<pin name="A" x="-2.54" y="0" visible="off" length="point" direction="pas"/>
<pin name="C" x="2.54" y="0" visible="off" length="point" direction="pas" rot="R180"/>
<wire x1="-2.54" y1="0" x2="-1.27" y2="0" width="0.1524" layer="94"/>
<wire x1="2.54" y1="0" x2="1.27" y2="0" width="0.1524" layer="94"/>
</symbol>
</symbols>
<devicesets>
<deviceset name="MBRA140TRPBF" prefix="D">
<gates>
<gate name="G$1" symbol="DIODE-SCHOTTKY" x="0" y="0"/>
</gates>
<devices>
<device name="-MBRA140" package="SMA-DIODE">
<connects>
<connect gate="G$1" pin="A" pad="A"/>
<connect gate="G$1" pin="C" pad="C"/>
</connects>
<technologies>
<technology name="">
<attribute name="PROD_ID" value="DIO-08053" constant="no"/>
<attribute name="VALUE" value="MBRA140" constant="no"/>
</technology>
</technologies>
</device>
</devices>
</deviceset>
</devicesets>
</library>
</drawing>
</eagle>
