<eagle version="6.5.0" xmlns="eagle">
  <drawing>
    <library>
      <packages>
        <package name="32-PVQFN" xmlns="eagle">
          <description>&lt;B&gt;32-VQFN&lt;/B&gt; (4x4) Exposed Pad&lt;BR&gt;

Designed for the 

Texas Instruments TPS65050RSMR
&lt;BR&gt;
PWR MGMT 6CH W/4 LDO 32VQFN</description>
          <smd name="EPQ5" x="0" y="0" dx="2.8" dy="2.8" layer="1" stop="no" cream="no" />
          <smd name="20" x="2" y="-0.2" dx="0.2" dy="0.8" layer="1" roundness="100" rot="R90" />
          <smd name="21" x="2" y="0.2" dx="0.2" dy="0.8" layer="1" roundness="100" rot="R90" />
          <smd name="19" x="2" y="-0.6" dx="0.2" dy="0.8" layer="1" roundness="100" rot="R90" />
          <smd name="18" x="2" y="-1" dx="0.2" dy="0.8" layer="1" roundness="100" rot="R90" />
          <smd name="17" x="2" y="-1.4" dx="0.2" dy="0.8" layer="1" roundness="100" rot="R90" />
          <smd name="22" x="2" y="0.6" dx="0.2" dy="0.8" layer="1" roundness="100" rot="R90" />
          <smd name="23" x="2" y="1" dx="0.2" dy="0.8" layer="1" roundness="100" rot="R90" />
          <smd name="24" x="2" y="1.4" dx="0.2" dy="0.8" layer="1" roundness="100" rot="R90" />
          <smd name="12" x="-0.2" y="-2" dx="0.2" dy="0.8" layer="1" roundness="100" />
          <smd name="13" x="0.2" y="-2" dx="0.2" dy="0.8" layer="1" roundness="100" />
          <smd name="11" x="-0.6" y="-2" dx="0.2" dy="0.8" layer="1" roundness="100" />
          <smd name="10" x="-1" y="-2" dx="0.2" dy="0.8" layer="1" roundness="100" />
          <smd name="9" x="-1.4" y="-2" dx="0.2" dy="0.8" layer="1" roundness="100" />
          <smd name="14" x="0.6" y="-2" dx="0.2" dy="0.8" layer="1" roundness="100" />
          <smd name="15" x="1" y="-2" dx="0.2" dy="0.8" layer="1" roundness="100" />
          <smd name="16" x="1.4" y="-2" dx="0.2" dy="0.8" layer="1" roundness="100" />
          <smd name="29" x="-0.2" y="2" dx="0.2" dy="0.8" layer="1" roundness="100" />
          <smd name="28" x="0.2" y="2" dx="0.2" dy="0.8" layer="1" roundness="100" />
          <smd name="30" x="-0.6" y="2" dx="0.2" dy="0.8" layer="1" roundness="100" />
          <smd name="31" x="-1" y="2" dx="0.2" dy="0.8" layer="1" roundness="100" />
          <smd name="32" x="-1.4" y="2" dx="0.2" dy="0.8" layer="1" roundness="100" />
          <smd name="27" x="0.6" y="2" dx="0.2" dy="0.8" layer="1" roundness="100" />
          <smd name="26" x="1" y="2" dx="0.2" dy="0.8" layer="1" roundness="100" />
          <smd name="25" x="1.4" y="2" dx="0.2" dy="0.8" layer="1" roundness="100" />
          <smd name="5" x="-2" y="-0.2" dx="0.2" dy="0.8" layer="1" roundness="100" rot="R90" />
          <smd name="4" x="-2" y="0.2" dx="0.2" dy="0.8" layer="1" roundness="100" rot="R90" />
          <smd name="6" x="-2" y="-0.6" dx="0.2" dy="0.8" layer="1" roundness="100" rot="R90" />
          <smd name="7" x="-2" y="-1" dx="0.2" dy="0.8" layer="1" roundness="100" rot="R90" />
          <smd name="8" x="-2" y="-1.4" dx="0.2" dy="0.8" layer="1" roundness="100" rot="R90" />
          <smd name="3" x="-2" y="0.6" dx="0.2" dy="0.8" layer="1" roundness="100" rot="R90" />
          <smd name="2" x="-2" y="1" dx="0.2" dy="0.8" layer="1" roundness="100" rot="R90" />
          <smd name="1" x="-2" y="1.4" dx="0.2" dy="0.8" layer="1" roundness="100" rot="R90" />
          <smd name="EPBACK" x="0" y="0" dx="2.8" dy="2.8" layer="16" stop="no" cream="no" />
          <smd name="EPQ1" x="-0.75" y="0.75" dx="1.2" dy="1.2" layer="1" />
          <smd name="EPQ2" x="0.75" y="0.75" dx="1.2" dy="1.2" layer="1" />
          <smd name="EPQ3" x="-0.75" y="-0.75" dx="1.2" dy="1.2" layer="1" />
          <smd name="EPQ4" x="0.75" y="-0.75" dx="1.2" dy="1.2" layer="1" />
          <hole x="-1" y="1" drill="0.3" />
          <hole x="0" y="1" drill="0.3" />
          <hole x="1" y="1" drill="0.3" />
          <hole x="1" y="0" drill="0.3" />
          <hole x="0" y="0" drill="0.3" />
          <hole x="-1" y="0" drill="0.3" />
          <hole x="-1" y="-1" drill="0.3" />
          <hole x="0" y="-1" drill="0.3" />
          <hole x="1" y="-1" drill="0.3" />
          <text x="-3" y="3" size="1.27" layer="21" font="vector" ratio="15">&gt;NAME</text>
          <circle x="-2.8" y="1.4" radius="0.067" width="0.127" layer="21" />
          <wire x1="-2.4" y1="2" x2="-2" y2="2.4" width="0.127" layer="21" />
          <wire x1="-2" y1="2.4" x2="-1.8" y2="2.4" width="0.127" layer="21" />
          <wire x1="-2.4" y1="2" x2="-2.4" y2="1.8" width="0.127" layer="21" />
          <wire x1="2" y1="2.4" x2="2.4" y2="2.4" width="0.127" layer="21" />
          <wire x1="2.4" y1="2.4" x2="2.4" y2="2" width="0.127" layer="21" />
          <wire x1="2" y1="-2.4" x2="2.4" y2="-2.4" width="0.127" layer="21" />
          <wire x1="2.4" y1="-2.4" x2="2.4" y2="-2" width="0.127" layer="21" />
          <wire x1="-2" y1="-2.4" x2="-2.4" y2="-2.4" width="0.127" layer="21" />
          <wire x1="-2.4" y1="-2.4" x2="-2.4" y2="-2" width="0.127" layer="21" />
        </package>
      </packages>
      <symbols>
        <symbol name="TPS65050">
          <description>&lt;B&gt;TPS65050&lt;/B&gt;&lt;BR&gt;
6-CHANNEL POWER MGMT IC WITH TWO STEP-DOWN CONVERTERS
AND 4 LOW-INPUT VOLTAGE LDOs
&lt;P&gt;
Texas Instruments TPS65050RSMR</description>
          <pin name="VCC" x="-20.32" y="43.18" length="middle" direction="pas" />
          <pin name="EN_DCDC1" x="-20.32" y="35.56" length="middle" direction="pas" />
          <pin name="MODE" x="-20.32" y="30.48" length="middle" direction="pas" />
          <pin name="DEFLDO1" x="-20.32" y="27.94" length="middle" direction="pas" />
          <pin name="DEFLDO2" x="-20.32" y="25.4" length="middle" direction="pas" />
          <pin name="DEFLDO3" x="-20.32" y="22.86" length="middle" direction="pas" />
          <pin name="DEFLDO4" x="-20.32" y="20.32" length="middle" direction="pas" />
          <pin name="EN_DCDC2" x="-20.32" y="15.24" length="middle" direction="pas" />
          <pin name="VIN_LDO1" x="-20.32" y="7.62" length="middle" direction="pas" />
          <pin name="EN_LDO1" x="-20.32" y="2.54" length="middle" direction="pas" />
          <pin name="VIN_LDO2" x="-20.32" y="-5.08" length="middle" direction="pas" />
          <pin name="EN_LDO2" x="-20.32" y="-10.16" length="middle" direction="pas" />
          <pin name="VIN_LDO_3_4" x="-20.32" y="-17.78" length="middle" direction="pas" />
          <pin name="EN_LDO3" x="-20.32" y="-22.86" length="middle" direction="pas" />
          <pin name="EN_LDO4" x="-20.32" y="-27.94" length="middle" direction="pas" />
          <pin name="PB_IN" x="-20.32" y="-35.56" length="middle" direction="pas" />
          <pin name="AGND" x="-20.32" y="-43.18" length="middle" direction="pas" />
          <pin name="VINDCDC_1_2" x="20.32" y="43.18" length="middle" direction="pas" rot="R180" />
          <pin name="L1" x="20.32" y="35.56" length="middle" direction="pas" rot="R180" />
          <pin name="FB_DCDC1" x="20.32" y="27.94" length="middle" direction="pas" rot="R180" />
          <pin name="PGND1" x="20.32" y="25.4" length="middle" direction="pas" rot="R180" />
          <pin name="L2" x="20.32" y="17.78" length="middle" direction="pas" rot="R180" />
          <pin name="VDCDC2" x="20.32" y="10.16" length="middle" direction="pas" rot="R180" />
          <pin name="DEFDCDC2" x="20.32" y="2.54" length="middle" direction="pas" rot="R180" />
          <pin name="PGND2" x="20.32" y="0" length="middle" direction="pas" rot="R180" />
          <pin name="VLDO1" x="20.32" y="-7.62" length="middle" direction="pas" rot="R180" />
          <pin name="VLDO2" x="20.32" y="-15.24" length="middle" direction="pas" rot="R180" />
          <pin name="VLDO3" x="20.32" y="-22.86" length="middle" direction="pas" rot="R180" />
          <pin name="BP" x="20.32" y="-27.94" length="middle" direction="pas" rot="R180" />
          <pin name="VLDO4" x="20.32" y="-35.56" length="middle" direction="pas" rot="R180" />
          <pin name="PB_OUT" x="20.32" y="-43.18" length="middle" direction="pas" rot="R180" />
          <wire x1="-15.24" y1="48.26" x2="15.24" y2="48.26" width="0.254" layer="94" />
          <wire x1="15.24" y1="48.26" x2="15.24" y2="-50.8" width="0.254" layer="94" />
          <wire x1="15.24" y1="-50.8" x2="-15.24" y2="-50.8" width="0.254" layer="94" />
          <wire x1="-15.24" y1="-50.8" x2="-15.24" y2="48.26" width="0.254" layer="94" />
          <text x="-15.24" y="51.054" size="1.9304" layer="95" ratio="13">&gt;NAME</text>
          <text x="-15.24" y="48.514" size="1.9304" layer="96" ratio="13">&gt;VALUE</text>
          <pin name="GND" x="-20.32" y="-45.72" length="middle" direction="pas" />
          <pin name="POWERPAD" x="-20.32" y="-48.26" length="middle" direction="pas" />
        </symbol>
      </symbols>
      <devicesets>
        <deviceset name="TPS65050" prefix="U">
          <gates>
            <gate name="G$1" symbol="TPS65050" x="0" y="0" />
          </gates>
          <devices>
            <device name="" package="32-PVQFN" xmlns="eagle">
              <connects>
                <connect gate="G$1" pin="AGND" pad="2" />
                <connect gate="G$1" pin="BP" pad="1" />
                <connect gate="G$1" pin="DEFDCDC2" pad="17" />
                <connect gate="G$1" pin="DEFLDO1" pad="31" />
                <connect gate="G$1" pin="DEFLDO2" pad="6" />
                <connect gate="G$1" pin="DEFLDO3" pad="9" />
                <connect gate="G$1" pin="DEFLDO4" pad="13" />
                <connect gate="G$1" pin="EN_DCDC1" pad="25" />
                <connect gate="G$1" pin="EN_DCDC2" pad="26" />
                <connect gate="G$1" pin="EN_LDO1" pad="27" />
                <connect gate="G$1" pin="EN_LDO2" pad="28" />
                <connect gate="G$1" pin="EN_LDO3" pad="15" />
                <connect gate="G$1" pin="EN_LDO4" pad="16" />
                <connect gate="G$1" pin="FB_DCDC1" pad="24" />
                <connect gate="G$1" pin="GND" pad="8" />
                <connect gate="G$1" pin="L1" pad="22" />
                <connect gate="G$1" pin="L2" pad="20" />
                <connect gate="G$1" pin="MODE" pad="32" />
                <connect gate="G$1" pin="PB_IN" pad="7" />
                <connect gate="G$1" pin="PB_OUT" pad="14" />
                <connect gate="G$1" pin="PGND1" pad="23" />
                <connect gate="G$1" pin="PGND2" pad="19" />
                <connect gate="G$1" pin="POWERPAD" pad="EPBACK EPQ1 EPQ2 EPQ3 EPQ4 EPQ5" />
                <connect gate="G$1" pin="VCC" pad="3" />
                <connect gate="G$1" pin="VDCDC2" pad="18" />
                <connect gate="G$1" pin="VINDCDC_1_2" pad="21" />
                <connect gate="G$1" pin="VIN_LDO1" pad="29" />
                <connect gate="G$1" pin="VIN_LDO2" pad="4" />
                <connect gate="G$1" pin="VIN_LDO_3_4" pad="11" />
                <connect gate="G$1" pin="VLDO1" pad="30" />
                <connect gate="G$1" pin="VLDO2" pad="5" />
                <connect gate="G$1" pin="VLDO3" pad="10" />
                <connect gate="G$1" pin="VLDO4" pad="12" />
              </connects>
              <technologies>
                <technology name="" />
              </technologies>
            </device>
          </devices>
        </deviceset>
      </devicesets>
    </library>
  </drawing>
</eagle>