<eagle version="6.5.0" xmlns="eagle">
  <drawing>
    <library>
      <packages>
        <package name="10_PIN_DSQ" xmlns="eagle">
          <circle x="-2.12" y="1.02" radius="0.1542" width="0" layer="21" />
          <wire x1="1.75" y1="-1.25" x2="1.75" y2="1.3" width="0.1542" layer="21" />
          <wire x1="1.75" y1="1.3" x2="-1.75" y2="1.3" width="0.1542" layer="21" />
          <wire x1="-1.75" y1="1.3" x2="-1.75" y2="-1.25" width="0.1542" layer="21" />
          <wire x1="-1.75" y1="-1.25" x2="1.75" y2="-1.25" width="0.1542" layer="21" />
          <rectangle x1="0.9" y1="0.4" x2="1.23" y2="1.2" layer="29" rot="R90" />
          <rectangle x1="-1.2" y1="0.4" x2="-0.87" y2="1.2" layer="29" rot="R90" />
          <rectangle x1="-1.2" y1="-0.005" x2="-0.87" y2="0.795" layer="29" rot="R90" />
          <rectangle x1="-1.215" y1="-1.2" x2="-0.885" y2="-0.4" layer="29" rot="R90" />
          <rectangle x1="0.885" y1="-1.195" x2="1.215" y2="-0.395" layer="29" rot="R90" />
          <rectangle x1="0.89" y1="-0.8" x2="1.22" y2="0" layer="29" rot="R90" />
          <rectangle x1="0.895" y1="-0.395" x2="1.225" y2="0.405" layer="29" rot="R90" />
          <rectangle x1="-1.205" y1="-0.4" x2="-0.875" y2="0.4" layer="29" rot="R90" />
          <rectangle x1="-1.205" y1="-0.805" x2="-0.875" y2="-0.005" layer="29" rot="R90" />
          <rectangle x1="0.9" y1="0.005" x2="1.23" y2="0.805" layer="29" rot="R90" />
          <smd name="1" x="-1.05" y="0.8" dx="0.23" dy="0.7" layer="1" rot="R90" stop="no" />
          <smd name="2" x="-1.05" y="0.4" dx="0.23" dy="0.7" layer="1" rot="R90" stop="no" />
          <smd name="3" x="-1.05" y="0" dx="0.23" dy="0.7" layer="1" rot="R90" stop="no" />
          <smd name="4" x="-1.05" y="-0.4" dx="0.23" dy="0.7" layer="1" rot="R90" stop="no" />
          <smd name="5" x="-1.05" y="-0.8" dx="0.23" dy="0.7" layer="1" rot="R90" stop="no" />
          <smd name="6" x="1.05" y="-0.8" dx="0.23" dy="0.7" layer="1" rot="R90" stop="no" />
          <smd name="7" x="1.05" y="-0.4" dx="0.23" dy="0.7" layer="1" rot="R90" stop="no" />
          <smd name="8" x="1.05" y="0" dx="0.23" dy="0.7" layer="1" rot="R90" stop="no" />
          <smd name="9" x="1.05" y="0.4" dx="0.23" dy="0.7" layer="1" rot="R90" stop="no" />
          <smd name="10" x="1.05" y="0.8" dx="0.23" dy="0.7" layer="1" rot="R90" stop="no" />
          <smd name="THERMAL" x="0" y="0" dx="1.5" dy="0.9" layer="1" rot="R90" />
          <text x="-2.4" y="1.55" size="1.016" layer="25" font="vector" ratio="15">&gt;NAME</text>
          <hole x="0" y="0.4" drill="0.3" />
          <hole x="0" y="-0.4" drill="0.3" />
        </package>
      </packages>
      <symbols>
        <symbol name="10_PIN_BATTERY_CHARGER">
          <wire x1="-15.24" y1="12.7" x2="-15.24" y2="-12.7" width="0.254" layer="94" />
          <wire x1="-15.24" y1="-12.7" x2="15.24" y2="-12.7" width="0.254" layer="94" />
          <wire x1="15.24" y1="-12.7" x2="15.24" y2="12.7" width="0.254" layer="94" />
          <wire x1="15.24" y1="12.7" x2="-15.24" y2="12.7" width="0.254" layer="94" />
          <pin name="!CHG" x="17.78" y="0" visible="pin" length="short" direction="pas" rot="R180" />
          <pin name="!PG" x="-17.78" y="-10.16" visible="pin" length="short" direction="pas" />
          <pin name="IN" x="-17.78" y="10.16" visible="pin" length="short" direction="pas" />
          <pin name="ISET" x="-17.78" y="5.08" visible="pin" length="short" direction="pas" />
          <pin name="ISET2" x="17.78" y="-5.08" visible="pin" length="short" direction="pas" rot="R180" />
          <pin name="NC" x="17.78" y="-10.16" visible="pin" length="short" direction="pas" rot="R180" />
          <pin name="OUT" x="17.78" y="10.16" visible="pin" length="short" direction="pas" rot="R180" />
          <pin name="PRETERM" x="-17.78" y="-5.08" visible="pin" length="short" direction="pas" />
          <pin name="TS" x="17.78" y="5.08" visible="pin" length="short" direction="pas" rot="R180" />
          <pin name="VSS" x="-17.78" y="0" visible="pin" length="short" direction="pas" />
          <text x="-15.24" y="17.78" size="1.778" layer="95">&gt;NAME</text>
          <text x="-15.24" y="15.24" size="1.778" layer="96">&gt;VALUE</text>
        </symbol>
      </symbols>
      <devicesets>
        <deviceset name="BQ24040" prefix="U">
          <gates>
            <gate name="G$1" symbol="10_PIN_BATTERY_CHARGER" x="0" y="0" />
          </gates>
          <devices>
            <device name="" package="10_PIN_DSQ" xmlns="eagle">
              <connects>
                <connect gate="G$1" pin="!CHG" pad="8" />
                <connect gate="G$1" pin="!PG" pad="1" />
                <connect gate="G$1" pin="IN" pad="5" />
                <connect gate="G$1" pin="ISET" pad="4" />
                <connect gate="G$1" pin="ISET2" pad="9" />
                <connect gate="G$1" pin="NC" pad="10" />
                <connect gate="G$1" pin="OUT" pad="6" />
                <connect gate="G$1" pin="PRETERM" pad="2" />
                <connect gate="G$1" pin="TS" pad="7" />
                <connect gate="G$1" pin="VSS" pad="3 THERMAL" />
              </connects>
              <technologies>
                <technology name="" />
              </technologies>
            </device>
          </devices>
        </deviceset>
      </devicesets>
    </library>
  </drawing>
</eagle>