<eagle version="6.5.0" xmlns="eagle">
  <drawing>
    <library>
      <packages>
        <package name="SO08" xmlns="eagle">
          <description>&lt;b&gt;Small Outline Package&lt;/b&gt; Fits JEDEC packages (narrow SOIC-8)</description>
          <wire x1="-2.362" y1="-1.803" x2="2.362" y2="-1.803" width="0.1524" layer="51" />
          <wire x1="2.362" y1="-1.803" x2="2.362" y2="1.803" width="0.1524" layer="21" />
          <wire x1="2.362" y1="1.803" x2="-2.362" y2="1.803" width="0.1524" layer="51" />
          <wire x1="-2.362" y1="1.803" x2="-2.362" y2="-1.803" width="0.1524" layer="21" />
          <circle x="-1.8034" y="-0.9906" radius="0.1436" width="0.2032" layer="21" />
          <text x="-1.27" y="-0.635" size="0.4064" layer="27">&gt;VALUE</text>
          <text x="-1.27" y="0" size="0.4064" layer="25">&gt;NAME</text>
          <rectangle x1="-2.0828" y1="-2.8702" x2="-1.7272" y2="-1.8542" layer="51" />
          <rectangle x1="-0.8128" y1="-2.8702" x2="-0.4572" y2="-1.8542" layer="51" />
          <rectangle x1="0.4572" y1="-2.8702" x2="0.8128" y2="-1.8542" layer="51" />
          <rectangle x1="1.7272" y1="-2.8702" x2="2.0828" y2="-1.8542" layer="51" />
          <rectangle x1="-2.0828" y1="1.8542" x2="-1.7272" y2="2.8702" layer="51" />
          <rectangle x1="-0.8128" y1="1.8542" x2="-0.4572" y2="2.8702" layer="51" />
          <rectangle x1="0.4572" y1="1.8542" x2="0.8128" y2="2.8702" layer="51" />
          <rectangle x1="1.7272" y1="1.8542" x2="2.0828" y2="2.8702" layer="51" />
          <smd name="1" x="-1.905" y="-2.6162" dx="0.6096" dy="2.2098" layer="1" />
          <smd name="2" x="-0.635" y="-2.6162" dx="0.6096" dy="2.2098" layer="1" />
          <smd name="3" x="0.635" y="-2.6162" dx="0.6096" dy="2.2098" layer="1" />
          <smd name="4" x="1.905" y="-2.6162" dx="0.6096" dy="2.2098" layer="1" />
          <smd name="5" x="1.905" y="2.6162" dx="0.6096" dy="2.2098" layer="1" />
          <smd name="6" x="0.635" y="2.6162" dx="0.6096" dy="2.2098" layer="1" />
          <smd name="7" x="-0.635" y="2.6162" dx="0.6096" dy="2.2098" layer="1" />
          <smd name="8" x="-1.905" y="2.6162" dx="0.6096" dy="2.2098" layer="1" />
        </package>
      </packages>
      <symbols>
        <symbol name="DS1307">
          <wire x1="-7.62" y1="5.08" x2="10.16" y2="5.08" width="0.254" layer="94" />
          <wire x1="10.16" y1="5.08" x2="10.16" y2="-7.62" width="0.254" layer="94" />
          <wire x1="10.16" y1="-7.62" x2="-7.62" y2="-7.62" width="0.254" layer="94" />
          <wire x1="-7.62" y1="-7.62" x2="-7.62" y2="5.08" width="0.254" layer="94" />
          <text x="-7.62" y="5.842" size="1.778" layer="95">&gt;Name</text>
          <text x="-7.62" y="-10.16" size="1.778" layer="96">&gt;Value</text>
          <pin name="X1" x="-10.16" y="2.54" length="short" direction="pas" />
          <pin name="X2" x="-10.16" y="0" length="short" direction="pas" />
          <pin name="VBAT" x="-10.16" y="-2.54" length="short" direction="pas" />
          <pin name="GND" x="-10.16" y="-5.08" length="short" direction="pas" />
          <pin name="SDA" x="12.7" y="-5.08" length="short" direction="pas" rot="R180" />
          <pin name="SCL" x="12.7" y="-2.54" length="short" direction="pas" rot="R180" />
          <pin name="SQW" x="12.7" y="0" length="short" direction="pas" rot="R180" />
          <pin name="VCC" x="12.7" y="2.54" length="short" direction="pas" rot="R180" />
        </symbol>
      </symbols>
      <devicesets>
        <deviceset name="DS1307" prefix="U">
          <gates>
            <gate name="G$1" symbol="DS1307" x="0" y="0" />
          </gates>
          <devices>
            <device name="SO8" package="SO08" xmlns="eagle">
              <connects>
                <connect gate="G$1" pin="GND" pad="4" />
                <connect gate="G$1" pin="SCL" pad="6" />
                <connect gate="G$1" pin="SDA" pad="5" />
                <connect gate="G$1" pin="SQW" pad="7" />
                <connect gate="G$1" pin="VBAT" pad="3" />
                <connect gate="G$1" pin="VCC" pad="8" />
                <connect gate="G$1" pin="X1" pad="1" />
                <connect gate="G$1" pin="X2" pad="2" />
              </connects>
              <technologies>
                <technology name="" />
              </technologies>
            </device>
          </devices>
        </deviceset>
      </devicesets>
    </library>
  </drawing>
</eagle>