<eagle version="6.5.0" xmlns="eagle">
  <drawing>
    <library>
      <packages>
        <package name="L1008" xmlns="eagle">
          <smd name="1" x="-1.2" y="0" dx="1.2" dy="2.2" layer="1" />
          <smd name="2" x="1.2" y="0" dx="1.2" dy="2.2" layer="1" />
          <text x="-2.205" y="1.475" size="1.016" layer="25" font="vector" ratio="15">&gt;NAME</text>
          <wire x1="-0.4" y1="1" x2="0.4" y2="1" width="0.127" layer="21" />
          <wire x1="-0.4" y1="-1" x2="0.4" y2="-1" width="0.127" layer="21" />
          <circle x="-2.34" y="0.03" radius="0.1542" width="0" layer="21" />
        </package>
      </packages>
      <symbols>
        <symbol name="L-US">
          <wire x1="0" y1="5.08" x2="1.27" y2="3.81" width="0.254" layer="94" curve="-90" />
          <wire x1="0" y1="2.54" x2="1.27" y2="3.81" width="0.254" layer="94" curve="90" />
          <wire x1="0" y1="2.54" x2="1.27" y2="1.27" width="0.254" layer="94" curve="-90" />
          <wire x1="0" y1="0" x2="1.27" y2="1.27" width="0.254" layer="94" curve="90" />
          <wire x1="0" y1="0" x2="1.27" y2="-1.27" width="0.254" layer="94" curve="-90" />
          <wire x1="0" y1="-2.54" x2="1.27" y2="-1.27" width="0.254" layer="94" curve="90" />
          <wire x1="0" y1="-2.54" x2="1.27" y2="-3.81" width="0.254" layer="94" curve="-90" />
          <wire x1="0" y1="-5.08" x2="1.27" y2="-3.81" width="0.254" layer="94" curve="90" />
          <text x="-1.27" y="-5.08" size="1.778" layer="95" rot="R90">&gt;NAME</text>
          <text x="3.81" y="-5.08" size="1.778" layer="96" rot="R90">&gt;VALUE</text>
          <pin name="2" x="0" y="-7.62" visible="off" length="short" direction="pas" swaplevel="1" rot="R90" />
          <pin name="1" x="0" y="7.62" visible="off" length="short" direction="pas" swaplevel="1" rot="R270" />
        </symbol>
      </symbols>
      <devicesets>
        <deviceset name="L-US">
          <gates>
            <gate name="G$1" symbol="L-US" x="0" y="0" />
          </gates>
          <devices>
            <device name="1008" package="L1008" xmlns="eagle">
              <connects>
                <connect gate="G$1" pin="1" pad="1" />
                <connect gate="G$1" pin="2" pad="2" />
              </connects>
              <technologies>
                <technology name="" />
              </technologies>
            </device>
          </devices>
        </deviceset>
      </devicesets>
    </library>
  </drawing>
</eagle>