<eagle version="6.5.0" xmlns="eagle">
  <drawing>
    <library>
      <packages>
        <package name="1812" xmlns="eagle">
          <wire x1="-1.4732" y1="1.6002" x2="1.4732" y2="1.6002" width="0.1016" layer="51" />
          <wire x1="-1.4478" y1="-1.6002" x2="1.4732" y2="-1.6002" width="0.1016" layer="51" />
          <text x="-1.905" y="2.54" size="1.27" layer="25">&gt;NAME</text>
          <text x="-1.905" y="-3.81" size="1.27" layer="27">&gt;VALUE</text>
          <rectangle x1="-2.3876" y1="-1.651" x2="-1.4376" y2="1.649" layer="51" />
          <rectangle x1="1.4478" y1="-1.651" x2="2.3978" y2="1.649" layer="51" />
          <smd name="1" x="-1.95" y="0" dx="1.9" dy="3.4" layer="1" />
          <smd name="2" x="1.95" y="0" dx="1.9" dy="3.4" layer="1" />
        </package>
      </packages>
      <symbols>
        <symbol name="1812L075PR">
          <wire x1="-7.62" y1="2.54" x2="-5.08" y2="2.54" width="0.254" layer="94" />
          <wire x1="-5.08" y1="2.54" x2="5.08" y2="2.54" width="0.254" layer="94" />
          <wire x1="5.08" y1="2.54" x2="7.62" y2="2.54" width="0.254" layer="94" />
          <wire x1="7.62" y1="2.54" x2="7.62" y2="-2.54" width="0.254" layer="94" />
          <wire x1="7.62" y1="-2.54" x2="5.08" y2="-2.54" width="0.254" layer="94" />
          <wire x1="5.08" y1="-2.54" x2="-5.08" y2="-2.54" width="0.254" layer="94" />
          <wire x1="-5.08" y1="-2.54" x2="-7.62" y2="-2.54" width="0.254" layer="94" />
          <wire x1="-7.62" y1="-2.54" x2="-7.62" y2="2.54" width="0.254" layer="94" />
          <wire x1="-5.08" y1="2.54" x2="-5.08" y2="-2.54" width="0.254" layer="94" />
          <wire x1="5.08" y1="2.54" x2="5.08" y2="-2.54" width="0.254" layer="94" />
          <text x="-7.62" y="-5.08" size="1.778" layer="95">&gt;NAME</text>
          <text x="-7.62" y="-7.62" size="1.778" layer="96">&gt;VALUE</text>
          <pin name="1" x="-12.7" y="0" length="middle" direction="pas" />
          <pin name="2" x="12.7" y="0" length="middle" direction="pas" rot="R180" />
        </symbol>
      </symbols>
      <devicesets>
        <deviceset name="1812L075PR" prefix="F">
          <gates>
            <gate name="G$1" symbol="1812L075PR" x="0" y="0" />
          </gates>
          <devices>
            <device name="" package="1812" xmlns="eagle">
              <connects>
                <connect gate="G$1" pin="1" pad="1" />
                <connect gate="G$1" pin="2" pad="2" />
              </connects>
              <technologies>
                <technology name="" />
              </technologies>
            </device>
          </devices>
        </deviceset>
      </devicesets>
    </library>
  </drawing>
</eagle>