<?xml version="1.0" encoding="utf-8"?>
<!DOCTYPE eagle SYSTEM "eagle.dtd">
<eagle version="6.6.0">
<drawing>
<settings>
<setting alwaysvectorfont="no"/>
<setting verticaltext="up"/>
</settings>
<grid distance="0.05" unitdist="inch" unit="mil" style="lines" multiple="1" display="yes" altdistance="0.025" altunitdist="inch" altunit="inch"/>
<layers>
<layer number="1" name="Top" color="4" fill="1" visible="yes" active="yes"/>
<layer number="16" name="Bottom" color="1" fill="1" visible="yes" active="yes"/>
<layer number="17" name="Pads" color="2" fill="1" visible="yes" active="yes"/>
<layer number="18" name="Vias" color="2" fill="1" visible="yes" active="yes"/>
<layer number="19" name="Unrouted" color="6" fill="1" visible="yes" active="yes"/>
<layer number="20" name="Dimension" color="15" fill="1" visible="yes" active="yes"/>
<layer number="21" name="tPlace" color="7" fill="1" visible="yes" active="yes"/>
<layer number="22" name="bPlace" color="7" fill="1" visible="yes" active="yes"/>
<layer number="23" name="tOrigins" color="15" fill="1" visible="yes" active="yes"/>
<layer number="24" name="bOrigins" color="15" fill="1" visible="yes" active="yes"/>
<layer number="25" name="tNames" color="7" fill="1" visible="yes" active="yes"/>
<layer number="26" name="bNames" color="7" fill="1" visible="yes" active="yes"/>
<layer number="27" name="tValues" color="7" fill="1" visible="yes" active="yes"/>
<layer number="28" name="bValues" color="7" fill="1" visible="yes" active="yes"/>
<layer number="29" name="tStop" color="7" fill="3" visible="yes" active="yes"/>
<layer number="30" name="bStop" color="7" fill="6" visible="yes" active="yes"/>
<layer number="31" name="tCream" color="7" fill="4" visible="yes" active="yes"/>
<layer number="32" name="bCream" color="7" fill="5" visible="yes" active="yes"/>
<layer number="33" name="tFinish" color="6" fill="3" visible="yes" active="yes"/>
<layer number="34" name="bFinish" color="6" fill="6" visible="yes" active="yes"/>
<layer number="35" name="tGlue" color="7" fill="4" visible="yes" active="yes"/>
<layer number="36" name="bGlue" color="7" fill="5" visible="yes" active="yes"/>
<layer number="37" name="tTest" color="7" fill="1" visible="yes" active="yes"/>
<layer number="38" name="bTest" color="7" fill="1" visible="yes" active="yes"/>
<layer number="39" name="tKeepout" color="4" fill="11" visible="yes" active="yes"/>
<layer number="40" name="bKeepout" color="1" fill="11" visible="yes" active="yes"/>
<layer number="41" name="tRestrict" color="4" fill="10" visible="yes" active="yes"/>
<layer number="42" name="bRestrict" color="1" fill="10" visible="yes" active="yes"/>
<layer number="43" name="vRestrict" color="2" fill="10" visible="yes" active="yes"/>
<layer number="44" name="Drills" color="7" fill="1" visible="yes" active="yes"/>
<layer number="45" name="Holes" color="7" fill="1" visible="yes" active="yes"/>
<layer number="46" name="Milling" color="3" fill="1" visible="yes" active="yes"/>
<layer number="47" name="Measures" color="7" fill="1" visible="yes" active="yes"/>
<layer number="48" name="Document" color="7" fill="1" visible="yes" active="yes"/>
<layer number="49" name="Reference" color="7" fill="1" visible="yes" active="yes"/>
<layer number="50" name="dxf" color="7" fill="1" visible="yes" active="yes"/>
<layer number="51" name="tDocu" color="7" fill="1" visible="yes" active="yes"/>
<layer number="52" name="bDocu" color="7" fill="1" visible="yes" active="yes"/>
<layer number="53" name="tGND_GNDA" color="7" fill="1" visible="yes" active="yes"/>
<layer number="54" name="bGND_GNDA" color="7" fill="1" visible="yes" active="yes"/>
<layer number="56" name="wert" color="7" fill="1" visible="yes" active="yes"/>
<layer number="57" name="tCAD" color="7" fill="1" visible="yes" active="yes"/>
<layer number="91" name="Nets" color="2" fill="1" visible="yes" active="yes"/>
<layer number="92" name="Busses" color="1" fill="1" visible="yes" active="yes"/>
<layer number="93" name="Pins" color="2" fill="1" visible="yes" active="yes"/>
<layer number="94" name="Symbols" color="4" fill="1" visible="yes" active="yes"/>
<layer number="95" name="Names" color="7" fill="1" visible="yes" active="yes"/>
<layer number="96" name="Values" color="7" fill="1" visible="yes" active="yes"/>
<layer number="97" name="Info" color="7" fill="1" visible="yes" active="yes"/>
<layer number="98" name="Guide" color="6" fill="1" visible="yes" active="yes"/>
<layer number="99" name="SpiceOrder" color="7" fill="1" visible="yes" active="yes"/>
</layers>
<library>
<packages>
<package name="SOT563">
<description>&lt;B&gt;SOT563&lt;/B&gt;&lt;P&gt;
Designed for the Texas Instruments TMP102AIDRLR&lt;br&gt;
Low Power Digital Temperature Sensor With&lt;br&gt;
 SMBus™/Two-Wire Serial Interface</description>
<smd name="1" x="-0.7024125" y="0.7" dx="0.7" dy="0.25" layer="1"/>
<smd name="2" x="-0.7024125" y="0" dx="0.7" dy="0.25" layer="1"/>
<smd name="3" x="-0.7024125" y="-0.7" dx="0.7" dy="0.25" layer="1"/>
<smd name="4" x="0.7024125" y="-0.7" dx="0.7" dy="0.25" layer="1"/>
<smd name="5" x="0.7024125" y="0" dx="0.7" dy="0.25" layer="1"/>
<smd name="6" x="0.7024125" y="0.7" dx="0.7" dy="0.25" layer="1"/>
<wire x1="-0.7" y1="1" x2="-0.7" y2="1.1" width="0.127" layer="22"/>
<wire x1="-0.7" y1="1.1" x2="0.7" y2="1.1" width="0.127" layer="22"/>
<wire x1="0.7" y1="1.1" x2="0.7" y2="1" width="0.127" layer="22"/>
<wire x1="-0.7" y1="-1" x2="-0.7" y2="-1.1" width="0.127" layer="22"/>
<wire x1="-0.7" y1="-1.1" x2="0.7" y2="-1.1" width="0.127" layer="22"/>
<wire x1="0.7" y1="-1.1" x2="0.7" y2="-1" width="0.127" layer="22"/>
<circle x="-0.95" y="1.05" radius="0.06" width="0.127" layer="21"/>
<text x="-1.265" y="1.346" size="1.016" layer="25" font="vector" ratio="15">&gt;NAME</text>
</package>
</packages>
<symbols>
<symbol name="TMP102">
<description>&lt;B&gt;TMP102&lt;/b&gt; -- Low Power Digital Temperature Sensor With SMBus™/Two-Wire Serial Interface&lt;br&gt;
 in SOT563&lt;P&gt;
&lt;B&gt;Texas Instruments &lt;A HREF="http://www.ti.com/product/tmp102?CMP=AFC-conv_octopart"&gt; TMP102AIDRLR&lt;/A&gt;&lt;/B&gt;&lt;P&gt;
Octopart MPN: TMP102AIDRLR
&lt;P&gt;
Digi-Key part numbers:
&lt;UL&gt;
&lt;LI&gt;
	296-26834-1-ND
&lt;LI&gt;
	296-26834-2-ND
&lt;LI&gt;
	296-26834-6-ND
&lt;/UL&gt;</description>
<pin name="SCL" x="-15.24" y="2.54" visible="pin" length="middle" direction="pas"/>
<pin name="GND" x="0" y="-17.78" visible="pin" length="middle" direction="pas" rot="R90"/>
<pin name="ALERT" x="15.24" y="-2.54" visible="pin" length="middle" direction="pas" rot="R180"/>
<pin name="ADD0" x="15.24" y="2.54" visible="pin" length="middle" direction="pas" rot="R180"/>
<pin name="V+" x="0" y="17.78" visible="pin" length="middle" direction="pas" rot="R270"/>
<pin name="SDA" x="-15.24" y="-2.54" visible="pin" length="middle" direction="pas"/>
<wire x1="-10.16" y1="12.7" x2="-10.16" y2="-12.7" width="0.1524" layer="96"/>
<wire x1="-10.16" y1="-12.7" x2="10.16" y2="-12.7" width="0.1524" layer="94"/>
<wire x1="10.16" y1="-12.7" x2="10.16" y2="12.7" width="0.1524" layer="94"/>
<wire x1="10.16" y1="12.7" x2="-10.16" y2="12.7" width="0.1524" layer="94"/>
<text x="-15.24" y="15.24" size="1.778" layer="95" ratio="15">&gt;NAME</text>
<text x="-15.24" y="12.954" size="1.778" layer="95" ratio="15">&gt;VALUE</text>
</symbol>
</symbols>
<devicesets>
<deviceset name="TMP102" prefix="U">
<gates>
<gate name="G$1" symbol="TMP102" x="0" y="0"/>
</gates>
<devices>
<device name="" package="SOT563">
<connects>
<connect gate="G$1" pin="ADD0" pad="4"/>
<connect gate="G$1" pin="ALERT" pad="3"/>
<connect gate="G$1" pin="GND" pad="2"/>
<connect gate="G$1" pin="SCL" pad="1"/>
<connect gate="G$1" pin="SDA" pad="6"/>
<connect gate="G$1" pin="V+" pad="5"/>
</connects>
<technologies>
<technology name=""/>
</technologies>
</device>
</devices>
</deviceset>
</devicesets>
</library>
</drawing>
</eagle>
