<?xml version="1.0" encoding="utf-8"?>
<!DOCTYPE eagle SYSTEM "eagle.dtd">
<eagle version="6.6.0">
<drawing>
<settings>
<setting alwaysvectorfont="no"/>
<setting verticaltext="up"/>
</settings>
<grid distance="0.1" unitdist="inch" unit="inch" style="lines" multiple="1" display="no" altdistance="0.01" altunitdist="inch" altunit="inch"/>
<layers>
</layers>
<library>
<packages>
<package name="SOT-23">
<smd name="P$1" x="-0.885" y="0.95" dx="0.9" dy="0.8" layer="1"/>
<smd name="P$2" x="-0.885" y="-0.95" dx="0.9" dy="0.8" layer="1"/>
<smd name="P$3" x="0.885" y="0" dx="0.9" dy="0.8" layer="1"/>
<wire x1="0.55" y1="1.45" x2="-0.55" y2="1.45" width="0.1524" layer="51"/>
<wire x1="-0.55" y1="1.45" x2="-0.55" y2="-1.45" width="0.1524" layer="51"/>
<wire x1="-0.55" y1="-1.45" x2="0.55" y2="-1.45" width="0.1524" layer="51"/>
<wire x1="0.55" y1="-1.45" x2="0.55" y2="1.45" width="0.1524" layer="51"/>
<circle x="-1.8" y="1.5" radius="0.1524" width="0" layer="21"/>
<text x="-1.365" y="1.8" size="1.016" layer="25" font="vector" ratio="15">&gt;NAME</text>
</package>
</packages>
<symbols>
<symbol name="NPN">
<pin name="B" x="-10.16" y="0" length="middle" direction="pas"/>
<wire x1="-5.08" y1="5.08" x2="-5.08" y2="2.54" width="0.254" layer="94"/>
<wire x1="-5.08" y1="2.54" x2="-5.08" y2="-2.54" width="0.254" layer="94"/>
<wire x1="-5.08" y1="-2.54" x2="-5.08" y2="-5.08" width="0.254" layer="94"/>
<wire x1="-5.08" y1="2.54" x2="0" y2="7.62" width="0.254" layer="94"/>
<wire x1="-5.08" y1="-2.54" x2="0" y2="-7.62" width="0.254" layer="94"/>
<wire x1="0" y1="-7.62" x2="-1.016" y2="-5.08" width="0.254" layer="94"/>
<wire x1="-1.016" y1="-5.08" x2="-2.54" y2="-6.604" width="0.254" layer="94"/>
<wire x1="-2.54" y1="-6.604" x2="0" y2="-7.62" width="0.254" layer="94"/>
<pin name="C" x="5.08" y="7.62" length="middle" direction="pas" rot="R180"/>
<pin name="E" x="5.08" y="-7.62" length="middle" direction="pas" rot="R180"/>
<text x="-10.16" y="15.24" size="1.778" layer="95">&gt;NAME</text>
<text x="-10.16" y="12.7" size="1.778" layer="96">&gt;VALUE</text>
</symbol>
</symbols>
<devicesets>
<deviceset name="KSC2223YMTF">
<gates>
<gate name="G$1" symbol="NPN" x="5.08" y="0"/>
</gates>
<devices>
<device name="" package="SOT-23">
<connects>
<connect gate="G$1" pin="B" pad="P$1"/>
<connect gate="G$1" pin="C" pad="P$3"/>
<connect gate="G$1" pin="E" pad="P$2"/>
</connects>
<technologies>
<technology name=""/>
</technologies>
</device>
</devices>
</deviceset>
</devicesets>
</library>
</drawing>
</eagle>
