<eagle version="6.5.0" xmlns="eagle">
  <drawing>
    <library>
      <packages>
        <package name="20_BUMP_YFF" xmlns="eagle">
          <circle x="0.6" y="-0.8" radius="0.127" width="0" layer="29" />
          <circle x="0.2" y="-0.8" radius="0.127" width="0" layer="29" />
          <circle x="-0.2" y="-0.8" radius="0.127" width="0" layer="29" />
          <circle x="-0.6" y="-0.8" radius="0.127" width="0" layer="29" />
          <circle x="0.6" y="-0.4" radius="0.127" width="0" layer="29" />
          <circle x="0.2" y="-0.4" radius="0.127" width="0" layer="29" />
          <circle x="-0.2" y="-0.4" radius="0.127" width="0" layer="29" />
          <circle x="-0.6" y="-0.4" radius="0.127" width="0" layer="29" />
          <circle x="-0.6" y="0" radius="0.127" width="0" layer="29" />
          <circle x="-0.2" y="0" radius="0.127" width="0" layer="29" />
          <circle x="0.2" y="0" radius="0.127" width="0" layer="29" />
          <circle x="0.6" y="0" radius="0.127" width="0" layer="29" />
          <circle x="-0.6" y="0.4" radius="0.127" width="0" layer="29" />
          <circle x="-0.2" y="0.4" radius="0.127" width="0" layer="29" />
          <circle x="0.2" y="0.4" radius="0.127" width="0" layer="29" />
          <circle x="0.6" y="0.4" radius="0.127" width="0" layer="29" />
          <circle x="-0.6" y="0.8" radius="0.127" width="0" layer="29" />
          <circle x="-0.2" y="0.8" radius="0.127" width="0" layer="29" />
          <circle x="0.2" y="0.8" radius="0.127" width="0" layer="29" />
          <circle x="0.6" y="0.8" radius="0.127" width="0" layer="29" />
          <circle x="-1.5" y="1.1" radius="0.1542" width="0" layer="21" />
          <wire x1="-0.961" y1="1.063" x2="-0.961" y2="-1.063" width="0.05" layer="51" />
          <wire x1="-0.961" y1="-1.063" x2="0.961" y2="-1.063" width="0.05" layer="51" />
          <wire x1="0.961" y1="-1.063" x2="0.961" y2="1.063" width="0.05" layer="51" />
          <wire x1="0.961" y1="1.063" x2="-0.961" y2="1.063" width="0.05" layer="51" />
          <smd name="A1" x="-0.6" y="0.8" dx="0.28" dy="0.28" layer="1" roundness="100" rot="R180" stop="no" />
          <smd name="A2" x="-0.2" y="0.8" dx="0.28" dy="0.28" layer="1" roundness="100" rot="R180" stop="no" />
          <smd name="A3" x="0.2" y="0.8" dx="0.28" dy="0.28" layer="1" roundness="100" rot="R180" stop="no" />
          <smd name="A4" x="0.6" y="0.8" dx="0.28" dy="0.28" layer="1" roundness="100" rot="R180" stop="no" />
          <smd name="B1" x="-0.6" y="0.4" dx="0.28" dy="0.28" layer="1" roundness="100" rot="R180" stop="no" />
          <smd name="B2" x="-0.2" y="0.4" dx="0.28" dy="0.28" layer="1" roundness="100" rot="R180" stop="no" />
          <smd name="B3" x="0.2" y="0.4" dx="0.28" dy="0.28" layer="1" roundness="100" rot="R180" stop="no" />
          <smd name="B4" x="0.6" y="0.4" dx="0.28" dy="0.28" layer="1" roundness="100" rot="R180" stop="no" />
          <smd name="C1" x="-0.6" y="0" dx="0.28" dy="0.28" layer="1" roundness="100" rot="R180" stop="no" />
          <smd name="C2" x="-0.2" y="0" dx="0.28" dy="0.28" layer="1" roundness="100" rot="R180" stop="no" />
          <smd name="C3" x="0.2" y="0" dx="0.28" dy="0.28" layer="1" roundness="100" rot="R180" stop="no" />
          <smd name="C4" x="0.6" y="0" dx="0.28" dy="0.28" layer="1" roundness="100" rot="R180" stop="no" />
          <smd name="D1" x="-0.6" y="-0.4" dx="0.28" dy="0.28" layer="1" roundness="100" rot="R180" stop="no" />
          <smd name="D2" x="-0.2" y="-0.4" dx="0.28" dy="0.28" layer="1" roundness="100" rot="R180" stop="no" />
          <smd name="D3" x="0.2" y="-0.4" dx="0.28" dy="0.28" layer="1" roundness="100" rot="R180" stop="no" />
          <smd name="D4" x="0.6" y="-0.4" dx="0.28" dy="0.28" layer="1" roundness="100" rot="R180" stop="no" />
          <smd name="E1" x="-0.6" y="-0.8" dx="0.28" dy="0.28" layer="1" roundness="100" rot="R180" stop="no" />
          <smd name="E2" x="-0.2" y="-0.8" dx="0.28" dy="0.28" layer="1" roundness="100" rot="R180" stop="no" />
          <smd name="E3" x="0.2" y="-0.8" dx="0.28" dy="0.28" layer="1" roundness="100" rot="R180" stop="no" />
          <smd name="E4" x="0.6" y="-0.8" dx="0.28" dy="0.28" layer="1" roundness="100" rot="R180" stop="no" />
          <text x="-2.25" y="1.5" size="1.016" layer="25" font="vector" ratio="15">&gt;NAME</text>
          <wire x1="-1.1" y1="-1.3" x2="1.1" y2="-1.3" width="0.127" layer="21" />
          <wire x1="1.1" y1="-1.3" x2="1.1" y2="1.3" width="0.127" layer="21" />
          <wire x1="1.1" y1="1.3" x2="-1.1" y2="1.3" width="0.127" layer="21" />
          <wire x1="-1.1" y1="1.3" x2="-1.1" y2="-1.3" width="0.127" layer="21" />
        </package>
      </packages>
      <symbols>
        <symbol name="TPS6301X">
          <wire x1="-12.7" y1="-20.32" x2="12.7" y2="-20.32" width="0.254" layer="94" />
          <wire x1="12.7" y1="-20.32" x2="12.7" y2="20.32" width="0.254" layer="94" />
          <wire x1="12.7" y1="20.32" x2="-12.7" y2="20.32" width="0.254" layer="94" />
          <wire x1="-12.7" y1="20.32" x2="-12.7" y2="-20.32" width="0.254" layer="94" />
          <pin name="!PS" x="-15.24" y="5.08" visible="pin" length="short" direction="pas" />
          <pin name="EN" x="-15.24" y="10.16" visible="pin" length="short" direction="pas" />
          <pin name="FB" x="-15.24" y="-5.08" visible="pin" length="short" direction="pas" />
          <pin name="GND" x="-2.54" y="-22.86" visible="pin" length="short" direction="pas" rot="R90" />
          <pin name="L1" x="-15.24" y="15.24" visible="pin" length="short" direction="pas" />
          <pin name="L2" x="-15.24" y="-15.24" visible="pin" length="short" direction="pas" />
          <pin name="SYNC" x="-15.24" y="-10.16" visible="pin" length="short" direction="pas" />
          <pin name="PGND" x="2.54" y="-22.86" visible="pin" length="short" direction="pas" rot="R90" />
          <pin name="VIN" x="-2.54" y="22.86" visible="pin" length="short" direction="pas" rot="R270" />
          <pin name="VINA" x="2.54" y="22.86" visible="pin" length="short" direction="pas" rot="R270" />
          <pin name="VINA1" x="15.24" y="-2.54" visible="pin" length="short" direction="pas" rot="R180" />
          <pin name="VOUT" x="15.24" y="2.54" visible="pin" length="short" direction="pas" rot="R180" />
          <pin name="VSEL" x="-15.24" y="0" visible="pin" length="short" direction="pas" />
          <text x="0" y="-5.08" size="1.778" layer="95" rot="R90">&gt;NAME</text>
          <text x="2.54" y="-5.08" size="1.778" layer="96" rot="R90">&gt;VALUE</text>
        </symbol>
      </symbols>
      <devicesets>
        <deviceset name="TPS63010" prefix="U">
          <gates>
            <gate name="G$1" symbol="TPS6301X" x="0" y="0" />
          </gates>
          <devices>
            <device name="" package="20_BUMP_YFF" xmlns="eagle">
              <connects>
                <connect gate="G$1" pin="!PS" pad="C4" />
                <connect gate="G$1" pin="EN" pad="A4" />
                <connect gate="G$1" pin="FB" pad="E3" />
                <connect gate="G$1" pin="GND" pad="C3 D3 E4" />
                <connect gate="G$1" pin="L1" pad="B1 B2" />
                <connect gate="G$1" pin="L2" pad="D1 D2" />
                <connect gate="G$1" pin="PGND" pad="C1 C2" />
                <connect gate="G$1" pin="SYNC" pad="B4" />
                <connect gate="G$1" pin="VIN" pad="A1 A2" />
                <connect gate="G$1" pin="VINA" pad="A3" />
                <connect gate="G$1" pin="VINA1" pad="B3" />
                <connect gate="G$1" pin="VOUT" pad="E1 E2" />
                <connect gate="G$1" pin="VSEL" pad="D4" />
              </connects>
              <technologies>
                <technology name="" />
              </technologies>
            </device>
          </devices>
        </deviceset>
      </devicesets>
    </library>
  </drawing>
</eagle>