<!DOCTYPE eagle SYSTEM "eagle.dtd">
<eagle version="6.6.0">
<drawing>
<settings>
<setting alwaysvectorfont="no"/>
<setting verticaltext="up"/>
</settings>
<grid distance="1.3" unitdist="mm" unit="mm" style="lines" multiple="1" display="yes" altdistance="0.025" altunitdist="inch" altunit="inch"/>
<layers>
</layers>
<library>
<packages>
<package name="QFN16">
<smd name="P$1" x="-1.9" y="0.975" dx="0.35" dy="1" layer="1" rot="R270"/>
<smd name="P$2" x="-1.9" y="0.325" dx="0.35" dy="1" layer="1" rot="R270"/>
<smd name="P$3" x="-1.9" y="-0.325" dx="0.35" dy="1" layer="1" rot="R270"/>
<smd name="P$4" x="-1.9" y="-0.975" dx="0.35" dy="1" layer="1" rot="R270"/>
<smd name="P$5" x="-0.975" y="-1.9" dx="0.35" dy="1" layer="1"/>
<smd name="P$6" x="-0.325" y="-1.9" dx="0.35" dy="1" layer="1"/>
<smd name="P$7" x="0.325" y="-1.9" dx="0.35" dy="1" layer="1"/>
<smd name="P$8" x="0.975" y="-1.9" dx="0.35" dy="1" layer="1"/>
<smd name="P$9" x="1.9" y="-0.975" dx="0.35" dy="1" layer="1" rot="R90"/>
<smd name="P$10" x="1.9" y="-0.325" dx="0.35" dy="1" layer="1" rot="R90"/>
<smd name="P$11" x="1.9" y="0.325" dx="0.35" dy="1" layer="1" rot="R90"/>
<smd name="P$12" x="1.9" y="0.975" dx="0.35" dy="1" layer="1" rot="R90"/>
<smd name="P$13" x="0.975" y="1.9" dx="0.35" dy="1" layer="1" rot="R180"/>
<smd name="P$14" x="0.325" y="1.9" dx="0.35" dy="1" layer="1" rot="R180"/>
<smd name="P$15" x="-0.325" y="1.9" dx="0.35" dy="1" layer="1" rot="R180"/>
<smd name="P$16" x="-0.975" y="1.9" dx="0.35" dy="1" layer="1" rot="R180"/>
<smd name="P$17" x="0" y="0" dx="2.16" dy="2.16" layer="1" cream="no"/>
<circle x="-2.95" y="1.4" radius="0.1542" width="0" layer="21"/>
<text x="-2.98800625" y="2.695934375" size="1.27" layer="25">&gt;NAME</text>
<rectangle x1="-0.9" y1="-0.9" x2="-0.15" y2="-0.15" layer="31"/>
<rectangle x1="-0.9" y1="0.3" x2="-0.15" y2="0.9" layer="31"/>
<rectangle x1="-0.9" y1="0.15" x2="-0.15" y2="0.3" layer="31"/>
<rectangle x1="0.15" y1="0.15" x2="0.9" y2="0.9" layer="31"/>
<rectangle x1="0.15" y1="-0.9" x2="0.9" y2="-0.15" layer="31"/>
<pad name="P$18" x="0" y="0" drill="0.3" diameter="0.5"/>
<pad name="P$19" x="-0.75" y="0.75" drill="0.3" diameter="0.5"/>
<pad name="P$20" x="-0.75" y="-0.75" drill="0.3" diameter="0.5"/>
<pad name="P$21" x="0.75" y="-0.75" drill="0.3" diameter="0.5"/>
<pad name="P$22" x="0.75" y="0.75" drill="0.3" diameter="0.5"/>
<rectangle x1="-2.02" y1="1.3" x2="-1.3" y2="2.02" layer="39"/>
</package>
</packages>
<symbols>
<symbol name="CC2592">
<pin name="RF_N" x="-22.86" y="2.54" length="middle"/>
<pin name="GND" x="-22.86" y="7.62" length="middle"/>
<pin name="RF_P" x="-22.86" y="-2.54" length="middle"/>
<pin name="GND2" x="-22.86" y="-7.62" length="middle"/>
<pin name="LNA_EN" x="-2.54" y="-22.86" length="middle" rot="R90"/>
<pin name="PA_EN" x="-7.62" y="-22.86" length="middle" rot="R90"/>
<pin name="HGM" x="2.54" y="-22.86" length="middle" rot="R90"/>
<pin name="BIAS" x="7.62" y="-22.86" length="middle" rot="R90"/>
<pin name="ANT" x="22.86" y="-2.54" length="middle" rot="R180"/>
<pin name="GND3" x="22.86" y="-7.62" length="middle" rot="R180"/>
<pin name="GND4" x="22.86" y="2.54" length="middle" rot="R180"/>
<pin name="GND5" x="22.86" y="7.62" length="middle" rot="R180"/>
<pin name="VDD_BIAS" x="2.54" y="22.86" length="middle" rot="R270"/>
<pin name="VDD_LNA" x="7.62" y="22.86" length="middle" rot="R270"/>
<pin name="VDD_PA" x="-2.54" y="22.86" length="middle" rot="R270"/>
<pin name="GND6" x="-7.62" y="22.86" length="middle" rot="R270"/>
<wire x1="-17.78" y1="17.78" x2="-17.78" y2="-17.78" width="0.254" layer="94"/>
<wire x1="-17.78" y1="-17.78" x2="17.78" y2="-17.78" width="0.254" layer="94"/>
<wire x1="17.78" y1="-17.78" x2="17.78" y2="17.78" width="0.254" layer="94"/>
<wire x1="17.78" y1="17.78" x2="-17.78" y2="17.78" width="0.254" layer="94"/>
<text x="-17.78" y="25.4" size="1.27" layer="95">&gt;NAME</text>
<text x="-17.78" y="22.86" size="1.27" layer="96">&gt;VALUE</text>
<pin name="GNDPAD" x="-5.08" y="0" length="middle"/>
</symbol>
</symbols>
<devicesets>
<deviceset name="CC2592RGVT">
<gates>
<gate name="G$1" symbol="CC2592" x="0" y="0"/>
</gates>
<devices>
<device name="" package="QFN16">
<connects>
<connect gate="G$1" pin="ANT" pad="P$10"/>
<connect gate="G$1" pin="BIAS" pad="P$8"/>
<connect gate="G$1" pin="GND" pad="P$1"/>
<connect gate="G$1" pin="GND2" pad="P$4"/>
<connect gate="G$1" pin="GND3" pad="P$9"/>
<connect gate="G$1" pin="GND4" pad="P$11"/>
<connect gate="G$1" pin="GND5" pad="P$12"/>
<connect gate="G$1" pin="GND6" pad="P$16"/>
<connect gate="G$1" pin="GNDPAD" pad="P$17 P$18 P$19 P$20 P$21 P$22" route="any"/>
<connect gate="G$1" pin="HGM" pad="P$7"/>
<connect gate="G$1" pin="LNA_EN" pad="P$6"/>
<connect gate="G$1" pin="PA_EN" pad="P$5"/>
<connect gate="G$1" pin="RF_N" pad="P$2"/>
<connect gate="G$1" pin="RF_P" pad="P$3"/>
<connect gate="G$1" pin="VDD_BIAS" pad="P$14"/>
<connect gate="G$1" pin="VDD_LNA" pad="P$13"/>
<connect gate="G$1" pin="VDD_PA" pad="P$15"/>
</connects>
<technologies>
<technology name=""/>
</technologies>
</device>
</devices>
</deviceset>
</devicesets>
</library>
</drawing>
</eagle>