<eagle version="6.5.0" xmlns="eagle">
  <drawing>
    <library>
      <packages>
        <package name="SOT-23" xmlns="eagle">
          <description>&lt;b&gt;SOT23&lt;/b&gt;</description>
          <wire x1="-0.1905" y1="-0.635" x2="0.1905" y2="-0.635" width="0.127" layer="21" />
          <wire x1="1.4605" y1="-0.254" x2="1.4605" y2="0.635" width="0.127" layer="21" />
          <wire x1="1.4605" y1="0.635" x2="0.6985" y2="0.635" width="0.127" layer="21" />
          <wire x1="-0.6985" y1="0.635" x2="-1.4605" y2="0.635" width="0.127" layer="21" />
          <wire x1="-1.4605" y1="0.635" x2="-1.4605" y2="-0.254" width="0.127" layer="21" />
          <smd name="3" x="0" y="1.016" dx="1.016" dy="1.143" layer="1" />
          <smd name="2" x="0.889" y="-1.016" dx="1.016" dy="1.143" layer="1" />
          <smd name="1" x="-0.889" y="-1.016" dx="1.016" dy="1.143" layer="1" rot="R180" />
          <text x="-1.905" y="1.905" size="0.889" layer="25" ratio="11">&gt;NAME</text>
          <text x="-1.27" y="-0.254" size="0.635" layer="27" ratio="10">&gt;VALUE</text>
          <rectangle x1="-0.2286" y1="0.7112" x2="0.2286" y2="1.2954" layer="51" />
          <rectangle x1="0.7112" y1="-1.2954" x2="1.1684" y2="-0.7112" layer="51" />
          <rectangle x1="-1.1684" y1="-1.2954" x2="-0.7112" y2="-0.7112" layer="51" />
          <rectangle x1="-1.524" y1="-1.651" x2="1.524" y2="1.651" layer="39" />
        </package>
      </packages>
      <symbols>
        <symbol name="XC6206P">
          <wire x1="-8.89" y1="3.81" x2="8.89" y2="3.81" width="0.1524" layer="94" />
          <wire x1="8.89" y1="3.81" x2="8.89" y2="0" width="0.1524" layer="94" />
          <wire x1="8.89" y1="0" x2="8.89" y2="-3.81" width="0.1524" layer="94" />
          <wire x1="8.89" y1="-3.81" x2="0" y2="-3.81" width="0.1524" layer="94" />
          <wire x1="0" y1="-3.81" x2="-8.89" y2="-3.81" width="0.1524" layer="94" />
          <wire x1="-8.89" y1="-3.81" x2="-8.89" y2="0" width="0.1524" layer="94" />
          <pin name="VIN" x="-12.7" y="0" length="short" direction="in" />
          <pin name="VOUT" x="12.7" y="0" length="short" direction="out" rot="R180" />
          <pin name="VSS" x="0" y="-7.62" length="short" direction="sup" rot="R90" />
          <wire x1="-8.89" y1="0" x2="-8.89" y2="3.81" width="0.1524" layer="94" />
          <wire x1="-10.16" y1="0" x2="-8.89" y2="0" width="0.1524" layer="94" />
          <wire x1="0" y1="-5.08" x2="0" y2="-3.81" width="0.1524" layer="94" />
          <wire x1="10.16" y1="0" x2="8.89" y2="0" width="0.1524" layer="94" />
          <text x="-2.54" y="3.81" size="1.27" layer="96" ratio="10">&gt;VALUE</text>
          <text x="-8.89" y="3.81" size="1.27" layer="95" ratio="10">&gt;NAME</text>
        </symbol>
      </symbols>
      <devicesets>
        <deviceset name="XC6206P" prefix="U" uservalue="yes">
          <gates>
            <gate name="G$1" symbol="XC6206P" x="0" y="0" />
          </gates>
          <devices>
            <device name="-310030014" package="SOT-23" xmlns="eagle">
              <connects>
                <connect gate="G$1" pin="VIN" pad="3" />
                <connect gate="G$1" pin="VOUT" pad="2" />
                <connect gate="G$1" pin="VSS" pad="1" />
              </connects>
              <technologies>
                <technology name="" />
              </technologies>
            </device>
          </devices>
        </deviceset>
      </devicesets>
    </library>
  </drawing>
</eagle>