<?xml version="1.0" encoding="utf-8"?>
<!DOCTYPE eagle SYSTEM "eagle.dtd">
<eagle version="6.6.0">
<drawing>
<settings>
<setting alwaysvectorfont="no"/>
<setting verticaltext="up"/>
</settings>
<grid distance="0.1" unitdist="inch" unit="inch" style="lines" multiple="1" display="no" altdistance="0.01" altunitdist="inch" altunit="inch"/>
<layers>
<layer number="1" name="Top" color="4" fill="1" visible="yes" active="yes"/>
<layer number="16" name="Bottom" color="1" fill="1" visible="yes" active="yes"/>
<layer number="17" name="Pads" color="2" fill="1" visible="yes" active="yes"/>
<layer number="18" name="Vias" color="2" fill="1" visible="yes" active="yes"/>
<layer number="19" name="Unrouted" color="6" fill="1" visible="yes" active="yes"/>
<layer number="20" name="Dimension" color="15" fill="1" visible="yes" active="yes"/>
<layer number="21" name="tPlace" color="7" fill="1" visible="yes" active="yes"/>
<layer number="22" name="bPlace" color="7" fill="1" visible="yes" active="yes"/>
<layer number="23" name="tOrigins" color="15" fill="1" visible="yes" active="yes"/>
<layer number="24" name="bOrigins" color="15" fill="1" visible="yes" active="yes"/>
<layer number="25" name="tNames" color="7" fill="1" visible="yes" active="yes"/>
<layer number="26" name="bNames" color="7" fill="1" visible="yes" active="yes"/>
<layer number="27" name="tValues" color="7" fill="1" visible="yes" active="yes"/>
<layer number="28" name="bValues" color="7" fill="1" visible="yes" active="yes"/>
<layer number="29" name="tStop" color="7" fill="3" visible="yes" active="yes"/>
<layer number="30" name="bStop" color="7" fill="6" visible="yes" active="yes"/>
<layer number="31" name="tCream" color="7" fill="4" visible="yes" active="yes"/>
<layer number="32" name="bCream" color="7" fill="5" visible="yes" active="yes"/>
<layer number="33" name="tFinish" color="6" fill="3" visible="yes" active="yes"/>
<layer number="34" name="bFinish" color="6" fill="6" visible="yes" active="yes"/>
<layer number="35" name="tGlue" color="7" fill="4" visible="yes" active="yes"/>
<layer number="36" name="bGlue" color="7" fill="5" visible="yes" active="yes"/>
<layer number="37" name="tTest" color="7" fill="1" visible="yes" active="yes"/>
<layer number="38" name="bTest" color="7" fill="1" visible="yes" active="yes"/>
<layer number="39" name="tKeepout" color="4" fill="11" visible="yes" active="yes"/>
<layer number="40" name="bKeepout" color="1" fill="11" visible="yes" active="yes"/>
<layer number="41" name="tRestrict" color="4" fill="10" visible="yes" active="yes"/>
<layer number="42" name="bRestrict" color="1" fill="10" visible="yes" active="yes"/>
<layer number="43" name="vRestrict" color="2" fill="10" visible="yes" active="yes"/>
<layer number="44" name="Drills" color="7" fill="1" visible="yes" active="yes"/>
<layer number="45" name="Holes" color="7" fill="1" visible="yes" active="yes"/>
<layer number="46" name="Milling" color="3" fill="1" visible="yes" active="yes"/>
<layer number="47" name="Measures" color="7" fill="1" visible="yes" active="yes"/>
<layer number="48" name="Document" color="7" fill="1" visible="yes" active="yes"/>
<layer number="49" name="Reference" color="7" fill="1" visible="yes" active="yes"/>
<layer number="50" name="dxf" color="7" fill="1" visible="yes" active="yes"/>
<layer number="51" name="tDocu" color="7" fill="1" visible="yes" active="yes"/>
<layer number="52" name="bDocu" color="7" fill="1" visible="yes" active="yes"/>
<layer number="53" name="tGND_GNDA" color="7" fill="1" visible="yes" active="yes"/>
<layer number="54" name="bGND_GNDA" color="7" fill="1" visible="yes" active="yes"/>
<layer number="56" name="wert" color="7" fill="1" visible="yes" active="yes"/>
<layer number="57" name="tCAD" color="7" fill="1" visible="yes" active="yes"/>
<layer number="91" name="Nets" color="2" fill="1" visible="yes" active="yes"/>
<layer number="92" name="Busses" color="1" fill="1" visible="yes" active="yes"/>
<layer number="93" name="Pins" color="2" fill="1" visible="yes" active="yes"/>
<layer number="94" name="Symbols" color="4" fill="1" visible="yes" active="yes"/>
<layer number="95" name="Names" color="7" fill="1" visible="yes" active="yes"/>
<layer number="96" name="Values" color="7" fill="1" visible="yes" active="yes"/>
<layer number="97" name="Info" color="7" fill="1" visible="yes" active="yes"/>
<layer number="98" name="Guide" color="6" fill="1" visible="yes" active="yes"/>
<layer number="99" name="SpiceOrder" color="7" fill="1" visible="yes" active="yes"/>
</layers>
<library>
<packages>
<package name="VQFN32">
<circle x="-3.44" y="2" radius="0.1524" width="0" layer="21"/>
<text x="-2.15" y="3.34" size="1.016" layer="25" font="vector" ratio="15">&gt;NAME</text>
<smd name="P$1" x="-2.545" y="1.75" dx="0.71" dy="0.28" layer="1" stop="no"/>
<polygon width="0" layer="1">
<vertex x="-2.19" y="1.89" curve="-90"/>
<vertex x="-2.05" y="1.75" curve="-90"/>
<vertex x="-2.19" y="1.61"/>
</polygon>
<polygon width="0" layer="31">
<vertex x="-2.19" y="1.89" curve="-90"/>
<vertex x="-2.05" y="1.75" curve="-90"/>
<vertex x="-2.19" y="1.61"/>
</polygon>
<polygon width="0" layer="29">
<vertex x="-2.19" y="1.96" curve="-90"/>
<vertex x="-1.98" y="1.75" curve="-90"/>
<vertex x="-2.19" y="1.54"/>
<vertex x="-2.97" y="1.54"/>
<vertex x="-2.97" y="1.96"/>
</polygon>
<smd name="P$2" x="-2.545" y="1.25" dx="0.71" dy="0.28" layer="1" stop="no"/>
<polygon width="0" layer="1">
<vertex x="-2.19" y="1.39" curve="-90"/>
<vertex x="-2.05" y="1.25" curve="-90"/>
<vertex x="-2.19" y="1.11"/>
</polygon>
<polygon width="0" layer="31">
<vertex x="-2.19" y="1.39" curve="-90"/>
<vertex x="-2.05" y="1.25" curve="-90"/>
<vertex x="-2.19" y="1.11"/>
</polygon>
<polygon width="0" layer="29">
<vertex x="-2.19" y="1.46" curve="-90"/>
<vertex x="-1.98" y="1.25" curve="-90"/>
<vertex x="-2.19" y="1.04"/>
<vertex x="-2.97" y="1.04"/>
<vertex x="-2.97" y="1.46"/>
</polygon>
<smd name="P$3" x="-2.545" y="0.75" dx="0.71" dy="0.28" layer="1" stop="no"/>
<polygon width="0" layer="1">
<vertex x="-2.19" y="0.89" curve="-90"/>
<vertex x="-2.05" y="0.75" curve="-90"/>
<vertex x="-2.19" y="0.61"/>
</polygon>
<polygon width="0" layer="31">
<vertex x="-2.19" y="0.89" curve="-90"/>
<vertex x="-2.05" y="0.75" curve="-90"/>
<vertex x="-2.19" y="0.61"/>
</polygon>
<polygon width="0" layer="29">
<vertex x="-2.19" y="0.96" curve="-90"/>
<vertex x="-1.98" y="0.75" curve="-90"/>
<vertex x="-2.19" y="0.54"/>
<vertex x="-2.97" y="0.54"/>
<vertex x="-2.97" y="0.96"/>
</polygon>
<smd name="P$4" x="-2.545" y="0.25" dx="0.71" dy="0.28" layer="1" stop="no"/>
<polygon width="0" layer="1">
<vertex x="-2.19" y="0.39" curve="-90"/>
<vertex x="-2.05" y="0.25" curve="-90"/>
<vertex x="-2.19" y="0.11"/>
</polygon>
<polygon width="0" layer="31">
<vertex x="-2.19" y="0.39" curve="-90"/>
<vertex x="-2.05" y="0.25" curve="-90"/>
<vertex x="-2.19" y="0.11"/>
</polygon>
<polygon width="0" layer="29">
<vertex x="-2.19" y="0.46" curve="-90"/>
<vertex x="-1.98" y="0.25" curve="-90"/>
<vertex x="-2.19" y="0.04"/>
<vertex x="-2.97" y="0.04"/>
<vertex x="-2.97" y="0.46"/>
</polygon>
<smd name="P$5" x="-2.545" y="-0.25" dx="0.71" dy="0.28" layer="1" stop="no"/>
<polygon width="0" layer="1">
<vertex x="-2.19" y="-0.11" curve="-90"/>
<vertex x="-2.05" y="-0.25" curve="-90"/>
<vertex x="-2.19" y="-0.39"/>
</polygon>
<polygon width="0" layer="31">
<vertex x="-2.19" y="-0.11" curve="-90"/>
<vertex x="-2.05" y="-0.25" curve="-90"/>
<vertex x="-2.19" y="-0.39"/>
</polygon>
<polygon width="0" layer="29">
<vertex x="-2.19" y="-0.04" curve="-90"/>
<vertex x="-1.98" y="-0.25" curve="-90"/>
<vertex x="-2.19" y="-0.46"/>
<vertex x="-2.97" y="-0.46"/>
<vertex x="-2.97" y="-0.04"/>
</polygon>
<smd name="P$6" x="-2.545" y="-0.75" dx="0.71" dy="0.28" layer="1" stop="no"/>
<polygon width="0" layer="1">
<vertex x="-2.19" y="-0.61" curve="-90"/>
<vertex x="-2.05" y="-0.75" curve="-90"/>
<vertex x="-2.19" y="-0.89"/>
</polygon>
<polygon width="0" layer="31">
<vertex x="-2.19" y="-0.61" curve="-90"/>
<vertex x="-2.05" y="-0.75" curve="-90"/>
<vertex x="-2.19" y="-0.89"/>
</polygon>
<polygon width="0" layer="29">
<vertex x="-2.19" y="-0.54" curve="-90"/>
<vertex x="-1.98" y="-0.75" curve="-90"/>
<vertex x="-2.19" y="-0.96"/>
<vertex x="-2.97" y="-0.96"/>
<vertex x="-2.97" y="-0.54"/>
</polygon>
<smd name="P$7" x="-2.545" y="-1.25" dx="0.71" dy="0.28" layer="1" stop="no"/>
<polygon width="0" layer="1">
<vertex x="-2.19" y="-1.11" curve="-90"/>
<vertex x="-2.05" y="-1.25" curve="-90"/>
<vertex x="-2.19" y="-1.39"/>
</polygon>
<polygon width="0" layer="31">
<vertex x="-2.19" y="-1.11" curve="-90"/>
<vertex x="-2.05" y="-1.25" curve="-90"/>
<vertex x="-2.19" y="-1.39"/>
</polygon>
<polygon width="0" layer="29">
<vertex x="-2.19" y="-1.04" curve="-90"/>
<vertex x="-1.98" y="-1.25" curve="-90"/>
<vertex x="-2.19" y="-1.46"/>
<vertex x="-2.97" y="-1.46"/>
<vertex x="-2.97" y="-1.04"/>
</polygon>
<smd name="P$8" x="-2.545" y="-1.75" dx="0.71" dy="0.28" layer="1" stop="no"/>
<polygon width="0" layer="1">
<vertex x="-2.19" y="-1.61" curve="-90"/>
<vertex x="-2.05" y="-1.75" curve="-90"/>
<vertex x="-2.19" y="-1.89"/>
</polygon>
<polygon width="0" layer="31">
<vertex x="-2.19" y="-1.61" curve="-90"/>
<vertex x="-2.05" y="-1.75" curve="-90"/>
<vertex x="-2.19" y="-1.89"/>
</polygon>
<polygon width="0" layer="29">
<vertex x="-2.19" y="-1.54" curve="-90"/>
<vertex x="-1.98" y="-1.75" curve="-90"/>
<vertex x="-2.19" y="-1.96"/>
<vertex x="-2.97" y="-1.96"/>
<vertex x="-2.97" y="-1.54"/>
</polygon>
<smd name="P$9" x="-1.75" y="-2.545" dx="0.71" dy="0.28" layer="1" rot="R90" stop="no"/>
<polygon width="0" layer="1">
<vertex x="-1.89" y="-2.19" curve="-90"/>
<vertex x="-1.75" y="-2.05" curve="-90"/>
<vertex x="-1.61" y="-2.19"/>
</polygon>
<polygon width="0" layer="31">
<vertex x="-1.89" y="-2.19" curve="-90"/>
<vertex x="-1.75" y="-2.05" curve="-90"/>
<vertex x="-1.61" y="-2.19"/>
</polygon>
<polygon width="0" layer="29">
<vertex x="-1.96" y="-2.19" curve="-90"/>
<vertex x="-1.75" y="-1.98" curve="-90"/>
<vertex x="-1.54" y="-2.19"/>
<vertex x="-1.54" y="-2.97"/>
<vertex x="-1.96" y="-2.97"/>
</polygon>
<smd name="P$10" x="-1.25" y="-2.545" dx="0.71" dy="0.28" layer="1" rot="R90" stop="no"/>
<polygon width="0" layer="1">
<vertex x="-1.39" y="-2.19" curve="-90"/>
<vertex x="-1.25" y="-2.05" curve="-90"/>
<vertex x="-1.11" y="-2.19"/>
</polygon>
<polygon width="0" layer="31">
<vertex x="-1.39" y="-2.19" curve="-90"/>
<vertex x="-1.25" y="-2.05" curve="-90"/>
<vertex x="-1.11" y="-2.19"/>
</polygon>
<polygon width="0" layer="29">
<vertex x="-1.46" y="-2.19" curve="-90"/>
<vertex x="-1.25" y="-1.98" curve="-90"/>
<vertex x="-1.04" y="-2.19"/>
<vertex x="-1.04" y="-2.97"/>
<vertex x="-1.46" y="-2.97"/>
</polygon>
<smd name="P$11" x="-0.75" y="-2.545" dx="0.71" dy="0.28" layer="1" rot="R90" stop="no"/>
<polygon width="0" layer="1">
<vertex x="-0.89" y="-2.19" curve="-90"/>
<vertex x="-0.75" y="-2.05" curve="-90"/>
<vertex x="-0.61" y="-2.19"/>
</polygon>
<polygon width="0" layer="31">
<vertex x="-0.89" y="-2.19" curve="-90"/>
<vertex x="-0.75" y="-2.05" curve="-90"/>
<vertex x="-0.61" y="-2.19"/>
</polygon>
<polygon width="0" layer="29">
<vertex x="-0.96" y="-2.19" curve="-90"/>
<vertex x="-0.75" y="-1.98" curve="-90"/>
<vertex x="-0.54" y="-2.19"/>
<vertex x="-0.54" y="-2.97"/>
<vertex x="-0.96" y="-2.97"/>
</polygon>
<smd name="P$12" x="-0.25" y="-2.545" dx="0.71" dy="0.28" layer="1" rot="R90" stop="no"/>
<polygon width="0" layer="1">
<vertex x="-0.39" y="-2.19" curve="-90"/>
<vertex x="-0.25" y="-2.05" curve="-90"/>
<vertex x="-0.11" y="-2.19"/>
</polygon>
<polygon width="0" layer="31">
<vertex x="-0.39" y="-2.19" curve="-90"/>
<vertex x="-0.25" y="-2.05" curve="-90"/>
<vertex x="-0.11" y="-2.19"/>
</polygon>
<polygon width="0" layer="29">
<vertex x="-0.46" y="-2.19" curve="-90"/>
<vertex x="-0.25" y="-1.98" curve="-90"/>
<vertex x="-0.04" y="-2.19"/>
<vertex x="-0.04" y="-2.97"/>
<vertex x="-0.46" y="-2.97"/>
</polygon>
<smd name="P$13" x="0.25" y="-2.545" dx="0.71" dy="0.28" layer="1" rot="R90" stop="no"/>
<polygon width="0" layer="1">
<vertex x="0.11" y="-2.19" curve="-90"/>
<vertex x="0.25" y="-2.05" curve="-90"/>
<vertex x="0.39" y="-2.19"/>
</polygon>
<polygon width="0" layer="31">
<vertex x="0.11" y="-2.19" curve="-90"/>
<vertex x="0.25" y="-2.05" curve="-90"/>
<vertex x="0.39" y="-2.19"/>
</polygon>
<polygon width="0" layer="29">
<vertex x="0.04" y="-2.19" curve="-90"/>
<vertex x="0.25" y="-1.98" curve="-90"/>
<vertex x="0.46" y="-2.19"/>
<vertex x="0.46" y="-2.97"/>
<vertex x="0.04" y="-2.97"/>
</polygon>
<smd name="P$14" x="0.75" y="-2.545" dx="0.71" dy="0.28" layer="1" rot="R90" stop="no"/>
<polygon width="0" layer="1">
<vertex x="0.61" y="-2.19" curve="-90"/>
<vertex x="0.75" y="-2.05" curve="-90"/>
<vertex x="0.89" y="-2.19"/>
</polygon>
<polygon width="0" layer="31">
<vertex x="0.61" y="-2.19" curve="-90"/>
<vertex x="0.75" y="-2.05" curve="-90"/>
<vertex x="0.89" y="-2.19"/>
</polygon>
<polygon width="0" layer="29">
<vertex x="0.54" y="-2.19" curve="-90"/>
<vertex x="0.75" y="-1.98" curve="-90"/>
<vertex x="0.96" y="-2.19"/>
<vertex x="0.96" y="-2.97"/>
<vertex x="0.54" y="-2.97"/>
</polygon>
<smd name="P$15" x="1.25" y="-2.545" dx="0.71" dy="0.28" layer="1" rot="R90" stop="no"/>
<polygon width="0" layer="1">
<vertex x="1.11" y="-2.19" curve="-90"/>
<vertex x="1.25" y="-2.05" curve="-90"/>
<vertex x="1.39" y="-2.19"/>
</polygon>
<polygon width="0" layer="31">
<vertex x="1.11" y="-2.19" curve="-90"/>
<vertex x="1.25" y="-2.05" curve="-90"/>
<vertex x="1.39" y="-2.19"/>
</polygon>
<polygon width="0" layer="29">
<vertex x="1.04" y="-2.19" curve="-90"/>
<vertex x="1.25" y="-1.98" curve="-90"/>
<vertex x="1.46" y="-2.19"/>
<vertex x="1.46" y="-2.97"/>
<vertex x="1.04" y="-2.97"/>
</polygon>
<smd name="P$16" x="1.75" y="-2.545" dx="0.71" dy="0.28" layer="1" rot="R90" stop="no"/>
<polygon width="0" layer="1">
<vertex x="1.61" y="-2.19" curve="-90"/>
<vertex x="1.75" y="-2.05" curve="-90"/>
<vertex x="1.89" y="-2.19"/>
</polygon>
<polygon width="0" layer="31">
<vertex x="1.61" y="-2.19" curve="-90"/>
<vertex x="1.75" y="-2.05" curve="-90"/>
<vertex x="1.89" y="-2.19"/>
</polygon>
<polygon width="0" layer="29">
<vertex x="1.54" y="-2.19" curve="-90"/>
<vertex x="1.75" y="-1.98" curve="-90"/>
<vertex x="1.96" y="-2.19"/>
<vertex x="1.96" y="-2.97"/>
<vertex x="1.54" y="-2.97"/>
</polygon>
<smd name="P$17" x="2.545" y="-1.75" dx="0.71" dy="0.28" layer="1" rot="R180" stop="no"/>
<polygon width="0" layer="1">
<vertex x="2.19" y="-1.89" curve="-90"/>
<vertex x="2.05" y="-1.75" curve="-90"/>
<vertex x="2.19" y="-1.61"/>
</polygon>
<polygon width="0" layer="31">
<vertex x="2.19" y="-1.89" curve="-90"/>
<vertex x="2.05" y="-1.75" curve="-90"/>
<vertex x="2.19" y="-1.61"/>
</polygon>
<polygon width="0" layer="29">
<vertex x="2.19" y="-1.96" curve="-90"/>
<vertex x="1.98" y="-1.75" curve="-90"/>
<vertex x="2.19" y="-1.54"/>
<vertex x="2.97" y="-1.54"/>
<vertex x="2.97" y="-1.96"/>
</polygon>
<smd name="P$18" x="2.545" y="-1.25" dx="0.71" dy="0.28" layer="1" rot="R180" stop="no"/>
<polygon width="0" layer="1">
<vertex x="2.19" y="-1.39" curve="-90"/>
<vertex x="2.05" y="-1.25" curve="-90"/>
<vertex x="2.19" y="-1.11"/>
</polygon>
<polygon width="0" layer="31">
<vertex x="2.19" y="-1.39" curve="-90"/>
<vertex x="2.05" y="-1.25" curve="-90"/>
<vertex x="2.19" y="-1.11"/>
</polygon>
<polygon width="0" layer="29">
<vertex x="2.19" y="-1.46" curve="-90"/>
<vertex x="1.98" y="-1.25" curve="-90"/>
<vertex x="2.19" y="-1.04"/>
<vertex x="2.97" y="-1.04"/>
<vertex x="2.97" y="-1.46"/>
</polygon>
<smd name="P$19" x="2.545" y="-0.75" dx="0.71" dy="0.28" layer="1" rot="R180" stop="no"/>
<polygon width="0" layer="1">
<vertex x="2.19" y="-0.89" curve="-90"/>
<vertex x="2.05" y="-0.75" curve="-90"/>
<vertex x="2.19" y="-0.61"/>
</polygon>
<polygon width="0" layer="31">
<vertex x="2.19" y="-0.89" curve="-90"/>
<vertex x="2.05" y="-0.75" curve="-90"/>
<vertex x="2.19" y="-0.61"/>
</polygon>
<polygon width="0" layer="29">
<vertex x="2.19" y="-0.96" curve="-90"/>
<vertex x="1.98" y="-0.75" curve="-90"/>
<vertex x="2.19" y="-0.54"/>
<vertex x="2.97" y="-0.54"/>
<vertex x="2.97" y="-0.96"/>
</polygon>
<smd name="P$20" x="2.545" y="-0.25" dx="0.71" dy="0.28" layer="1" rot="R180" stop="no"/>
<polygon width="0" layer="1">
<vertex x="2.19" y="-0.39" curve="-90"/>
<vertex x="2.05" y="-0.25" curve="-90"/>
<vertex x="2.19" y="-0.11"/>
</polygon>
<polygon width="0" layer="31">
<vertex x="2.19" y="-0.39" curve="-90"/>
<vertex x="2.05" y="-0.25" curve="-90"/>
<vertex x="2.19" y="-0.11"/>
</polygon>
<polygon width="0" layer="29">
<vertex x="2.19" y="-0.46" curve="-90"/>
<vertex x="1.98" y="-0.25" curve="-90"/>
<vertex x="2.19" y="-0.04"/>
<vertex x="2.97" y="-0.04"/>
<vertex x="2.97" y="-0.46"/>
</polygon>
<smd name="P$21" x="2.545" y="0.25" dx="0.71" dy="0.28" layer="1" rot="R180" stop="no"/>
<polygon width="0" layer="1">
<vertex x="2.19" y="0.11" curve="-90"/>
<vertex x="2.05" y="0.25" curve="-90"/>
<vertex x="2.19" y="0.39"/>
</polygon>
<polygon width="0" layer="31">
<vertex x="2.19" y="0.11" curve="-90"/>
<vertex x="2.05" y="0.25" curve="-90"/>
<vertex x="2.19" y="0.39"/>
</polygon>
<polygon width="0" layer="29">
<vertex x="2.19" y="0.04" curve="-90"/>
<vertex x="1.98" y="0.25" curve="-90"/>
<vertex x="2.19" y="0.46"/>
<vertex x="2.97" y="0.46"/>
<vertex x="2.97" y="0.04"/>
</polygon>
<smd name="P$22" x="2.545" y="0.75" dx="0.71" dy="0.28" layer="1" rot="R180" stop="no"/>
<polygon width="0" layer="1">
<vertex x="2.19" y="0.61" curve="-90"/>
<vertex x="2.05" y="0.75" curve="-90"/>
<vertex x="2.19" y="0.89"/>
</polygon>
<polygon width="0" layer="31">
<vertex x="2.19" y="0.61" curve="-90"/>
<vertex x="2.05" y="0.75" curve="-90"/>
<vertex x="2.19" y="0.89"/>
</polygon>
<polygon width="0" layer="29">
<vertex x="2.19" y="0.54" curve="-90"/>
<vertex x="1.98" y="0.75" curve="-90"/>
<vertex x="2.19" y="0.96"/>
<vertex x="2.97" y="0.96"/>
<vertex x="2.97" y="0.54"/>
</polygon>
<smd name="P$23" x="2.545" y="1.25" dx="0.71" dy="0.28" layer="1" rot="R180" stop="no"/>
<polygon width="0" layer="1">
<vertex x="2.19" y="1.11" curve="-90"/>
<vertex x="2.05" y="1.25" curve="-90"/>
<vertex x="2.19" y="1.39"/>
</polygon>
<polygon width="0" layer="31">
<vertex x="2.19" y="1.11" curve="-90"/>
<vertex x="2.05" y="1.25" curve="-90"/>
<vertex x="2.19" y="1.39"/>
</polygon>
<polygon width="0" layer="29">
<vertex x="2.19" y="1.04" curve="-90"/>
<vertex x="1.98" y="1.25" curve="-90"/>
<vertex x="2.19" y="1.46"/>
<vertex x="2.97" y="1.46"/>
<vertex x="2.97" y="1.04"/>
</polygon>
<smd name="P$24" x="2.545" y="1.75" dx="0.71" dy="0.28" layer="1" rot="R180" stop="no"/>
<polygon width="0" layer="1">
<vertex x="2.19" y="1.61" curve="-90"/>
<vertex x="2.05" y="1.75" curve="-90"/>
<vertex x="2.19" y="1.89"/>
</polygon>
<polygon width="0" layer="31">
<vertex x="2.19" y="1.61" curve="-90"/>
<vertex x="2.05" y="1.75" curve="-90"/>
<vertex x="2.19" y="1.89"/>
</polygon>
<polygon width="0" layer="29">
<vertex x="2.19" y="1.54" curve="-90"/>
<vertex x="1.98" y="1.75" curve="-90"/>
<vertex x="2.19" y="1.96"/>
<vertex x="2.97" y="1.96"/>
<vertex x="2.97" y="1.54"/>
</polygon>
<smd name="P$25" x="1.75" y="2.545" dx="0.71" dy="0.28" layer="1" rot="R270" stop="no"/>
<polygon width="0" layer="1">
<vertex x="1.89" y="2.19" curve="-90"/>
<vertex x="1.75" y="2.05" curve="-90"/>
<vertex x="1.61" y="2.19"/>
</polygon>
<polygon width="0" layer="31">
<vertex x="1.89" y="2.19" curve="-90"/>
<vertex x="1.75" y="2.05" curve="-90"/>
<vertex x="1.61" y="2.19"/>
</polygon>
<polygon width="0" layer="29">
<vertex x="1.96" y="2.19" curve="-90"/>
<vertex x="1.75" y="1.98" curve="-90"/>
<vertex x="1.54" y="2.19"/>
<vertex x="1.54" y="2.97"/>
<vertex x="1.96" y="2.97"/>
</polygon>
<smd name="P$26" x="1.25" y="2.545" dx="0.71" dy="0.28" layer="1" rot="R270" stop="no"/>
<polygon width="0" layer="1">
<vertex x="1.39" y="2.19" curve="-90"/>
<vertex x="1.25" y="2.05" curve="-90"/>
<vertex x="1.11" y="2.19"/>
</polygon>
<polygon width="0" layer="31">
<vertex x="1.39" y="2.19" curve="-90"/>
<vertex x="1.25" y="2.05" curve="-90"/>
<vertex x="1.11" y="2.19"/>
</polygon>
<polygon width="0" layer="29">
<vertex x="1.46" y="2.19" curve="-90"/>
<vertex x="1.25" y="1.98" curve="-90"/>
<vertex x="1.04" y="2.19"/>
<vertex x="1.04" y="2.97"/>
<vertex x="1.46" y="2.97"/>
</polygon>
<smd name="P$27" x="0.75" y="2.545" dx="0.71" dy="0.28" layer="1" rot="R270" stop="no"/>
<polygon width="0" layer="1">
<vertex x="0.89" y="2.19" curve="-90"/>
<vertex x="0.75" y="2.05" curve="-90"/>
<vertex x="0.61" y="2.19"/>
</polygon>
<polygon width="0" layer="31">
<vertex x="0.89" y="2.19" curve="-90"/>
<vertex x="0.75" y="2.05" curve="-90"/>
<vertex x="0.61" y="2.19"/>
</polygon>
<polygon width="0" layer="29">
<vertex x="0.96" y="2.19" curve="-90"/>
<vertex x="0.75" y="1.98" curve="-90"/>
<vertex x="0.54" y="2.19"/>
<vertex x="0.54" y="2.97"/>
<vertex x="0.96" y="2.97"/>
</polygon>
<smd name="P$28" x="0.25" y="2.545" dx="0.71" dy="0.28" layer="1" rot="R270" stop="no"/>
<polygon width="0" layer="1">
<vertex x="0.39" y="2.19" curve="-90"/>
<vertex x="0.25" y="2.05" curve="-90"/>
<vertex x="0.11" y="2.19"/>
</polygon>
<polygon width="0" layer="31">
<vertex x="0.39" y="2.19" curve="-90"/>
<vertex x="0.25" y="2.05" curve="-90"/>
<vertex x="0.11" y="2.19"/>
</polygon>
<polygon width="0" layer="29">
<vertex x="0.46" y="2.19" curve="-90"/>
<vertex x="0.25" y="1.98" curve="-90"/>
<vertex x="0.04" y="2.19"/>
<vertex x="0.04" y="2.97"/>
<vertex x="0.46" y="2.97"/>
</polygon>
<smd name="P$29" x="-0.25" y="2.545" dx="0.71" dy="0.28" layer="1" rot="R270" stop="no"/>
<polygon width="0" layer="1">
<vertex x="-0.11" y="2.19" curve="-90"/>
<vertex x="-0.25" y="2.05" curve="-90"/>
<vertex x="-0.39" y="2.19"/>
</polygon>
<polygon width="0" layer="31">
<vertex x="-0.11" y="2.19" curve="-90"/>
<vertex x="-0.25" y="2.05" curve="-90"/>
<vertex x="-0.39" y="2.19"/>
</polygon>
<polygon width="0" layer="29">
<vertex x="-0.04" y="2.19" curve="-90"/>
<vertex x="-0.25" y="1.98" curve="-90"/>
<vertex x="-0.46" y="2.19"/>
<vertex x="-0.46" y="2.97"/>
<vertex x="-0.04" y="2.97"/>
</polygon>
<smd name="P$30" x="-0.75" y="2.545" dx="0.71" dy="0.28" layer="1" rot="R270" stop="no"/>
<polygon width="0" layer="1">
<vertex x="-0.61" y="2.19" curve="-90"/>
<vertex x="-0.75" y="2.05" curve="-90"/>
<vertex x="-0.89" y="2.19"/>
</polygon>
<polygon width="0" layer="31">
<vertex x="-0.61" y="2.19" curve="-90"/>
<vertex x="-0.75" y="2.05" curve="-90"/>
<vertex x="-0.89" y="2.19"/>
</polygon>
<polygon width="0" layer="29">
<vertex x="-0.54" y="2.19" curve="-90"/>
<vertex x="-0.75" y="1.98" curve="-90"/>
<vertex x="-0.96" y="2.19"/>
<vertex x="-0.96" y="2.97"/>
<vertex x="-0.54" y="2.97"/>
</polygon>
<smd name="P$31" x="-1.25" y="2.545" dx="0.71" dy="0.28" layer="1" rot="R270" stop="no"/>
<polygon width="0" layer="1">
<vertex x="-1.11" y="2.19" curve="-90"/>
<vertex x="-1.25" y="2.05" curve="-90"/>
<vertex x="-1.39" y="2.19"/>
</polygon>
<polygon width="0" layer="31">
<vertex x="-1.11" y="2.19" curve="-90"/>
<vertex x="-1.25" y="2.05" curve="-90"/>
<vertex x="-1.39" y="2.19"/>
</polygon>
<polygon width="0" layer="29">
<vertex x="-1.04" y="2.19" curve="-90"/>
<vertex x="-1.25" y="1.98" curve="-90"/>
<vertex x="-1.46" y="2.19"/>
<vertex x="-1.46" y="2.97"/>
<vertex x="-1.04" y="2.97"/>
</polygon>
<smd name="P$32" x="-1.75" y="2.545" dx="0.71" dy="0.28" layer="1" rot="R270" stop="no"/>
<polygon width="0" layer="1">
<vertex x="-1.61" y="2.19" curve="-90"/>
<vertex x="-1.75" y="2.05" curve="-90"/>
<vertex x="-1.89" y="2.19"/>
</polygon>
<polygon width="0" layer="31">
<vertex x="-1.61" y="2.19" curve="-90"/>
<vertex x="-1.75" y="2.05" curve="-90"/>
<vertex x="-1.89" y="2.19"/>
</polygon>
<polygon width="0" layer="29">
<vertex x="-1.54" y="2.19" curve="-90"/>
<vertex x="-1.75" y="1.98" curve="-90"/>
<vertex x="-1.96" y="2.19"/>
<vertex x="-1.96" y="2.97"/>
<vertex x="-1.54" y="2.97"/>
</polygon>
<smd name="P$33" x="0" y="0" dx="3.45" dy="3.45" layer="1" cream="no"/>
<rectangle x1="0.15" y1="0.15" x2="1.6" y2="1.6" layer="31"/>
<rectangle x1="-1.6" y1="0.15" x2="-0.15" y2="1.6" layer="31"/>
<rectangle x1="-1.6" y1="-1.6" x2="-0.15" y2="-0.15" layer="31"/>
<rectangle x1="0.15" y1="-1.6" x2="1.6" y2="-0.15" layer="31"/>
<pad name="P$34" x="-1" y="1" drill="0.2" diameter="0.4"/>
<pad name="P$35" x="0" y="1" drill="0.2" diameter="0.4"/>
<pad name="P$36" x="1" y="1" drill="0.2" diameter="0.4"/>
<pad name="P$37" x="-1" y="0" drill="0.2" diameter="0.4"/>
<pad name="P$38" x="0" y="0" drill="0.2" diameter="0.4"/>
<pad name="P$39" x="1" y="0" drill="0.2" diameter="0.4"/>
<pad name="P$40" x="-1" y="-1" drill="0.2" diameter="0.4"/>
<pad name="P$41" x="0" y="-1" drill="0.2" diameter="0.4"/>
<pad name="P$42" x="1" y="-1" drill="0.2" diameter="0.4"/>
<wire x1="-0.26" y1="1.69" x2="-0.26" y2="2.24" width="0.1542" layer="1"/>
<wire x1="-0.18" y1="1.7" x2="-0.19" y2="1.7" width="0.1542" layer="1"/>
<wire x1="-0.19" y1="1.7" x2="-0.19" y2="2.24" width="0.1542" layer="1"/>
<wire x1="-0.34" y1="1.71" x2="-0.31" y2="1.71" width="0.1542" layer="1"/>
<wire x1="-0.31" y1="1.71" x2="-0.31" y2="2.23" width="0.1542" layer="1"/>
</package>
</packages>
<symbols>
<symbol name="24LEDSINK">
<pin name="SIN" x="-20.32" y="15.24" length="middle" direction="pas"/>
<pin name="SCLK" x="-20.32" y="12.7" length="middle" direction="pas"/>
<pin name="XLAT" x="-20.32" y="10.16" length="middle" direction="pas"/>
<pin name="BLANK" x="-20.32" y="7.62" length="middle" direction="pas"/>
<pin name="IREF" x="-20.32" y="0" length="middle" direction="pas"/>
<pin name="VCC" x="-20.32" y="-5.08" length="middle" direction="pas"/>
<pin name="SOUT" x="-20.32" y="-12.7" length="middle" direction="pas"/>
<pin name="GND" x="-20.32" y="-20.32" length="middle" direction="pas"/>
<pin name="OUT0" x="-10.16" y="30.48" length="middle" direction="pas" rot="R270"/>
<pin name="OUT1" x="-7.62" y="30.48" length="middle" direction="pas" rot="R270"/>
<pin name="OUT2" x="-5.08" y="30.48" length="middle" direction="pas" rot="R270"/>
<pin name="OUT3" x="-2.54" y="30.48" length="middle" direction="pas" rot="R270"/>
<pin name="OUT4" x="0" y="30.48" length="middle" direction="pas" rot="R270"/>
<pin name="OUT5" x="2.54" y="30.48" length="middle" direction="pas" rot="R270"/>
<pin name="OUT6" x="5.08" y="30.48" length="middle" direction="pas" rot="R270"/>
<pin name="OUT7" x="7.62" y="30.48" length="middle" direction="pas" rot="R270"/>
<pin name="OUT8" x="22.86" y="17.78" length="middle" direction="pas" rot="R180"/>
<pin name="OUT9" x="22.86" y="15.24" length="middle" direction="pas" rot="R180"/>
<pin name="OUT10" x="22.86" y="12.7" length="middle" direction="pas" rot="R180"/>
<pin name="OUT11" x="22.86" y="10.16" length="middle" direction="pas" rot="R180"/>
<pin name="OUT12" x="22.86" y="7.62" length="middle" direction="pas" rot="R180"/>
<pin name="OUT13" x="22.86" y="5.08" length="middle" direction="pas" rot="R180"/>
<pin name="OUT14" x="22.86" y="2.54" length="middle" direction="pas" rot="R180"/>
<pin name="OUT15" x="22.86" y="0" length="middle" direction="pas" rot="R180"/>
<pin name="OUT16" x="22.86" y="-2.54" length="middle" direction="pas" rot="R180"/>
<pin name="OUT17" x="22.86" y="-5.08" length="middle" direction="pas" rot="R180"/>
<pin name="OUT18" x="22.86" y="-7.62" length="middle" direction="pas" rot="R180"/>
<pin name="OUT19" x="22.86" y="-10.16" length="middle" direction="pas" rot="R180"/>
<pin name="OUT20" x="22.86" y="-12.7" length="middle" direction="pas" rot="R180"/>
<pin name="OUT21" x="22.86" y="-15.24" length="middle" direction="pas" rot="R180"/>
<pin name="OUT22" x="22.86" y="-17.78" length="middle" direction="pas" rot="R180"/>
<pin name="OUT23" x="22.86" y="-20.32" length="middle" direction="pas" rot="R180"/>
<wire x1="17.78" y1="25.4" x2="-15.24" y2="25.4" width="0.254" layer="94"/>
<wire x1="-15.24" y1="25.4" x2="-15.24" y2="-25.4" width="0.254" layer="94"/>
<wire x1="-15.24" y1="-25.4" x2="17.78" y2="-25.4" width="0.254" layer="94"/>
<wire x1="17.78" y1="-25.4" x2="17.78" y2="25.4" width="0.254" layer="94"/>
<text x="17.78" y="30.48" size="1.778" layer="95">&gt;NAME</text>
<text x="17.78" y="27.94" size="1.778" layer="96">&gt;VALUE</text>
</symbol>
</symbols>
<devicesets>
<deviceset name="TLC5947RHBTG4">
<gates>
<gate name="G$1" symbol="24LEDSINK" x="0" y="0"/>
</gates>
<devices>
<device name="" package="VQFN32">
<connects>
<connect gate="G$1" pin="BLANK" pad="P$34"/>
<connect gate="G$1" pin="GND" pad="P$29"/>
<connect gate="G$1" pin="IREF" pad="P$27"/>
<connect gate="G$1" pin="OUT0" pad="P$1"/>
<connect gate="G$1" pin="OUT1" pad="P$2"/>
<connect gate="G$1" pin="OUT10" pad="P$11"/>
<connect gate="G$1" pin="OUT11" pad="P$12"/>
<connect gate="G$1" pin="OUT12" pad="P$13"/>
<connect gate="G$1" pin="OUT13" pad="P$14"/>
<connect gate="G$1" pin="OUT14" pad="P$15"/>
<connect gate="G$1" pin="OUT15" pad="P$16"/>
<connect gate="G$1" pin="OUT16" pad="P$17"/>
<connect gate="G$1" pin="OUT17" pad="P$18"/>
<connect gate="G$1" pin="OUT18" pad="P$19"/>
<connect gate="G$1" pin="OUT19" pad="P$20"/>
<connect gate="G$1" pin="OUT2" pad="P$3"/>
<connect gate="G$1" pin="OUT20" pad="P$21"/>
<connect gate="G$1" pin="OUT21" pad="P$22"/>
<connect gate="G$1" pin="OUT22" pad="P$23"/>
<connect gate="G$1" pin="OUT23" pad="P$24"/>
<connect gate="G$1" pin="OUT3" pad="P$4"/>
<connect gate="G$1" pin="OUT4" pad="P$5"/>
<connect gate="G$1" pin="OUT5" pad="P$6"/>
<connect gate="G$1" pin="OUT6" pad="P$7"/>
<connect gate="G$1" pin="OUT7" pad="P$8"/>
<connect gate="G$1" pin="OUT8" pad="P$9"/>
<connect gate="G$1" pin="OUT9" pad="P$10"/>
<connect gate="G$1" pin="SCLK" pad="P$35"/>
<connect gate="G$1" pin="SIN" pad="P$36"/>
<connect gate="G$1" pin="SOUT" pad="P$25"/>
<connect gate="G$1" pin="VCC" pad="P$28"/>
<connect gate="G$1" pin="XLAT" pad="P$26"/>
</connects>
<technologies>
<technology name=""/>
</technologies>
</device>
</devices>
</deviceset>
</devicesets>
</library>
</drawing>
</eagle>
