<eagle version="6.5.0" xmlns="eagle">
  <drawing>
    <library>
      <packages>
        <package name="TQFN40" xmlns="eagle">
          <smd name="P$1" x="-2.9" y="2.25" dx="0.8" dy="0.25" layer="1" stop="no" />
          <smd name="P$2" x="-2.9" y="1.75" dx="0.8" dy="0.25" layer="1" />
          <smd name="P$3" x="-2.9" y="1.25" dx="0.8" dy="0.25" layer="1" />
          <smd name="P$4" x="-2.9" y="0.75" dx="0.8" dy="0.25" layer="1" />
          <smd name="P$5" x="-2.9" y="0.25" dx="0.8" dy="0.25" layer="1" />
          <smd name="P$6" x="-2.9" y="-0.25" dx="0.8" dy="0.25" layer="1" />
          <smd name="P$7" x="-2.9" y="-0.75" dx="0.8" dy="0.25" layer="1" />
          <smd name="P$8" x="-2.9" y="-1.25" dx="0.8" dy="0.25" layer="1" />
          <smd name="P$9" x="-2.9" y="-1.75" dx="0.8" dy="0.25" layer="1" />
          <smd name="P$10" x="-2.9" y="-2.25" dx="0.8" dy="0.25" layer="1" stop="no" />
          <smd name="P$11" x="-2.25" y="-2.9" dx="0.8" dy="0.25" layer="1" rot="R90" stop="no" />
          <smd name="P$12" x="-1.75" y="-2.9" dx="0.8" dy="0.25" layer="1" rot="R90" />
          <smd name="P$13" x="-1.25" y="-2.9" dx="0.8" dy="0.25" layer="1" rot="R90" />
          <smd name="P$14" x="-0.75" y="-2.9" dx="0.8" dy="0.25" layer="1" rot="R90" />
          <smd name="P$15" x="-0.25" y="-2.9" dx="0.8" dy="0.25" layer="1" rot="R90" />
          <smd name="P$16" x="0.25" y="-2.9" dx="0.8" dy="0.25" layer="1" rot="R90" />
          <smd name="P$17" x="0.75" y="-2.9" dx="0.8" dy="0.25" layer="1" rot="R90" />
          <smd name="P$18" x="1.25" y="-2.9" dx="0.8" dy="0.25" layer="1" rot="R90" />
          <smd name="P$19" x="1.75" y="-2.9" dx="0.8" dy="0.25" layer="1" rot="R90" />
          <smd name="P$20" x="2.25" y="-2.9" dx="0.8" dy="0.25" layer="1" rot="R90" stop="no" />
          <smd name="P$21" x="2.9" y="-2.25" dx="0.8" dy="0.25" layer="1" rot="R180" stop="no" />
          <smd name="P$22" x="2.9" y="-1.75" dx="0.8" dy="0.25" layer="1" rot="R180" />
          <smd name="P$23" x="2.9" y="-1.25" dx="0.8" dy="0.25" layer="1" rot="R180" />
          <smd name="P$24" x="2.9" y="-0.75" dx="0.8" dy="0.25" layer="1" rot="R180" />
          <smd name="P$25" x="2.9" y="-0.25" dx="0.8" dy="0.25" layer="1" rot="R180" />
          <smd name="P$26" x="2.9" y="0.25" dx="0.8" dy="0.25" layer="1" rot="R180" />
          <smd name="P$27" x="2.9" y="0.75" dx="0.8" dy="0.25" layer="1" rot="R180" />
          <smd name="P$28" x="2.9" y="1.25" dx="0.8" dy="0.25" layer="1" rot="R180" />
          <smd name="P$29" x="2.9" y="1.75" dx="0.8" dy="0.25" layer="1" rot="R180" />
          <smd name="P$30" x="2.9" y="2.25" dx="0.8" dy="0.25" layer="1" rot="R180" stop="no" />
          <smd name="P$31" x="2.25" y="2.9" dx="0.8" dy="0.25" layer="1" rot="R270" stop="no" />
          <smd name="P$32" x="1.75" y="2.9" dx="0.8" dy="0.25" layer="1" rot="R270" />
          <smd name="P$33" x="1.25" y="2.9" dx="0.8" dy="0.25" layer="1" rot="R270" />
          <smd name="P$34" x="0.75" y="2.9" dx="0.8" dy="0.25" layer="1" rot="R270" />
          <smd name="P$35" x="0.25" y="2.9" dx="0.8" dy="0.25" layer="1" rot="R270" />
          <smd name="P$36" x="-0.25" y="2.9" dx="0.8" dy="0.25" layer="1" rot="R270" />
          <smd name="P$37" x="-0.75" y="2.9" dx="0.8" dy="0.25" layer="1" rot="R270" />
          <smd name="P$38" x="-1.25" y="2.9" dx="0.8" dy="0.25" layer="1" rot="R270" />
          <smd name="P$39" x="-1.75" y="2.9" dx="0.8" dy="0.25" layer="1" rot="R270" />
          <smd name="P$40" x="-2.25" y="2.9" dx="0.8" dy="0.25" layer="1" rot="R270" stop="no" />
          <rectangle x1="1.8" y1="2.725" x2="2.7" y2="3.075" layer="29" rot="R270" />
          <rectangle x1="2.725" y1="1.8" x2="3.075" y2="2.7" layer="29" rot="R270" />
          <rectangle x1="1.8" y1="-3.075" x2="2.7" y2="-2.725" layer="29" rot="R270" />
          <rectangle x1="2.725" y1="-2.7" x2="3.075" y2="-1.8" layer="29" rot="R270" />
          <rectangle x1="-2.7" y1="-3.075" x2="-1.8" y2="-2.725" layer="29" rot="R270" />
          <rectangle x1="-3.075" y1="-2.7" x2="-2.725" y2="-1.8" layer="29" rot="R270" />
          <rectangle x1="-3.075" y1="1.8" x2="-2.725" y2="2.7" layer="29" rot="R270" />
          <rectangle x1="-2.7" y1="2.725" x2="-1.8" y2="3.075" layer="29" rot="R270" />
          <circle x="-3.3" y="2.575" radius="0.15239999999999998" width="0" layer="21" />
          <text x="-2.9" y="3.5" size="1.016" layer="25" ratio="15" font="vector">&gt;NAME</text>
        </package>
      </packages>
      <symbols>
        <symbol name="4CH16BITADC-8-12BITDUALDAC">
          <pin name="AINDN" x="-15.24" y="-10.16" length="middle" direction="pas" />
          <pin name="AINDP" x="-15.24" y="-12.7" length="middle" direction="pas" />
          <pin name="AINCN" x="-15.24" y="-2.54" length="middle" direction="pas" />
          <pin name="AINCP" x="-15.24" y="-5.08" length="middle" direction="pas" />
          <pin name="AINBN" x="-15.24" y="5.08" length="middle" direction="pas" />
          <pin name="AINBP" x="-15.24" y="2.54" length="middle" direction="pas" />
          <pin name="AINAN" x="-15.24" y="12.7" length="middle" direction="pas" />
          <pin name="AINAP" x="-15.24" y="10.16" length="middle" direction="pas" />
          <pin name="AGND" x="-2.54" y="-30.48" length="middle" rot="R90" direction="pas" />
          <pin name="REFB" x="-15.24" y="7.62" length="middle" direction="pas" />
          <pin name="REFC" x="-15.24" y="0" length="middle" direction="pas" />
          <pin name="REFA" x="-15.24" y="15.24" length="middle" direction="pas" />
          <pin name="REFD" x="-15.24" y="-7.62" length="middle" direction="pas" />
          <pin name="IC" x="20.32" y="-17.78" length="middle" rot="R180" direction="pas" />
          <pin name="AVDD" x="0" y="33.02" length="middle" rot="R270" direction="pas" />
          <pin name="SCLK" x="20.32" y="-15.24" length="middle" rot="R180" direction="pas" />
          <pin name="DOUT" x="20.32" y="-12.7" length="middle" rot="R180" direction="pas" />
          <pin name="DIN" x="20.32" y="-10.16" length="middle" rot="R180" direction="pas" />
          <pin name="!CS" x="20.32" y="-7.62" length="middle" rot="R180" direction="pas" />
          <pin name="CONVRUN" x="20.32" y="-5.08" length="middle" rot="R180" direction="pas" />
          <pin name="DACSTEP" x="20.32" y="-2.54" length="middle" rot="R180" direction="pas" />
          <pin name="UP/!DOWN" x="20.32" y="0" length="middle" rot="R180" direction="pas" />
          <pin name="DVREG" x="20.32" y="2.54" length="middle" rot="R180" direction="pas" />
          <pin name="DVDD" x="2.54" y="33.02" length="middle" rot="R270" direction="pas" />
          <pin name="DGND" x="0" y="-30.48" length="middle" rot="R90" direction="pas" />
          <pin name="!EOC" x="20.32" y="5.08" length="middle" rot="R180" direction="pas" />
          <pin name="OSCIN" x="20.32" y="7.62" length="middle" rot="R180" direction="pas" />
          <pin name="OSCOUT" x="20.32" y="10.16" length="middle" rot="R180" direction="pas" />
          <pin name="SHDN" x="20.32" y="12.7" length="middle" rot="R180" direction="pas" />
          <pin name="REFDACL" x="20.32" y="15.24" length="middle" rot="R180" direction="pas" />
          <pin name="REFDACH" x="20.32" y="17.78" length="middle" rot="R180" direction="pas" />
          <pin name="REFDAC" x="20.32" y="20.32" length="middle" rot="R180" direction="pas" />
          <wire x1="-10.16" y1="27.94" x2="-10.16" y2="-25.4" width="0.254" layer="94" />
          <wire x1="-10.16" y1="-25.4" x2="15.24" y2="-25.4" width="0.254" layer="94" />
          <wire x1="15.24" y1="-25.4" x2="15.24" y2="27.94" width="0.254" layer="94" />
          <wire x1="15.24" y1="27.94" x2="-10.16" y2="27.94" width="0.254" layer="94" />
          <text x="5.08" y="33.02" size="1.778" layer="95">&gt;NAME</text>
          <text x="5.08" y="30.48" size="1.778" layer="95">&gt;VALUE</text>
          <pin name="AOUT" x="-15.24" y="20.32" length="middle" direction="pas" />
          <pin name="REFBP" x="-15.24" y="17.78" length="middle" direction="pas" />
        </symbol>
      </symbols>
      <devicesets>
        <deviceset name="MAX11043ATL+">
          <gates>
            <gate name="G$1" symbol="4CH16BITADC-8-12BITDUALDAC" x="0" y="0" />
          </gates>
          <devices>
            <device name="" package="TQFN40" xmlns="eagle">
              <connects>
                <connect gate="G$1" pin="!CS" pad="P$13" />
                <connect gate="G$1" pin="!EOC" pad="P$18" />
                <connect gate="G$1" pin="AGND" pad="P$6 P$24 P$33" />
                <connect gate="G$1" pin="AINAN" pad="P$3" />
                <connect gate="G$1" pin="AINAP" pad="P$4" />
                <connect gate="G$1" pin="AINBN" pad="P$1" />
                <connect gate="G$1" pin="AINBP" pad="P$40" />
                <connect gate="G$1" pin="AINCN" pad="P$36" />
                <connect gate="G$1" pin="AINCP" pad="P$37" />
                <connect gate="G$1" pin="AINDN" pad="P$31" />
                <connect gate="G$1" pin="AINDP" pad="P$32" />
                <connect gate="G$1" pin="AOUT" pad="P$25" />
                <connect gate="G$1" pin="AVDD" pad="P$5 P$26" />
                <connect gate="G$1" pin="CONVRUN" pad="P$12" />
                <connect gate="G$1" pin="DACSTEP" pad="P$11" />
                <connect gate="G$1" pin="DGND" pad="P$7 P$23" />
                <connect gate="G$1" pin="DIN" pad="P$15" />
                <connect gate="G$1" pin="DOUT" pad="P$14" />
                <connect gate="G$1" pin="DVDD" pad="P$8 P$22" />
                <connect gate="G$1" pin="DVREG" pad="P$9" />
                <connect gate="G$1" pin="IC" pad="P$17 P$35" />
                <connect gate="G$1" pin="OSCIN" pad="P$19" />
                <connect gate="G$1" pin="OSCOUT" pad="P$20" />
                <connect gate="G$1" pin="REFA" pad="P$2" />
                <connect gate="G$1" pin="REFB" pad="P$39" />
                <connect gate="G$1" pin="REFBP" pad="P$34" />
                <connect gate="G$1" pin="REFC" pad="P$38" />
                <connect gate="G$1" pin="REFD" pad="P$30" />
                <connect gate="G$1" pin="REFDAC" pad="P$29" />
                <connect gate="G$1" pin="REFDACH" pad="P$28" />
                <connect gate="G$1" pin="REFDACL" pad="P$27" />
                <connect gate="G$1" pin="SCLK" pad="P$16" />
                <connect gate="G$1" pin="SHDN" pad="P$21" />
                <connect gate="G$1" pin="UP/!DOWN" pad="P$10" />
              </connects>
              <technologies>
                <technology name="" />
              </technologies>
            </device>
          </devices>
        </deviceset>
      </devicesets>
    </library>
  </drawing>
</eagle>