<?xml version="1.0" encoding="utf-8"?>
<!DOCTYPE eagle SYSTEM "eagle.dtd">
<eagle version="6.6.0">
<drawing>
<settings>
<setting alwaysvectorfont="no"/>
<setting verticaltext="up"/>
</settings>
<grid distance="0.1" unitdist="inch" unit="inch" style="lines" multiple="1" display="no" altdistance="0.01" altunitdist="inch" altunit="inch"/>
<layers>
</layers>
<library>
<packages>
<package name="TO-18">
<pad name="P$3" x="-1.27" y="0" drill="0.65"/>
<pad name="P$2" x="0" y="1.27" drill="0.65"/>
<pad name="P$1" x="1.27" y="0" drill="0.65"/>
<circle x="0" y="0" radius="2.92" width="0.127" layer="21"/>
<circle x="3.175" y="-1.27" radius="0.1524" width="0" layer="21"/>
<text x="-1.905" y="3.175" size="1.016" layer="25" font="vector" ratio="15">&gt;NAME</text>
</package>
</packages>
<symbols>
<symbol name="NFET">
<wire x1="-2.54" y1="2.54" x2="-2.54" y2="0" width="0.254" layer="94"/>
<wire x1="-2.54" y1="0" x2="-2.54" y2="-2.54" width="0.254" layer="94"/>
<wire x1="-2.54" y1="-2.54" x2="-2.54" y2="-5.08" width="0.254" layer="94"/>
<wire x1="-2.54" y1="5.08" x2="-2.54" y2="2.54" width="0.254" layer="94"/>
<wire x1="-2.54" y1="2.54" x2="2.54" y2="2.54" width="0.254" layer="94"/>
<wire x1="-2.54" y1="-2.54" x2="2.54" y2="-2.54" width="0.254" layer="94"/>
<wire x1="2.54" y1="-2.54" x2="2.54" y2="-7.62" width="0.254" layer="94"/>
<wire x1="2.54" y1="2.54" x2="2.54" y2="7.62" width="0.254" layer="94"/>
<pin name="G" x="-7.62" y="0" length="middle" direction="pas"/>
<pin name="D" x="2.54" y="12.7" length="middle" direction="pas" rot="R270"/>
<pin name="S" x="2.54" y="-12.7" length="middle" direction="pas" rot="R90"/>
<text x="-7.62" y="10.16" size="1.778" layer="95">&gt;NAME</text>
<text x="-7.62" y="7.62" size="1.778" layer="95">&gt;VALUE</text>
<wire x1="-2.54" y1="0" x2="-3.81" y2="1.27" width="0.254" layer="94"/>
<wire x1="-3.81" y1="1.27" x2="-3.81" y2="-1.27" width="0.254" layer="94"/>
<wire x1="-3.81" y1="-1.27" x2="-2.54" y2="0" width="0.254" layer="94"/>
</symbol>
</symbols>
<devicesets>
<deviceset name="2N4338">
<gates>
<gate name="G$1" symbol="NFET" x="0" y="0"/>
</gates>
<devices>
<device name="" package="TO-18">
<connects>
<connect gate="G$1" pin="D" pad="P$2"/>
<connect gate="G$1" pin="G" pad="P$3"/>
<connect gate="G$1" pin="S" pad="P$1"/>
</connects>
<technologies>
<technology name=""/>
</technologies>
</device>
</devices>
</deviceset>
</devicesets>
</library>
</drawing>
</eagle>
