<eagle version="6.5.0" xmlns="eagle">
  <drawing>
    <library>
      <packages>
        <package name="7B-12.000MAAE-T" xmlns="eagle">
          <smd name="1" x="-1.85" y="-1.6" dx="2" dy="1.2" layer="1" />
          <smd name="2" x="1.85" y="-1.6" dx="2" dy="1.2" layer="1" />
          <smd name="3" x="1.85" y="1.6" dx="2" dy="1.2" layer="1" />
          <smd name="4" x="-1.85" y="1.6" dx="2" dy="1.2" layer="1" />
          <wire x1="-3.2" y1="2.6" x2="-3.2" y2="-2.6" width="0.127" layer="21" />
          <wire x1="-3.2" y1="-2.6" x2="3.2" y2="-2.6" width="0.127" layer="21" />
          <wire x1="3.2" y1="-2.6" x2="3.2" y2="2.6" width="0.127" layer="21" />
          <wire x1="3.2" y1="2.6" x2="-3.2" y2="2.6" width="0.127" layer="21" />
          <circle x="-4" y="-2" radius="0.0635" width="0.16" layer="21" />
          <text x="-4" y="3" size="1" layer="21" font="vector" ratio="12">&gt;NAME</text>
        </package>
      </packages>
      <symbols>
        <symbol name="CRYSTAL_RESONATOR">
          <wire x1="-10.16" y1="5.08" x2="-10.16" y2="-5.08" width="0.254" layer="94" />
          <wire x1="-10.16" y1="-5.08" x2="10.16" y2="-5.08" width="0.254" layer="94" />
          <wire x1="10.16" y1="-5.08" x2="10.16" y2="5.08" width="0.254" layer="94" />
          <wire x1="10.16" y1="5.08" x2="-10.16" y2="5.08" width="0.254" layer="94" />
          <pin name="VIN" x="-12.7" y="2.54" visible="pin" length="short" direction="pas" />
          <pin name="VOUT" x="12.7" y="-2.54" visible="pin" length="short" direction="pas" rot="R180" />
          <pin name="GND2" x="12.7" y="2.54" visible="pin" length="short" direction="pas" rot="R180" />
          <pin name="GND" x="-12.7" y="-2.54" visible="pin" length="short" direction="pas" />
          <text x="-10.16" y="7.62" size="1.27" layer="95" font="vector" ratio="12">&gt;NAME</text>
          <text x="-10.16" y="5.588" size="1.27" layer="96" font="vector" ratio="12">&gt;VALUE</text>
        </symbol>
      </symbols>
      <devicesets>
        <deviceset name="7B-12.000MAAE-T" prefix="Y">
          <gates>
            <gate name="G$1" symbol="CRYSTAL_RESONATOR" x="0" y="0" />
          </gates>
          <devices>
            <device name="" package="7B-12.000MAAE-T" xmlns="eagle">
              <connects>
                <connect gate="G$1" pin="GND" pad="2" />
                <connect gate="G$1" pin="GND2" pad="4" />
                <connect gate="G$1" pin="VIN" pad="1" />
                <connect gate="G$1" pin="VOUT" pad="3" />
              </connects>
              <technologies>
                <technology name="" />
              </technologies>
            </device>
          </devices>
        </deviceset>
      </devicesets>
    </library>
  </drawing>
</eagle>