<eagle version="6.5.0" xmlns="eagle">
  <drawing>
    <library>
      <packages>
        <package name="SOT23-5" xmlns="eagle">
          <wire x1="-1.544" y1="0.713" x2="1.544" y2="0.713" width="0.1524" layer="51" />
          <wire x1="0.713" y1="-1.544" x2="-0.712" y2="-1.544" width="0.1524" layer="21" />
          <wire x1="1.544" y1="-0.712" x2="-1.544" y2="-0.712" width="0.1524" layer="51" />
          <wire x1="-0.712" y1="1.544" x2="0.713" y2="1.544" width="0.1524" layer="21" />
          <text x="-1.778" y="3.048" size="1.27" layer="25" ratio="10">&gt;NAME</text>
          <text x="-1.778" y="-3.048" size="1.27" layer="27" ratio="10">&gt;VALUE</text>
          <rectangle x1="-1.1875" y1="0.7126" x2="-0.7125" y2="1.5439" layer="51" />
          <rectangle x1="0.7125" y1="0.7126" x2="1.1875" y2="1.5439" layer="51" />
          <rectangle x1="-1.1875" y1="-1.5437" x2="-0.7125" y2="-0.7124" layer="51" />
          <rectangle x1="-0.2375" y1="-1.5437" x2="0.2375" y2="-0.7124" layer="51" />
          <rectangle x1="0.7125" y1="-1.5437" x2="1.1875" y2="-0.7124" layer="51" />
          <circle x="-1.27" y="1.905" radius="0.127" width="0.127" layer="21" />
          <smd name="5" x="1.306" y="0.95" dx="0.6" dy="1.2" layer="1" rot="R270" />
          <smd name="4" x="1.306" y="-0.95" dx="0.6" dy="1.2" layer="1" rot="R270" />
          <smd name="1" x="-1.306" y="0.95" dx="0.6" dy="1.2" layer="1" rot="R270" />
          <smd name="2" x="-1.306" y="0" dx="0.6" dy="1.2" layer="1" rot="R270" />
          <smd name="3" x="-1.306" y="-0.95" dx="0.6" dy="1.2" layer="1" rot="R270" />
        </package>
      </packages>
      <symbols>
        <symbol name="MC78PC33NTRG">
          <wire x1="-10.16" y1="10.16" x2="-10.16" y2="-10.16" width="0.254" layer="94" />
          <wire x1="-10.16" y1="-10.16" x2="10.16" y2="-10.16" width="0.254" layer="94" />
          <wire x1="10.16" y1="-10.16" x2="10.16" y2="10.16" width="0.254" layer="94" />
          <wire x1="10.16" y1="10.16" x2="2.54" y2="10.16" width="0.254" layer="94" />
          <wire x1="-2.54" y1="10.16" x2="-10.16" y2="10.16" width="0.254" layer="94" />
          <wire x1="2.54" y1="10.16" x2="-2.54" y2="10.16" width="0.254" layer="94" curve="-180" />
          <text x="-12.7" y="-15.24" size="1.778" layer="95">&gt;NAME</text>
          <text x="-12.7" y="-17.78" size="1.778" layer="96">&gt;VALUE</text>
          <pin name="VIN" x="-15.24" y="5.08" length="middle" direction="pas" />
          <pin name="GND" x="-15.24" y="0" length="middle" direction="pas" />
          <pin name="CE" x="-15.24" y="-5.08" length="middle" direction="pas" />
          <pin name="NC" x="15.24" y="-5.08" length="middle" direction="pas" rot="R180" />
          <pin name="VOUT" x="15.24" y="5.08" length="middle" direction="pas" rot="R180" />
        </symbol>
      </symbols>
      <devicesets>
        <deviceset name="MC78PC33NTRG" prefix="U">
          <gates>
            <gate name="G$1" symbol="MC78PC33NTRG" x="0" y="0" />
          </gates>
          <devices>
            <device name="" package="SOT23-5" xmlns="eagle">
              <connects>
                <connect gate="G$1" pin="CE" pad="3" />
                <connect gate="G$1" pin="GND" pad="2" />
                <connect gate="G$1" pin="NC" pad="4" />
                <connect gate="G$1" pin="VIN" pad="1" />
                <connect gate="G$1" pin="VOUT" pad="5" />
              </connects>
              <technologies>
                <technology name="" />
              </technologies>
            </device>
          </devices>
        </deviceset>
      </devicesets>
    </library>
  </drawing>
</eagle>