<eagle version="6.5.0" xmlns="eagle">
  <drawing>
    <library>
      <packages>
        <package name="12_PIN_LGA" xmlns="eagle">
          <circle x="-1.8" y="1" radius="0.1542" width="0" layer="21" />
          <wire x1="-1" y1="1" x2="-1" y2="-1" width="0.05" layer="51" />
          <wire x1="-1" y1="-1" x2="1" y2="-1" width="0.05" layer="51" />
          <wire x1="1" y1="-1" x2="1" y2="1" width="0.05" layer="51" />
          <wire x1="1" y1="1" x2="-1" y2="1" width="0.05" layer="51" />
          <wire x1="-1.4" y1="-1.4" x2="-1.4" y2="1.4" width="0.1542" layer="21" />
          <wire x1="-1.4" y1="1.4" x2="1.4" y2="1.4" width="0.1542" layer="21" />
          <wire x1="1.4" y1="1.4" x2="1.4" y2="-1.4" width="0.1542" layer="21" />
          <wire x1="1.4" y1="-1.4" x2="-1.4" y2="-1.4" width="0.1542" layer="21" />
          <rectangle x1="0.56" y1="0.06" x2="1.07" y2="0.44" layer="29" />
          <rectangle x1="-0.5" y1="-1.01" x2="0.01" y2="-0.63" layer="29" rot="R90" />
          <rectangle x1="-1.07" y1="0.56" x2="-0.56" y2="0.94" layer="29" />
          <rectangle x1="-1.07" y1="0.06" x2="-0.56" y2="0.44" layer="29" />
          <rectangle x1="-1.07" y1="-0.44" x2="-0.56" y2="-0.06" layer="29" />
          <rectangle x1="-1.07" y1="-0.94" x2="-0.56" y2="-0.56" layer="29" />
          <rectangle x1="0.56" y1="0.56" x2="1.07" y2="0.94" layer="29" />
          <rectangle x1="0.56" y1="-0.44" x2="1.07" y2="-0.06" layer="29" />
          <rectangle x1="0.56" y1="-0.94" x2="1.07" y2="-0.56" layer="29" />
          <rectangle x1="-0.5" y1="0.62" x2="0.01" y2="1" layer="29" rot="R90" />
          <rectangle x1="-0.01" y1="-1" x2="0.5" y2="-0.62" layer="29" rot="R90" />
          <rectangle x1="0" y1="0.62" x2="0.51" y2="1" layer="29" rot="R90" />
          <smd name="1" x="-0.815" y="0.75" dx="0.41" dy="0.28" layer="1" stop="no" />
          <smd name="2" x="-0.815" y="0.25" dx="0.41" dy="0.28" layer="1" stop="no" />
          <smd name="3" x="-0.815" y="-0.25" dx="0.41" dy="0.28" layer="1" stop="no" />
          <smd name="4" x="-0.815" y="-0.75" dx="0.41" dy="0.28" layer="1" stop="no" />
          <smd name="5" x="-0.25" y="-0.815" dx="0.41" dy="0.28" layer="1" rot="R90" stop="no" />
          <smd name="6" x="0.25" y="-0.815" dx="0.41" dy="0.28" layer="1" rot="R90" stop="no" />
          <smd name="7" x="0.815" y="-0.75" dx="0.41" dy="0.28" layer="1" stop="no" />
          <smd name="8" x="0.815" y="-0.25" dx="0.41" dy="0.28" layer="1" stop="no" />
          <smd name="9" x="0.815" y="0.25" dx="0.41" dy="0.28" layer="1" stop="no" />
          <smd name="10" x="0.815" y="0.75" dx="0.41" dy="0.28" layer="1" stop="no" />
          <smd name="11" x="0.25" y="0.815" dx="0.41" dy="0.28" layer="1" rot="R90" stop="no" />
          <smd name="12" x="-0.25" y="0.815" dx="0.41" dy="0.28" layer="1" rot="R90" stop="no" />
          <text x="-2.2" y="1.6" size="1.016" layer="25" font="vector" ratio="15">&gt;NAME</text>
        </package>
      </packages>
      <symbols>
        <symbol name="BMA250E">
          <wire x1="-12.7" y1="10.16" x2="-12.7" y2="-10.16" width="0.254" layer="94" />
          <wire x1="-12.7" y1="-10.16" x2="12.7" y2="-10.16" width="0.254" layer="94" />
          <wire x1="12.7" y1="-10.16" x2="12.7" y2="10.16" width="0.254" layer="94" />
          <wire x1="12.7" y1="10.16" x2="-12.7" y2="10.16" width="0.254" layer="94" />
          <pin name="CSB" x="-17.78" y="5.08" visible="pin" length="middle" direction="pas" />
          <pin name="GND" x="-2.54" y="-15.24" visible="pin" length="middle" direction="pas" rot="R90" />
          <pin name="GNDIO" x="2.54" y="-15.24" visible="pin" length="middle" direction="pas" rot="R90" />
          <pin name="INT1" x="17.78" y="2.54" visible="pin" length="middle" direction="pas" rot="R180" />
          <pin name="INT2" x="17.78" y="-2.54" visible="pin" length="middle" direction="pas" rot="R180" />
          <pin name="PS" x="-17.78" y="0" visible="pin" length="middle" direction="pas" />
          <pin name="SCX" x="-17.78" y="-5.08" visible="pin" length="middle" direction="pas" />
          <pin name="SDO" x="17.78" y="7.62" visible="pin" length="middle" direction="pas" rot="R180" />
          <pin name="SDX" x="17.78" y="-7.62" visible="pin" length="middle" direction="pas" rot="R180" />
          <pin name="VDD" x="-2.54" y="15.24" visible="pin" length="middle" direction="pas" rot="R270" />
          <pin name="VDDIO" x="2.54" y="15.24" visible="pin" length="middle" direction="pas" rot="R270" />
          <text x="-15.24" y="15.24" size="1.778" layer="95">&gt;NAME</text>
          <text x="-15.24" y="12.7" size="1.778" layer="96">&gt;VALUE</text>
        </symbol>
      </symbols>
      <devicesets>
        <deviceset name="BMA250E" prefix="U">
          <gates>
            <gate name="G$1" symbol="BMA250E" x="0" y="0" />
          </gates>
          <devices>
            <device name="" package="12_PIN_LGA" xmlns="eagle">
              <connects>
                <connect gate="G$1" pin="CSB" pad="10" />
                <connect gate="G$1" pin="GND" pad="4 9" />
                <connect gate="G$1" pin="GNDIO" pad="8" />
                <connect gate="G$1" pin="INT1" pad="5" />
                <connect gate="G$1" pin="INT2" pad="6" />
                <connect gate="G$1" pin="PS" pad="11" />
                <connect gate="G$1" pin="SCX" pad="12" />
                <connect gate="G$1" pin="SDO" pad="1" />
                <connect gate="G$1" pin="SDX" pad="2" />
                <connect gate="G$1" pin="VDD" pad="7" />
                <connect gate="G$1" pin="VDDIO" pad="3" />
              </connects>
              <technologies>
                <technology name="" />
              </technologies>
            </device>
          </devices>
        </deviceset>
      </devicesets>
    </library>
  </drawing>
</eagle>