<eagle version="6.5.0" xmlns="eagle">
  <drawing>
    <library>
      <packages>
        <package name="DIP28" xmlns="eagle">
          <wire x1="17.78" y1="6.731" x2="-17.78" y2="6.731" width="0.1524" layer="21" />
          <wire x1="-17.78" y1="-6.731" x2="17.78" y2="-6.731" width="0.1524" layer="21" />
          <wire x1="17.78" y1="6.731" x2="17.78" y2="-6.731" width="0.1524" layer="21" />
          <wire x1="-17.78" y1="6.731" x2="-17.78" y2="1.016" width="0.1524" layer="21" />
          <wire x1="-17.78" y1="-6.731" x2="-17.78" y2="-1.016" width="0.1524" layer="21" />
          <wire x1="-17.78" y1="1.016" x2="-17.78" y2="-1.016" width="0.1524" layer="21" curve="-180" />
          <pad name="1" x="-16.51" y="-7.62" drill="0.8128" shape="long" rot="R90" />
          <pad name="2" x="-13.97" y="-7.62" drill="0.8128" shape="long" rot="R90" />
          <pad name="3" x="-11.43" y="-7.62" drill="0.8128" shape="long" rot="R90" />
          <pad name="4" x="-8.89" y="-7.62" drill="0.8128" shape="long" rot="R90" />
          <pad name="5" x="-6.35" y="-7.62" drill="0.8128" shape="long" rot="R90" />
          <pad name="6" x="-3.81" y="-7.62" drill="0.8128" shape="long" rot="R90" />
          <pad name="7" x="-1.27" y="-7.62" drill="0.8128" shape="long" rot="R90" />
          <pad name="8" x="1.27" y="-7.62" drill="0.8128" shape="long" rot="R90" />
          <pad name="9" x="3.81" y="-7.62" drill="0.8128" shape="long" rot="R90" />
          <pad name="10" x="6.35" y="-7.62" drill="0.8128" shape="long" rot="R90" />
          <pad name="11" x="8.89" y="-7.62" drill="0.8128" shape="long" rot="R90" />
          <pad name="12" x="11.43" y="-7.62" drill="0.8128" shape="long" rot="R90" />
          <pad name="13" x="13.97" y="-7.62" drill="0.8128" shape="long" rot="R90" />
          <pad name="14" x="16.51" y="-7.62" drill="0.8128" shape="long" rot="R90" />
          <pad name="15" x="16.51" y="7.62" drill="0.8128" shape="long" rot="R90" />
          <pad name="16" x="13.97" y="7.62" drill="0.8128" shape="long" rot="R90" />
          <pad name="17" x="11.43" y="7.62" drill="0.8128" shape="long" rot="R90" />
          <pad name="18" x="8.89" y="7.62" drill="0.8128" shape="long" rot="R90" />
          <pad name="19" x="6.35" y="7.62" drill="0.8128" shape="long" rot="R90" />
          <pad name="20" x="3.81" y="7.62" drill="0.8128" shape="long" rot="R90" />
          <pad name="21" x="1.27" y="7.62" drill="0.8128" shape="long" rot="R90" />
          <pad name="22" x="-1.27" y="7.62" drill="0.8128" shape="long" rot="R90" />
          <pad name="23" x="-3.81" y="7.62" drill="0.8128" shape="long" rot="R90" />
          <pad name="24" x="-6.35" y="7.62" drill="0.8128" shape="long" rot="R90" />
          <pad name="25" x="-8.89" y="7.62" drill="0.8128" shape="long" rot="R90" />
          <pad name="26" x="-11.43" y="7.62" drill="0.8128" shape="long" rot="R90" />
          <pad name="27" x="-13.97" y="7.62" drill="0.8128" shape="long" rot="R90" />
          <pad name="28" x="-16.51" y="7.62" drill="0.8128" shape="long" rot="R90" />
          <text x="-18.415" y="-1.905" size="0.889" layer="25" ratio="11" rot="R90">&gt;NAME</text>
          <text x="0" y="-1.905" size="0.635" layer="27" ratio="10" rot="R90">&gt;VALUE</text>
        </package>
      </packages>
      <symbols>
        <symbol name="MCU-LPC1114FN28">
          <wire x1="-25.4" y1="29.21" x2="25.4" y2="29.21" width="0.254" layer="94" />
          <wire x1="25.4" y1="29.21" x2="25.4" y2="-34.29" width="0.254" layer="94" />
          <wire x1="25.4" y1="-34.29" x2="-25.4" y2="-34.29" width="0.254" layer="94" />
          <wire x1="-25.4" y1="-34.29" x2="-25.4" y2="29.21" width="0.254" layer="94" />
          <pin name="!RESET!/PIO0_0" x="27.94" y="26.67" length="short" rot="R180" />
          <pin name="PIO0_1/CLKOUT/CT32B0_MAT2" x="27.94" y="24.13" length="short" rot="R180" />
          <pin name="PIO0_2/SSEL0/CT16B0_CAP0" x="27.94" y="21.59" length="short" rot="R180" />
          <pin name="PIO0_3" x="27.94" y="19.05" length="short" rot="R180" />
          <pin name="PIO0_4/SCL" x="27.94" y="16.51" length="short" rot="R180" />
          <pin name="PIO0_5/SDA" x="27.94" y="13.97" length="short" rot="R180" />
          <pin name="PIO0_6/SCK0" x="27.94" y="11.43" length="short" rot="R180" />
          <pin name="PIO0_7/!CTS!" x="27.94" y="8.89" length="short" rot="R180" />
          <pin name="PIO0_8/MISO0/CT16B0_MAT0" x="27.94" y="6.35" length="short" rot="R180" />
          <pin name="PIO0_9/MOSI0/CT16B0_MAT1" x="27.94" y="3.81" length="short" rot="R180" />
          <pin name="PIO1_4/AD5/CT32B1_MAT3/WAKEUP" x="27.94" y="-16.51" length="short" rot="R180" />
          <pin name="PIO1_5/!RTS!/CT32B0_CAP0" x="27.94" y="-19.05" length="short" rot="R180" />
          <pin name="PIO1_6/RXD/CT32B0_MAT0" x="27.94" y="-21.59" length="short" rot="R180" />
          <pin name="PIO1_7/TXD/CT32B0_MAT1" x="27.94" y="-24.13" length="short" rot="R180" />
          <pin name="PIO1_8/CT16B1_CAP0" x="27.94" y="-26.67" length="short" rot="R180" />
          <pin name="PIO1_9/CT16B1_MAT0" x="27.94" y="-29.21" length="short" rot="R180" />
          <pin name="R/PIO0_11/AD0/CT32B0_MAT3" x="27.94" y="-1.27" length="short" rot="R180" />
          <pin name="R/PIO1_0/AD1/CT32B1_CAP0" x="27.94" y="-6.35" length="short" rot="R180" />
          <pin name="R/PIO1_1/AD2/CT32B1_MAT0" x="27.94" y="-8.89" length="short" rot="R180" />
          <pin name="R/PIO1_2/AD3/CT32B1_MAT1" x="27.94" y="-11.43" length="short" rot="R180" />
          <pin name="SWCLK/PIO0_10/SCK0/CT16B0_MAT2" x="27.94" y="1.27" length="short" rot="R180" />
          <pin name="SWDIO/PIO1_3/AD4/CT32B1_MAT2" x="27.94" y="-13.97" length="short" rot="R180" />
          <pin name="VDD" x="-27.94" y="19.05" length="short" direction="pwr" />
          <pin name="VDDA" x="-27.94" y="-1.27" length="short" direction="pwr" />
          <pin name="VSS" x="-27.94" y="8.89" length="short" direction="pwr" />
          <pin name="VSSA" x="-27.94" y="-11.43" length="short" direction="pwr" />
          <pin name="XTALIN" x="-27.94" y="-26.67" length="short" direction="pas" />
          <pin name="XTALOUT" x="-27.94" y="-31.75" length="short" direction="pas" />
          <text x="-25.4" y="29.21" size="1.778" layer="95" font="vector">&gt;NAME</text>
          <text x="15.24" y="29.21" size="1.778" layer="96" font="vector">&gt;VALUE</text>
        </symbol>
      </symbols>
      <devicesets>
        <deviceset name="MCU-LPC1114FN28" prefix="U" uservalue="yes">
          <gates>
            <gate name="G$1" symbol="MCU-LPC1114FN28" x="0" y="0" />
          </gates>
          <devices>
            <device name="FN28" package="DIP28" xmlns="eagle">
              <connects>
                <connect gate="G$1" pin="!RESET!/PIO0_0" pad="23" />
                <connect gate="G$1" pin="PIO0_1/CLKOUT/CT32B0_MAT2" pad="24" />
                <connect gate="G$1" pin="PIO0_2/SSEL0/CT16B0_CAP0" pad="25" />
                <connect gate="G$1" pin="PIO0_3" pad="26" />
                <connect gate="G$1" pin="PIO0_4/SCL" pad="27" />
                <connect gate="G$1" pin="PIO0_5/SDA" pad="5" />
                <connect gate="G$1" pin="PIO0_6/SCK0" pad="6" />
                <connect gate="G$1" pin="PIO0_7/!CTS!" pad="28" />
                <connect gate="G$1" pin="PIO0_8/MISO0/CT16B0_MAT0" pad="1" />
                <connect gate="G$1" pin="PIO0_9/MOSI0/CT16B0_MAT1" pad="2" />
                <connect gate="G$1" pin="PIO1_4/AD5/CT32B1_MAT3/WAKEUP" pad="13" />
                <connect gate="G$1" pin="PIO1_5/!RTS!/CT32B0_CAP0" pad="14" />
                <connect gate="G$1" pin="PIO1_6/RXD/CT32B0_MAT0" pad="15" />
                <connect gate="G$1" pin="PIO1_7/TXD/CT32B0_MAT1" pad="16" />
                <connect gate="G$1" pin="PIO1_8/CT16B1_CAP0" pad="17" />
                <connect gate="G$1" pin="PIO1_9/CT16B1_MAT0" pad="18" />
                <connect gate="G$1" pin="R/PIO0_11/AD0/CT32B0_MAT3" pad="4" />
                <connect gate="G$1" pin="R/PIO1_0/AD1/CT32B1_CAP0" pad="9" />
                <connect gate="G$1" pin="R/PIO1_1/AD2/CT32B1_MAT0" pad="10" />
                <connect gate="G$1" pin="R/PIO1_2/AD3/CT32B1_MAT1" pad="11" />
                <connect gate="G$1" pin="SWCLK/PIO0_10/SCK0/CT16B0_MAT2" pad="3" />
                <connect gate="G$1" pin="SWDIO/PIO1_3/AD4/CT32B1_MAT2" pad="12" />
                <connect gate="G$1" pin="VDD" pad="21" />
                <connect gate="G$1" pin="VDDA" pad="7" />
                <connect gate="G$1" pin="VSS" pad="22" />
                <connect gate="G$1" pin="VSSA" pad="8" />
                <connect gate="G$1" pin="XTALIN" pad="20" />
                <connect gate="G$1" pin="XTALOUT" pad="19" />
              </connects>
              <technologies>
                <technology name="" />
              </technologies>
            </device>
          </devices>
        </deviceset>
      </devicesets>
    </library>
  </drawing>
</eagle>