<?xml version="1.0" encoding="utf-8"?>
<!DOCTYPE eagle SYSTEM "eagle.dtd">
<eagle version="6.6.0">
<drawing>
<settings>
<setting alwaysvectorfont="no"/>
<setting verticaltext="up"/>
</settings>
<grid distance="0.1" unitdist="inch" unit="inch" style="lines" multiple="1" display="no" altdistance="0.01" altunitdist="inch" altunit="inch"/>
<layers>
</layers>
<library>
<packages>
<package name="SSOP16">
<wire x1="-2.4638" y1="1.9558" x2="2.4638" y2="1.9558" width="0.127" layer="21"/>
<wire x1="2.4638" y1="1.9558" x2="2.4638" y2="-1.9558" width="0.127" layer="21"/>
<wire x1="2.4638" y1="-1.9558" x2="-1.827278125" y2="-1.9558" width="0.127" layer="21"/>
<wire x1="-1.827278125" y1="-1.9558" x2="-2.4638" y2="-1.319278125" width="0.127" layer="21"/>
<wire x1="-2.4638" y1="-1.319278125" x2="-2.4638" y2="1.9558" width="0.127" layer="21"/>
<smd name="1" x="-2.2225" y="-2.667" dx="1.397" dy="0.381" layer="1" rot="R90"/>
<smd name="2" x="-1.5875" y="-2.667" dx="1.397" dy="0.381" layer="1" rot="R90"/>
<smd name="3" x="-0.9525" y="-2.667" dx="1.397" dy="0.381" layer="1" rot="R90"/>
<smd name="4" x="-0.3175" y="-2.667" dx="1.397" dy="0.381" layer="1" rot="R90"/>
<smd name="5" x="0.3175" y="-2.667" dx="1.397" dy="0.381" layer="1" rot="R90"/>
<smd name="6" x="0.9525" y="-2.667" dx="1.397" dy="0.381" layer="1" rot="R90"/>
<smd name="7" x="1.5875" y="-2.667" dx="1.397" dy="0.381" layer="1" rot="R90"/>
<smd name="8" x="2.2225" y="-2.667" dx="1.397" dy="0.381" layer="1" rot="R90"/>
<smd name="9" x="2.2225" y="2.667" dx="1.397" dy="0.381" layer="1" rot="R270"/>
<smd name="10" x="1.5875" y="2.667" dx="1.397" dy="0.381" layer="1" rot="R270"/>
<smd name="11" x="0.9525" y="2.667" dx="1.397" dy="0.381" layer="1" rot="R270"/>
<smd name="12" x="0.3175" y="2.667" dx="1.397" dy="0.381" layer="1" rot="R270"/>
<smd name="13" x="-0.3175" y="2.667" dx="1.397" dy="0.381" layer="1" rot="R270"/>
<smd name="14" x="-0.9525" y="2.667" dx="1.397" dy="0.381" layer="1" rot="R270"/>
<smd name="15" x="-1.5875" y="2.667" dx="1.397" dy="0.381" layer="1" rot="R270"/>
<smd name="16" x="-2.2225" y="2.667" dx="1.397" dy="0.381" layer="1" rot="R270"/>
<text x="-1.905" y="3.81" size="0.889" layer="25" ratio="11">&gt;NAME</text>
<text x="-1.905" y="-0.635" size="0.635" layer="27" ratio="10">&gt;VALUE</text>
<rectangle x1="-2.4638" y1="-1.9558" x2="2.4638" y2="1.9558" layer="39"/>
<circle x="-2.921" y="-1.778" radius="0.3048" width="0" layer="21"/>
</package>
</packages>
<symbols>
<symbol name="INTERFACE-FT230XS">
<pin name="TXD" x="17.78" y="11.43" length="short" rot="R180"/>
<pin name="RTS" x="17.78" y="6.35" length="short" rot="R180"/>
<pin name="VCCIO" x="2.54" y="17.78" length="short" rot="R270"/>
<pin name="RXD" x="17.78" y="8.89" length="short" rot="R180"/>
<pin name="GND" x="-2.54" y="-17.78" length="short" rot="R90"/>
<pin name="CTS" x="17.78" y="3.81" length="short" rot="R180"/>
<pin name="CBUS2" x="17.78" y="-10.16" length="short" rot="R180"/>
<pin name="USBDP" x="-17.78" y="1.27" length="short"/>
<pin name="USBDM" x="-17.78" y="3.81" length="short"/>
<pin name="3V3OUT" x="-17.78" y="11.43" length="short"/>
<pin name="RESET" x="-17.78" y="-7.62" length="short"/>
<pin name="VCC" x="-2.54" y="17.78" length="short" rot="R270"/>
<pin name="GND@1" x="2.54" y="-17.78" length="short" rot="R90"/>
<pin name="CBUS1" x="17.78" y="-7.62" length="short" rot="R180"/>
<pin name="CBUS0" x="17.78" y="-5.08" length="short" rot="R180"/>
<pin name="CBUS3" x="17.78" y="-12.7" length="short" rot="R180"/>
<text x="-13.97" y="15.24" size="1.27" layer="95" ratio="10">&gt;NAME</text>
<text x="5.08" y="15.24" size="1.27" layer="96" ratio="10">&gt;VALUE</text>
<wire x1="-13.97" y1="13.97" x2="-2.54" y2="13.97" width="0.1524" layer="94"/>
<wire x1="-2.54" y1="13.97" x2="2.54" y2="13.97" width="0.1524" layer="94"/>
<wire x1="2.54" y1="13.97" x2="13.97" y2="13.97" width="0.1524" layer="94"/>
<wire x1="13.97" y1="13.97" x2="13.97" y2="11.43" width="0.1524" layer="94"/>
<wire x1="13.97" y1="11.43" x2="13.97" y2="8.89" width="0.1524" layer="94"/>
<wire x1="13.97" y1="8.89" x2="13.97" y2="6.35" width="0.1524" layer="94"/>
<wire x1="13.97" y1="6.35" x2="13.97" y2="3.81" width="0.1524" layer="94"/>
<wire x1="13.97" y1="3.81" x2="13.97" y2="-5.08" width="0.1524" layer="94"/>
<wire x1="13.97" y1="-5.08" x2="13.97" y2="-7.62" width="0.1524" layer="94"/>
<wire x1="13.97" y1="-7.62" x2="13.97" y2="-10.16" width="0.1524" layer="94"/>
<wire x1="13.97" y1="-10.16" x2="13.97" y2="-12.7" width="0.1524" layer="94"/>
<wire x1="13.97" y1="-12.7" x2="13.97" y2="-13.97" width="0.1524" layer="94"/>
<wire x1="-13.97" y1="13.97" x2="-13.97" y2="11.43" width="0.1524" layer="94"/>
<wire x1="-13.97" y1="11.43" x2="-13.97" y2="3.81" width="0.1524" layer="94"/>
<wire x1="-13.97" y1="3.81" x2="-13.97" y2="1.27" width="0.1524" layer="94"/>
<wire x1="-13.97" y1="1.27" x2="-13.97" y2="-7.62" width="0.1524" layer="94"/>
<wire x1="-13.97" y1="-7.62" x2="-13.97" y2="-13.97" width="0.1524" layer="94"/>
<wire x1="-13.97" y1="-13.97" x2="-2.54" y2="-13.97" width="0.1524" layer="94"/>
<wire x1="-2.54" y1="-13.97" x2="2.54" y2="-13.97" width="0.1524" layer="94"/>
<wire x1="2.54" y1="-13.97" x2="13.97" y2="-13.97" width="0.1524" layer="94"/>
<wire x1="-15.24" y1="11.43" x2="-13.97" y2="11.43" width="0.1524" layer="94"/>
<wire x1="-15.24" y1="3.81" x2="-13.97" y2="3.81" width="0.1524" layer="94"/>
<wire x1="-15.24" y1="1.27" x2="-13.97" y2="1.27" width="0.1524" layer="94"/>
<wire x1="-15.24" y1="-7.62" x2="-13.97" y2="-7.62" width="0.1524" layer="94"/>
<wire x1="-2.54" y1="-15.24" x2="-2.54" y2="-13.97" width="0.1524" layer="94"/>
<wire x1="2.54" y1="-15.24" x2="2.54" y2="-13.97" width="0.1524" layer="94"/>
<wire x1="15.24" y1="-12.7" x2="13.97" y2="-12.7" width="0.1524" layer="94"/>
<wire x1="15.24" y1="-10.16" x2="13.97" y2="-10.16" width="0.1524" layer="94"/>
<wire x1="15.24" y1="-7.62" x2="13.97" y2="-7.62" width="0.1524" layer="94"/>
<wire x1="15.24" y1="-5.08" x2="13.97" y2="-5.08" width="0.1524" layer="94"/>
<wire x1="15.24" y1="3.81" x2="13.97" y2="3.81" width="0.1524" layer="94"/>
<wire x1="15.24" y1="6.35" x2="13.97" y2="6.35" width="0.1524" layer="94"/>
<wire x1="15.24" y1="8.89" x2="13.97" y2="8.89" width="0.1524" layer="94"/>
<wire x1="15.24" y1="11.43" x2="13.97" y2="11.43" width="0.1524" layer="94"/>
<wire x1="-2.54" y1="15.24" x2="-2.54" y2="13.97" width="0.1524" layer="94"/>
<wire x1="2.54" y1="15.24" x2="2.54" y2="13.97" width="0.1524" layer="94"/>
</symbol>
</symbols>
<devicesets>
<deviceset name="FT230XS-R" prefix="U" uservalue="yes">
<gates>
<gate name="G$1" symbol="INTERFACE-FT230XS" x="0" y="0"/>
</gates>
<devices>
<device name="-FT230XS-R" package="SSOP16">
<connects>
<connect gate="G$1" pin="3V3OUT" pad="10"/>
<connect gate="G$1" pin="CBUS0" pad="15"/>
<connect gate="G$1" pin="CBUS1" pad="14"/>
<connect gate="G$1" pin="CBUS2" pad="7"/>
<connect gate="G$1" pin="CBUS3" pad="16"/>
<connect gate="G$1" pin="CTS" pad="6"/>
<connect gate="G$1" pin="GND" pad="5"/>
<connect gate="G$1" pin="GND@1" pad="13"/>
<connect gate="G$1" pin="RESET" pad="11"/>
<connect gate="G$1" pin="RTS" pad="2"/>
<connect gate="G$1" pin="RXD" pad="4"/>
<connect gate="G$1" pin="TXD" pad="1"/>
<connect gate="G$1" pin="USBDM" pad="9"/>
<connect gate="G$1" pin="USBDP" pad="8"/>
<connect gate="G$1" pin="VCC" pad="12"/>
<connect gate="G$1" pin="VCCIO" pad="3"/>
</connects>
<technologies>
<technology name=""/>
</technologies>
</device>
</devices>
</deviceset>
</devicesets>
</library>
</drawing>
</eagle>
