<?xml version="1.0" encoding="utf-8"?>
<!DOCTYPE eagle SYSTEM "eagle.dtd">
<eagle version="6.6.0">
<drawing>
<settings>
<setting alwaysvectorfont="no"/>
<setting verticaltext="up"/>
</settings>
<grid distance="0.1" unitdist="inch" unit="inch" style="lines" multiple="1" display="no" altdistance="0.01" altunitdist="inch" altunit="inch"/>
<layers>
</layers>
<library>
<packages>
<package name="SSOP20">
<description>&lt;b&gt;Shrink Small Outline Package&lt;/b&gt;&lt;p&gt;
package type SS</description>
<wire x1="3.8" y1="-2.6" x2="3.8" y2="2.6" width="0.2032" layer="21"/>
<wire x1="3.8" y1="2.6" x2="-3.8" y2="2.6" width="0.2032" layer="21"/>
<wire x1="-3.825" y1="2.575" x2="-3.8" y2="2.575" width="0.127" layer="21"/>
<wire x1="-3.8" y1="2.575" x2="-3.8" y2="-1.965" width="0.2032" layer="21"/>
<wire x1="-3.8" y1="-1.965" x2="-3.165" y2="-2.6" width="0.2032" layer="21"/>
<wire x1="-3.165" y1="-2.6" x2="3.8" y2="-2.6" width="0.2032" layer="21"/>
<circle x="-4.318" y="-3.048" radius="0.508" width="0" layer="21"/>
<smd name="1" x="-2.925" y="-3.625" dx="0.4" dy="1.5" layer="1"/>
<smd name="2" x="-2.275" y="-3.625" dx="0.4" dy="1.5" layer="1"/>
<smd name="3" x="-1.625" y="-3.625" dx="0.4" dy="1.5" layer="1"/>
<smd name="4" x="-0.975" y="-3.625" dx="0.4" dy="1.5" layer="1"/>
<smd name="5" x="-0.325" y="-3.625" dx="0.4" dy="1.5" layer="1"/>
<smd name="6" x="0.325" y="-3.625" dx="0.4" dy="1.5" layer="1"/>
<smd name="7" x="0.975" y="-3.625" dx="0.4" dy="1.5" layer="1"/>
<smd name="8" x="1.625" y="-3.625" dx="0.4" dy="1.5" layer="1"/>
<smd name="9" x="2.275" y="-3.625" dx="0.4" dy="1.5" layer="1"/>
<smd name="10" x="2.925" y="-3.625" dx="0.4" dy="1.5" layer="1"/>
<smd name="11" x="2.925" y="3.625" dx="0.4" dy="1.5" layer="1"/>
<smd name="12" x="2.275" y="3.625" dx="0.4" dy="1.5" layer="1"/>
<smd name="13" x="1.625" y="3.625" dx="0.4" dy="1.5" layer="1"/>
<smd name="14" x="0.975" y="3.625" dx="0.4" dy="1.5" layer="1"/>
<smd name="15" x="0.325" y="3.625" dx="0.4" dy="1.5" layer="1"/>
<smd name="16" x="-0.325" y="3.625" dx="0.4" dy="1.5" layer="1"/>
<smd name="17" x="-0.975" y="3.625" dx="0.4" dy="1.5" layer="1"/>
<smd name="18" x="-1.625" y="3.625" dx="0.4" dy="1.5" layer="1"/>
<smd name="19" x="-2.275" y="3.625" dx="0.4" dy="1.5" layer="1"/>
<smd name="20" x="-2.925" y="3.625" dx="0.4" dy="1.5" layer="1"/>
<text x="-4.191" y="-1.905" size="0.889" layer="25" ratio="11" rot="R90">&gt;NAME</text>
<text x="0" y="-1.27" size="0.635" layer="27" ratio="10" rot="R90">&gt;VALUE</text>
<rectangle x1="-3.1028" y1="-3.937" x2="-2.7472" y2="-2.6416" layer="51"/>
<rectangle x1="-2.4529" y1="-3.937" x2="-2.0973" y2="-2.6416" layer="51"/>
<rectangle x1="-1.8029" y1="-3.937" x2="-1.4473" y2="-2.6416" layer="51"/>
<rectangle x1="-1.1529" y1="-3.937" x2="-0.7973" y2="-2.6416" layer="51"/>
<rectangle x1="-0.5029" y1="-3.937" x2="-0.1473" y2="-2.6416" layer="51"/>
<rectangle x1="0.1471" y1="-3.937" x2="0.5027" y2="-2.6416" layer="51"/>
<rectangle x1="0.7971" y1="-3.937" x2="1.1527" y2="-2.6416" layer="51"/>
<rectangle x1="1.4473" y1="-3.937" x2="1.8029" y2="-2.6416" layer="51"/>
<rectangle x1="2.0973" y1="-3.937" x2="2.4529" y2="-2.6416" layer="51"/>
<rectangle x1="2.7473" y1="-3.937" x2="3.1029" y2="-2.6416" layer="51"/>
<rectangle x1="2.7471" y1="2.6416" x2="3.1027" y2="3.937" layer="51"/>
<rectangle x1="2.0971" y1="2.6416" x2="2.4527" y2="3.937" layer="51"/>
<rectangle x1="1.4471" y1="2.6416" x2="1.8027" y2="3.937" layer="51"/>
<rectangle x1="0.7972" y1="2.6416" x2="1.1528" y2="3.937" layer="51"/>
<rectangle x1="0.1472" y1="2.6416" x2="0.5028" y2="3.937" layer="51"/>
<rectangle x1="-0.5027" y1="2.6416" x2="-0.1471" y2="3.937" layer="51"/>
<rectangle x1="-1.1527" y1="2.6416" x2="-0.7971" y2="3.937" layer="51"/>
<rectangle x1="-1.8027" y1="2.6416" x2="-1.4471" y2="3.937" layer="51"/>
<rectangle x1="-2.4527" y1="2.6416" x2="-2.0971" y2="3.937" layer="51"/>
<rectangle x1="-3.1027" y1="2.6416" x2="-2.7471" y2="3.937" layer="51"/>
<rectangle x1="-3.81" y1="-2.6" x2="3.81" y2="2.6" layer="39"/>
</package>
</packages>
<symbols>
<symbol name="INTERFACE-CH340T">
<pin name="CKO" x="-10.16" y="11.43" length="short" direction="out"/>
<pin name="ACT#" x="-10.16" y="8.89" length="short" direction="out"/>
<pin name="TXD" x="-10.16" y="6.35" length="short" direction="out"/>
<pin name="RXD" x="-10.16" y="3.81" length="short" direction="in"/>
<pin name="V3" x="-10.16" y="1.27" length="short" direction="sup"/>
<pin name="UD+" x="-10.16" y="-1.27" length="short"/>
<pin name="UD-" x="-10.16" y="-3.81" length="short"/>
<pin name="GND" x="-10.16" y="-6.35" length="short" direction="sup"/>
<pin name="XI" x="-10.16" y="-8.89" length="short" direction="in"/>
<pin name="XO" x="-10.16" y="-11.43" length="short" direction="out"/>
<pin name="CTS#" x="10.16" y="-11.43" length="short" direction="in" rot="R180"/>
<pin name="DSR#" x="10.16" y="-8.89" length="short" direction="in" rot="R180"/>
<pin name="RI#" x="10.16" y="-6.35" length="short" direction="in" rot="R180"/>
<pin name="DCD#" x="10.16" y="-3.81" length="short" direction="in" rot="R180"/>
<pin name="DTR#" x="10.16" y="-1.27" length="short" direction="out" rot="R180"/>
<pin name="RTS#" x="10.16" y="1.27" length="short" direction="out" rot="R180"/>
<pin name="NC" x="10.16" y="3.81" length="short" direction="nc" rot="R180"/>
<pin name="R232" x="10.16" y="6.35" length="short" direction="in" rot="R180"/>
<pin name="VCC" x="10.16" y="8.89" length="short" direction="sup" rot="R180"/>
<pin name="NOS#" x="10.16" y="11.43" length="short" direction="sup" rot="R180"/>
<text x="-6.35" y="12.7" size="1.27" layer="95" ratio="10">&gt;NAME</text>
<text x="0" y="12.7" size="1.27" layer="96" ratio="10">&gt;VALUE</text>
<wire x1="-6.35" y1="12.7" x2="6.35" y2="12.7" width="0.1524" layer="94"/>
<wire x1="6.35" y1="12.7" x2="6.35" y2="11.43" width="0.1524" layer="94"/>
<wire x1="6.35" y1="11.43" x2="6.35" y2="8.89" width="0.1524" layer="94"/>
<wire x1="6.35" y1="8.89" x2="6.35" y2="6.35" width="0.1524" layer="94"/>
<wire x1="6.35" y1="6.35" x2="6.35" y2="3.81" width="0.1524" layer="94"/>
<wire x1="6.35" y1="3.81" x2="6.35" y2="1.27" width="0.1524" layer="94"/>
<wire x1="6.35" y1="1.27" x2="6.35" y2="-1.27" width="0.1524" layer="94"/>
<wire x1="6.35" y1="-1.27" x2="6.35" y2="-3.81" width="0.1524" layer="94"/>
<wire x1="6.35" y1="-3.81" x2="6.35" y2="-6.35" width="0.1524" layer="94"/>
<wire x1="6.35" y1="-6.35" x2="6.35" y2="-8.89" width="0.1524" layer="94"/>
<wire x1="6.35" y1="-8.89" x2="6.35" y2="-11.43" width="0.1524" layer="94"/>
<wire x1="6.35" y1="-11.43" x2="6.35" y2="-12.7" width="0.1524" layer="94"/>
<wire x1="6.35" y1="-12.7" x2="-6.35" y2="-12.7" width="0.1524" layer="94"/>
<wire x1="-6.35" y1="-12.7" x2="-6.35" y2="-11.43" width="0.1524" layer="94"/>
<wire x1="-6.35" y1="-11.43" x2="-6.35" y2="-8.89" width="0.1524" layer="94"/>
<wire x1="-6.35" y1="-8.89" x2="-6.35" y2="-6.35" width="0.1524" layer="94"/>
<wire x1="-6.35" y1="-6.35" x2="-6.35" y2="-3.81" width="0.1524" layer="94"/>
<wire x1="-6.35" y1="-3.81" x2="-6.35" y2="-1.27" width="0.1524" layer="94"/>
<wire x1="-6.35" y1="-1.27" x2="-6.35" y2="1.27" width="0.1524" layer="94"/>
<wire x1="-6.35" y1="1.27" x2="-6.35" y2="3.81" width="0.1524" layer="94"/>
<wire x1="-6.35" y1="3.81" x2="-6.35" y2="6.35" width="0.1524" layer="94"/>
<wire x1="-6.35" y1="6.35" x2="-6.35" y2="8.89" width="0.1524" layer="94"/>
<wire x1="-6.35" y1="8.89" x2="-6.35" y2="11.43" width="0.1524" layer="94"/>
<wire x1="-6.35" y1="11.43" x2="-6.35" y2="12.7" width="0.1524" layer="94"/>
<wire x1="-7.62" y1="11.43" x2="-6.35" y2="11.43" width="0.1524" layer="94"/>
<wire x1="-7.62" y1="8.89" x2="-6.35" y2="8.89" width="0.1524" layer="94"/>
<wire x1="-7.62" y1="6.35" x2="-6.35" y2="6.35" width="0.1524" layer="94"/>
<wire x1="-7.62" y1="3.81" x2="-6.35" y2="3.81" width="0.1524" layer="94"/>
<wire x1="-7.62" y1="1.27" x2="-6.35" y2="1.27" width="0.1524" layer="94"/>
<wire x1="-7.62" y1="-1.27" x2="-6.35" y2="-1.27" width="0.1524" layer="94"/>
<wire x1="-7.62" y1="-3.81" x2="-6.35" y2="-3.81" width="0.1524" layer="94"/>
<wire x1="-7.62" y1="-6.35" x2="-6.35" y2="-6.35" width="0.1524" layer="94"/>
<wire x1="-7.62" y1="-8.89" x2="-6.35" y2="-8.89" width="0.1524" layer="94"/>
<wire x1="-7.62" y1="-11.43" x2="-6.35" y2="-11.43" width="0.1524" layer="94"/>
<wire x1="6.35" y1="-11.43" x2="7.62" y2="-11.43" width="0.1524" layer="94"/>
<wire x1="6.35" y1="-8.89" x2="7.62" y2="-8.89" width="0.1524" layer="94"/>
<wire x1="6.35" y1="-6.35" x2="7.62" y2="-6.35" width="0.1524" layer="94"/>
<wire x1="6.35" y1="-3.81" x2="7.62" y2="-3.81" width="0.1524" layer="94"/>
<wire x1="6.35" y1="-1.27" x2="7.62" y2="-1.27" width="0.1524" layer="94"/>
<wire x1="6.35" y1="1.27" x2="7.62" y2="1.27" width="0.1524" layer="94"/>
<wire x1="6.35" y1="3.81" x2="7.62" y2="3.81" width="0.1524" layer="94"/>
<wire x1="6.35" y1="6.35" x2="7.62" y2="6.35" width="0.1524" layer="94"/>
<wire x1="6.35" y1="8.89" x2="7.62" y2="8.89" width="0.1524" layer="94"/>
<wire x1="6.35" y1="11.43" x2="7.62" y2="11.43" width="0.1524" layer="94"/>
</symbol>
</symbols>
<devicesets>
<deviceset name="CH340T" prefix="U" uservalue="yes">
<gates>
<gate name="G$1" symbol="INTERFACE-CH340T" x="0" y="0"/>
</gates>
<devices>
<device name="-CH340T" package="SSOP20">
<connects>
<connect gate="G$1" pin="ACT#" pad="2"/>
<connect gate="G$1" pin="CKO" pad="1"/>
<connect gate="G$1" pin="CTS#" pad="11"/>
<connect gate="G$1" pin="DCD#" pad="14"/>
<connect gate="G$1" pin="DSR#" pad="12"/>
<connect gate="G$1" pin="DTR#" pad="15"/>
<connect gate="G$1" pin="GND" pad="8"/>
<connect gate="G$1" pin="NC" pad="17"/>
<connect gate="G$1" pin="NOS#" pad="20"/>
<connect gate="G$1" pin="R232" pad="18"/>
<connect gate="G$1" pin="RI#" pad="13"/>
<connect gate="G$1" pin="RTS#" pad="16"/>
<connect gate="G$1" pin="RXD" pad="4"/>
<connect gate="G$1" pin="TXD" pad="3"/>
<connect gate="G$1" pin="UD+" pad="6"/>
<connect gate="G$1" pin="UD-" pad="7"/>
<connect gate="G$1" pin="V3" pad="5"/>
<connect gate="G$1" pin="VCC" pad="19"/>
<connect gate="G$1" pin="XI" pad="9"/>
<connect gate="G$1" pin="XO" pad="10"/>
</connects>
<technologies>
<technology name=""/>
</technologies>
</device>
</devices>
</deviceset>
</devicesets>
</library>
</drawing>
</eagle>
