<eagle version="6.5.0" xmlns="eagle">
  <drawing>
    <library>
      <packages>
        <package name="L0603" xmlns="eagle">
          <smd name="1" x="-0.85" y="0" dx="1" dy="1.05" layer="1" />
          <smd name="2" x="0.85" y="0" dx="1" dy="1.05" layer="1" />
          <text x="-2.035" y="0.835" size="1.016" layer="25" font="vector" ratio="15">&gt;NAME</text>
          <rectangle x1="-0.9" y1="-0.45" x2="-0.45" y2="0.45" layer="51" />
          <rectangle x1="0.45" y1="-0.45" x2="0.9" y2="0.45" layer="51" />
          <rectangle x1="-0.45" y1="0.15" x2="0.45" y2="0.45" layer="51" />
          <rectangle x1="-0.45" y1="-0.45" x2="0.45" y2="-0.15" layer="51" />
          <wire x1="-0.15" y1="0.65" x2="0.15" y2="0.65" width="0.127" layer="21" />
          <wire x1="-0.15" y1="-0.65" x2="0.15" y2="-0.65" width="0.127" layer="21" />
          <circle x="-1.85" y="0" radius="0.1542" width="0" layer="21" />
        </package>
      </packages>
      <symbols>
        <symbol name="L-US">
          <wire x1="0" y1="5.08" x2="1.27" y2="3.81" width="0.254" layer="94" curve="-90" />
          <wire x1="0" y1="2.54" x2="1.27" y2="3.81" width="0.254" layer="94" curve="90" />
          <wire x1="0" y1="2.54" x2="1.27" y2="1.27" width="0.254" layer="94" curve="-90" />
          <wire x1="0" y1="0" x2="1.27" y2="1.27" width="0.254" layer="94" curve="90" />
          <wire x1="0" y1="0" x2="1.27" y2="-1.27" width="0.254" layer="94" curve="-90" />
          <wire x1="0" y1="-2.54" x2="1.27" y2="-1.27" width="0.254" layer="94" curve="90" />
          <wire x1="0" y1="-2.54" x2="1.27" y2="-3.81" width="0.254" layer="94" curve="-90" />
          <wire x1="0" y1="-5.08" x2="1.27" y2="-3.81" width="0.254" layer="94" curve="90" />
          <text x="-1.27" y="-5.08" size="1.778" layer="95" rot="R90">&gt;NAME</text>
          <text x="3.81" y="-5.08" size="1.778" layer="96" rot="R90">&gt;VALUE</text>
          <pin name="2" x="0" y="-7.62" visible="off" length="short" direction="pas" swaplevel="1" rot="R90" />
          <pin name="1" x="0" y="7.62" visible="off" length="short" direction="pas" swaplevel="1" rot="R270" />
        </symbol>
      </symbols>
      <devicesets>
        <deviceset name="L-US">
          <gates>
            <gate name="G$1" symbol="L-US" x="0" y="0" />
          </gates>
          <devices>
            <device name="0603" package="L0603" xmlns="eagle">
              <connects>
                <connect gate="G$1" pin="1" pad="1" />
                <connect gate="G$1" pin="2" pad="2" />
              </connects>
              <technologies>
                <technology name="" />
              </technologies>
            </device>
          </devices>
        </deviceset>
      </devicesets>
    </library>
  </drawing>
</eagle>