<eagle version="6.5.0" xmlns="eagle">
  <drawing>
    <library>
      <packages>
        <package name="TRANSFORMER" xmlns="eagle">
          <wire x1="7" y1="7.5" x2="-7" y2="7.5" width="0.15239999999999998" layer="21" />
          <wire x1="-7" y1="7.5" x2="-7" y2="-7.5" width="0.15239999999999998" layer="21" />
          <wire x1="-7" y1="-7.5" x2="7" y2="-7.5" width="0.15239999999999998" layer="21" />
          <wire x1="7" y1="-7.5" x2="7" y2="7.5" width="0.15239999999999998" layer="21" />
          <wire x1="3.15" y1="10.3" x2="-3.15" y2="10.3" width="0.15239999999999998" layer="51" />
          <wire x1="-3.15" y1="10.3" x2="-3.15" y2="-10.3" width="0.15239999999999998" layer="51" />
          <wire x1="-3.15" y1="-10.3" x2="3.15" y2="-10.3" width="0.15239999999999998" layer="51" />
          <wire x1="3.15" y1="-10.3" x2="3.15" y2="10.3" width="0.15239999999999998" layer="51" />
          <wire x1="-3.302" y1="7.5438" x2="-3.302" y2="10.414" width="0.15239999999999998" layer="21" />
          <wire x1="-3.302" y1="10.414" x2="3.302" y2="10.414" width="0.15239999999999998" layer="21" />
          <wire x1="3.302" y1="10.414" x2="3.302" y2="7.5184" width="0.15239999999999998" layer="21" />
          <wire x1="-3.302" y1="-7.5184" x2="-3.302" y2="-10.414" width="0.15239999999999998" layer="21" />
          <wire x1="-3.302" y1="-10.414" x2="3.302" y2="-10.414" width="0.15239999999999998" layer="21" />
          <wire x1="3.302" y1="-10.414" x2="3.302" y2="-7.5184" width="0.15239999999999998" layer="21" />
          <circle x="-3" y="3" radius="0.15239999999999998" width="0" layer="21" />
          <pad name="4" x="5.35" y="4.75" drill="1.4" />
          <pad name="1" x="-5.35" y="4.75" drill="1.4" />
          <pad name="2" x="-5.35" y="-4.75" drill="1.4" />
          <pad name="3" x="5.35" y="-4.75" drill="1.4" />
          <text x="-7" y="6" size="1.016" layer="25" ratio="15" font="vector">&gt;NAME</text>
        </package>
      </packages>
      <symbols>
        <symbol name="TRANSFORMER">
          <wire x1="-2.54" y1="5.08" x2="-2.54" y2="-5.08" width="0.254" layer="94" xmlns="eagle" />
          <wire x1="2.54" y1="5.08" x2="2.54" y2="-5.08" width="0.254" layer="94" xmlns="eagle" />
          <wire x1="-5.08" y1="5.08" x2="-5.08" y2="2.54" width="0.254" layer="94" curve="180" xmlns="eagle" />
          <wire x1="-5.08" y1="2.54" x2="-5.08" y2="0" width="0.254" layer="94" curve="180" xmlns="eagle" />
          <wire x1="-5.08" y1="0" x2="-5.08" y2="-2.54" width="0.254" layer="94" curve="180" xmlns="eagle" />
          <wire x1="-5.08" y1="-2.54" x2="-5.08" y2="-5.08" width="0.254" layer="94" curve="180" xmlns="eagle" />
          <wire x1="5.08" y1="5.08" x2="5.08" y2="2.54" width="0.254" layer="94" curve="-180" xmlns="eagle" />
          <wire x1="5.08" y1="2.54" x2="5.08" y2="0" width="0.254" layer="94" curve="-180" xmlns="eagle" />
          <wire x1="5.08" y1="0" x2="5.08" y2="-2.54" width="0.254" layer="94" curve="-180" xmlns="eagle" />
          <wire x1="5.08" y1="-2.54" x2="5.08" y2="-5.08" width="0.254" layer="94" curve="-180" xmlns="eagle" />
          <text x="10.16" y="5.08" size="1.778" layer="95" xmlns="eagle">&gt;NAME</text>
          <text x="10.16" y="-7.62" size="1.778" layer="96" xmlns="eagle">&gt;VALUE</text>
          <pin name="1" x="-5.08" y="7.62" visible="pad" length="short" rot="R270" direction="pas" xmlns="eagle" />
          <pin name="4" x="5.08" y="7.62" visible="pad" length="short" rot="R270" direction="pas" xmlns="eagle" />
          <pin name="2" x="-5.08" y="-7.62" visible="pad" length="short" rot="R90" direction="pas" xmlns="eagle" />
          <pin name="3" x="5.08" y="-7.62" visible="pad" length="short" rot="R90" direction="pas" xmlns="eagle" />
        </symbol>
      </symbols>
      <devicesets>
        <deviceset name="TRANSFORMER">
          <gates>
            <gate name="G$1" symbol="TRANSFORMER" x="0" y="0" />
          </gates>
          <devices>
            <device name="PTH" package="TRANSFORMER" xmlns="eagle">
              <connects>
                <connect gate="G$1" pin="1" pad="1" />
                <connect gate="G$1" pin="2" pad="2" />
                <connect gate="G$1" pin="3" pad="3" />
                <connect gate="G$1" pin="4" pad="4" />
              </connects>
              <technologies>
                <technology name="" />
              </technologies>
            </device>
          </devices>
        </deviceset>
      </devicesets>
    </library>
  </drawing>
</eagle>