<eagle version="6.5.0" xmlns="eagle">
  <drawing>
    <library>
      <packages>
        <package name="WLCSP-6" xmlns="eagle">
          <circle x="-0.2" y="0.4" radius="0.15" width="0" layer="29" />
          <circle x="0.2" y="0.4" radius="0.15" width="0" layer="29" />
          <circle x="0.2" y="0" radius="0.15" width="0" layer="29" />
          <circle x="-0.2" y="0" radius="0.15" width="0" layer="29" />
          <circle x="-0.2" y="-0.4" radius="0.15" width="0" layer="29" />
          <circle x="0.2" y="-0.4" radius="0.15" width="0" layer="29" />
          <circle x="-1" y="0.6" radius="0.1542" width="0" layer="21" />
          <wire x1="-0.43" y1="0.58" x2="-0.43" y2="-0.58" width="0.06" layer="51" />
          <wire x1="-0.43" y1="-0.58" x2="0.43" y2="-0.58" width="0.06" layer="51" />
          <wire x1="0.43" y1="-0.58" x2="0.43" y2="0.58" width="0.06" layer="51" />
          <wire x1="0.43" y1="0.58" x2="-0.43" y2="0.58" width="0.06" layer="51" />
          <smd name="A1" x="-0.2" y="0.4" dx="0.2" dy="0.2" layer="1" roundness="100" stop="no" />
          <smd name="A2" x="0.2" y="0.4" dx="0.2" dy="0.2" layer="1" roundness="100" stop="no" />
          <smd name="B1" x="-0.2" y="0" dx="0.2" dy="0.2" layer="1" roundness="100" stop="no" />
          <smd name="B2" x="0.2" y="0" dx="0.2" dy="0.2" layer="1" roundness="100" stop="no" />
          <smd name="C1" x="-0.2" y="-0.4" dx="0.2" dy="0.2" layer="1" roundness="100" stop="no" />
          <smd name="C2" x="0.2" y="-0.4" dx="0.2" dy="0.2" layer="1" roundness="100" stop="no" />
          <text x="-1.7" y="1" size="1.016" layer="25" font="vector" ratio="15">&gt;NAME</text>
          <wire x1="-0.6" y1="0.8" x2="-0.6" y2="-0.8" width="0.127" layer="21" />
          <wire x1="-0.6" y1="-0.8" x2="0.6" y2="-0.8" width="0.127" layer="21" />
          <wire x1="0.6" y1="-0.8" x2="0.6" y2="0.8" width="0.127" layer="21" />
          <wire x1="0.6" y1="0.8" x2="-0.6" y2="0.8" width="0.127" layer="21" />
        </package>
      </packages>
      <symbols>
        <symbol name="FAN53611AUC">
          <wire x1="-7.62" y1="7.62" x2="-7.62" y2="-7.62" width="0.254" layer="94" />
          <wire x1="-7.62" y1="-7.62" x2="7.62" y2="-7.62" width="0.254" layer="94" />
          <wire x1="7.62" y1="-7.62" x2="7.62" y2="7.62" width="0.254" layer="94" />
          <wire x1="7.62" y1="7.62" x2="-7.62" y2="7.62" width="0.254" layer="94" />
          <pin name="EN" x="-12.7" y="-5.08" length="middle" direction="pas" />
          <pin name="FB" x="12.7" y="0" length="middle" direction="pas" rot="R180" />
          <pin name="GND" x="12.7" y="-5.08" length="middle" direction="pas" rot="R180" />
          <pin name="MODE" x="-12.7" y="0" length="middle" direction="pas" />
          <pin name="SW" x="12.7" y="5.08" length="middle" direction="pas" rot="R180" />
          <pin name="VIN" x="-12.7" y="5.08" length="middle" direction="pas" />
          <text x="-7.62" y="10.16" size="1.778" layer="95" align="top-left">&gt;NAME</text>
          <text x="-7.62" y="-10.16" size="1.778" layer="95">&gt;VALUE</text>
        </symbol>
      </symbols>
      <devicesets>
        <deviceset name="FAN53611" prefix="U">
          <gates>
            <gate name="G$1" symbol="FAN53611AUC" x="0" y="0" />
          </gates>
          <devices>
            <device name="" package="WLCSP-6" xmlns="eagle">
              <connects>
                <connect gate="G$1" pin="EN" pad="B2" />
                <connect gate="G$1" pin="FB" pad="C1" />
                <connect gate="G$1" pin="GND" pad="C2" />
                <connect gate="G$1" pin="MODE" pad="A1" />
                <connect gate="G$1" pin="SW" pad="B1" />
                <connect gate="G$1" pin="VIN" pad="A2" />
              </connects>
              <technologies>
                <technology name="" />
              </technologies>
            </device>
          </devices>
        </deviceset>
      </devicesets>
    </library>
  </drawing>
</eagle>