<eagle version="6.5.0" xmlns="eagle">
  <drawing>
    <library>
      <packages>
        <package name="6-WFDFN" xmlns="eagle">
          <description>&lt;B&gt;6-WFDFN Exposed Pad&lt;/B&gt;&lt;P&gt;
Designed for the Linear Technology LT3460EDC-1#TRPBF IC REG BOOST ADJ 0.18A 6DFN&lt;br&gt;
Digi-Key Part Number LT3460EDC-1#TRPBF-ND
&lt;p&gt;
Also called DC Package
6-Lead Plastic DFN (2mm × 2mm).</description>
          <circle x="-1" y="-1.3" radius="0.1" width="0.127" layer="21" />
          <wire x1="-1.1" y1="1" x2="-1.1" y2="-1" width="0.127" layer="21" />
          <wire x1="1.1" y1="1" x2="1.1" y2="-1" width="0.127" layer="21" />
          <wire x1="-1.1" y1="1" x2="-0.9" y2="1" width="0.127" layer="21" />
          <wire x1="-1.1" y1="-1" x2="-0.9" y2="-1" width="0.127" layer="21" />
          <wire x1="1.1" y1="-1" x2="0.9" y2="-1" width="0.127" layer="21" />
          <wire x1="1.1" y1="1" x2="0.9" y2="1" width="0.127" layer="21" />
          <smd name="P$1" x="-0.5" y="-0.9125" dx="0.25" dy="0.675" layer="1" />
          <smd name="P$2" x="0" y="-0.9125" dx="0.25" dy="0.675" layer="1" />
          <smd name="P$3" x="0.5" y="-0.9125" dx="0.25" dy="0.675" layer="1" />
          <smd name="P$4" x="0.5" y="1" dx="0.25" dy="0.675" layer="1" rot="R180" />
          <smd name="P$5" x="0" y="1" dx="0.25" dy="0.675" layer="1" rot="R180" />
          <smd name="P$6" x="-0.5" y="1" dx="0.25" dy="0.675" layer="1" rot="R180" />
          <smd name="P$7" x="0" y="0" dx="1.42" dy="0.61" layer="1" />
          <text x="-1.2" y="1.6" size="0.8128" layer="25">&gt;NAME</text>
          <text x="-1.2" y="-2.4" size="0.8128" layer="27">&gt;VALUE</text>
        </package>
      </packages>
      <symbols>
        <symbol name="LT3460">
          <description>&lt;B&gt;LT3460 Step-Up 
DC/DC Converter&lt;/B&gt;</description>
          <wire x1="-12.7" y1="10.16" x2="12.7" y2="10.16" width="0.254" layer="94" />
          <wire x1="12.7" y1="10.16" x2="12.7" y2="-10.16" width="0.254" layer="94" />
          <wire x1="12.7" y1="-10.16" x2="-12.7" y2="-10.16" width="0.254" layer="94" />
          <wire x1="-12.7" y1="-10.16" x2="-12.7" y2="10.16" width="0.254" layer="94" />
          <pin name="!SHDN" x="-17.78" y="0" length="middle" />
          <pin name="FB" x="17.78" y="0" length="middle" rot="R180" />
          <pin name="GND" x="0" y="-15.24" length="middle" rot="R90" />
          <pin name="SW" x="7.62" y="15.24" length="middle" rot="R270" />
          <pin name="VIN" x="-7.62" y="15.24" length="middle" rot="R270" />
          <text x="-17.272" y="10.922" size="1.778" layer="95">&gt;NAME</text>
          <text x="2.54" y="-12.7" size="1.778" layer="96">&gt;VALUE</text>
        </symbol>
      </symbols>
      <devicesets>
        <deviceset name="PMIC-LT3460">
          <gates>
            <gate name="G$1" symbol="LT3460" x="-17.78" y="2.54" />
          </gates>
          <devices>
            <device name="" package="6-WFDFN" xmlns="eagle">
              <connects>
                <connect gate="G$1" pin="!SHDN" pad="P$6" />
                <connect gate="G$1" pin="FB" pad="P$1" />
                <connect gate="G$1" pin="GND" pad="P$7" />
                <connect gate="G$1" pin="SW" pad="P$3" />
                <connect gate="G$1" pin="VIN" pad="P$4" />
              </connects>
              <technologies>
                <technology name="" />
              </technologies>
            </device>
          </devices>
        </deviceset>
      </devicesets>
    </library>
  </drawing>
</eagle>