<eagle version="6.5.0" xmlns="eagle">
  <drawing>
    <library>
      <packages>
        <package name="UFDFN8" xmlns="eagle">
          <description>&lt;B&gt;UFDFPN8 (MLP8) 4mm x 3mm&lt;/B&gt;&lt;P&gt;
Created for the Micron M25P16-VMC6TG Serial Flash</description>
          <circle x="-1.7" y="-1.9" radius="0.06" width="0.127" layer="21" />
          <wire x1="-1.6" y1="1.6" x2="-2.1" y2="1.6" width="0.127" layer="21" />
          <wire x1="-2.1" y1="1.6" x2="-2.1" y2="-1.6" width="0.127" layer="21" />
          <wire x1="-2.1" y1="-1.6" x2="-1.6" y2="-1.6" width="0.127" layer="21" />
          <wire x1="1.6" y1="1.6" x2="2.1" y2="1.6" width="0.127" layer="21" />
          <wire x1="2.1" y1="1.6" x2="2.1" y2="-1.6" width="0.127" layer="21" />
          <wire x1="2.1" y1="-1.6" x2="1.6" y2="-1.6" width="0.127" layer="21" />
          <smd name="1" x="-1.2" y="-1.3" dx="0.3" dy="0.8" layer="1" />
          <smd name="2" x="-0.4" y="-1.3" dx="0.3" dy="0.8" layer="1" roundness="100" />
          <smd name="3" x="0.4" y="-1.3" dx="0.3" dy="0.8" layer="1" roundness="100" />
          <smd name="4" x="1.2" y="-1.3" dx="0.3" dy="0.8" layer="1" roundness="100" />
          <smd name="5" x="1.2" y="1.3" dx="0.3" dy="0.8" layer="1" roundness="100" />
          <smd name="6" x="0.4" y="1.3" dx="0.3" dy="0.8" layer="1" roundness="100" />
          <smd name="7" x="-0.4" y="1.3" dx="0.3" dy="0.8" layer="1" roundness="100" />
          <smd name="8" x="-1.2" y="1.3" dx="0.3" dy="0.8" layer="1" roundness="100" />
          <text x="-2" y="2" size="0.8128" layer="21" font="vector" ratio="20">&gt;NAME</text>
        </package>
      </packages>
      <symbols>
        <symbol name="M25P16">
          <description>&lt;B&gt;M25P16&lt;/B&gt; Serial Flash Memory&lt;P&gt;
Designed for the Micron Technology Inc M25P16-VMC6TG
&lt;BR&gt;
UFDFPN8 (MLP8), 4 x 3 mm
&lt;P&gt;
Octopart MPN: M25P16-VMC6TG
&lt;P&gt;
Digi-Key part numbers:
&lt;UL&gt;
 &lt;li&gt;    M25P16-VMC6TGCT-ND
   &lt;li&gt;   M25P16-VMC6TGDKR-ND
   &lt;li&gt;   M25P16-VMC6TGTR-ND
&lt;/UL&gt;</description>
          <wire x1="-10.16" y1="15.24" x2="-10.16" y2="-15.24" width="0.254" layer="94" />
          <wire x1="-10.16" y1="-15.24" x2="10.16" y2="-15.24" width="0.254" layer="94" />
          <wire x1="10.16" y1="-15.24" x2="10.16" y2="15.24" width="0.254" layer="94" />
          <wire x1="10.16" y1="15.24" x2="-10.16" y2="15.24" width="0.254" layer="94" />
          <pin name="!HOLD" x="-15.24" y="-10.16" length="middle" direction="pas" function="dot" />
          <pin name="!S" x="-15.24" y="0" length="middle" direction="pas" function="dot" />
          <pin name="!W" x="-15.24" y="-5.08" length="middle" direction="pas" function="dot" />
          <pin name="C" x="-15.24" y="5.08" length="middle" direction="pas" />
          <pin name="DQ1" x="-15.24" y="10.16" length="middle" direction="pas" />
          <pin name="DQ0" x="15.24" y="10.16" length="middle" direction="pas" rot="R180" />
          <pin name="VCC" x="15.24" y="0" length="middle" direction="pas" rot="R180" />
          <pin name="VSS" x="15.24" y="-10.16" length="middle" direction="pas" rot="R180" />
          <text x="-9.652" y="16.002" size="1.778" layer="95" ratio="20">&gt;NAME</text>
          <text x="-10.16" y="-17.78" size="1.778" layer="95" ratio="20">&gt;VALUE</text>
        </symbol>
      </symbols>
      <devicesets>
        <deviceset name="U_M25P16-VMC6TG" prefix="U">
          <gates>
            <gate name="G$1" symbol="M25P16" x="0" y="0" />
          </gates>
          <devices>
            <device name="" package="UFDFN8" xmlns="eagle">
              <connects>
                <connect gate="G$1" pin="!HOLD" pad="7" />
                <connect gate="G$1" pin="!S" pad="1" />
                <connect gate="G$1" pin="!W" pad="3" />
                <connect gate="G$1" pin="C" pad="6" />
                <connect gate="G$1" pin="DQ0" pad="5" />
                <connect gate="G$1" pin="DQ1" pad="2" />
                <connect gate="G$1" pin="VCC" pad="8" />
                <connect gate="G$1" pin="VSS" pad="4" />
              </connects>
              <technologies>
                <technology name="" />
              </technologies>
            </device>
          </devices>
        </deviceset>
      </devicesets>
    </library>
  </drawing>
</eagle>