<eagle version="6.5.0" xmlns="eagle">
  <drawing>
    <library>
      <packages>
        <package name="SAMTEC_FTSH-105-01-L-DV-K" xmlns="eagle">
          <smd name="1" x="-2.54" y="-2.032" dx="0.762" dy="2.794" layer="1" />
          <smd name="2" x="-2.54" y="2.032" dx="0.762" dy="2.794" layer="1" />
          <smd name="3" x="-1.27" y="-2.032" dx="0.762" dy="2.794" layer="1" />
          <smd name="4" x="-1.27" y="2.032" dx="0.762" dy="2.794" layer="1" />
          <smd name="5" x="0" y="-2.032" dx="0.762" dy="2.794" layer="1" />
          <smd name="6" x="0" y="2.032" dx="0.762" dy="2.794" layer="1" />
          <smd name="7" x="1.27" y="-2.032" dx="0.762" dy="2.794" layer="1" />
          <smd name="8" x="1.27" y="2.032" dx="0.762" dy="2.794" layer="1" />
          <smd name="9" x="2.54" y="-2.032" dx="0.762" dy="2.794" layer="1" />
          <smd name="10" x="2.54" y="2.032" dx="0.762" dy="2.794" layer="1" />
          <wire x1="-2.54" y1="-3.8862" x2="-1.905" y2="-5.1562" width="0.1524" layer="21" />
          <wire x1="-1.905" y1="-5.1562" x2="-3.175" y2="-5.1562" width="0.1524" layer="21" />
          <wire x1="-3.175" y1="-5.1562" x2="-2.54" y2="-3.8862" width="0.1524" layer="21" />
          <wire x1="-3.175" y1="0.4318" x2="-3.175" y2="-0.4318" width="0.1524" layer="21" />
          <wire x1="3.175" y1="-0.4318" x2="3.175" y2="0.4318" width="0.1524" layer="21" />
          <text x="-4.826" y="1.397" size="1.27" layer="21" ratio="6" rot="SR0">2</text>
          <text x="-4.826" y="-2.667" size="1.27" layer="21" ratio="6" rot="SR0">1</text>
          <text x="3.683" y="1.397" size="1.27" layer="21" ratio="6" rot="SR0">10</text>
          <text x="3.683" y="-2.667" size="1.27" layer="21" ratio="6" rot="SR0">9</text>
          <wire x1="-2.54" y1="-3.8862" x2="-1.905" y2="-5.1562" width="0.1524" layer="51" />
          <wire x1="-1.905" y1="-5.1562" x2="-3.175" y2="-5.1562" width="0.1524" layer="51" />
          <wire x1="-3.175" y1="-5.1562" x2="-2.54" y2="-3.8862" width="0.1524" layer="51" />
          <wire x1="-3.175" y1="1.7272" x2="-3.175" y2="-1.7272" width="0.1524" layer="51" />
          <wire x1="-3.175" y1="-1.7272" x2="3.175" y2="-1.7272" width="0.1524" layer="51" />
          <wire x1="3.175" y1="-1.7272" x2="3.175" y2="1.7272" width="0.1524" layer="51" />
          <wire x1="3.175" y1="1.7272" x2="-3.175" y2="1.7272" width="0.1524" layer="51" />
          <text x="-4.826" y="1.397" size="1.27" layer="51" ratio="6" rot="SR0">2</text>
          <text x="-4.826" y="-2.667" size="1.27" layer="51" ratio="6" rot="SR0">1</text>
          <text x="3.683" y="1.397" size="1.27" layer="51" ratio="6" rot="SR0">10</text>
          <text x="3.683" y="-2.667" size="1.27" layer="51" ratio="6" rot="SR0">9</text>
          <text x="-5.0546" y="3.8862" size="2.0828" layer="25" ratio="10" rot="SR0">&gt;NAME</text>
          <text x="-5.588" y="-6.6802" size="2.0828" layer="27" ratio="10" rot="SR0">&gt;VALUE</text>
        </package>
      </packages>
      <symbols>
        <symbol name="FTSH-105-01-L-DV-K">
          <pin name="1" x="-17.78" y="2.54" length="middle" direction="pas" />
          <pin name="3" x="-17.78" y="0" length="middle" direction="pas" />
          <pin name="5" x="-17.78" y="-2.54" length="middle" direction="pas" />
          <pin name="7" x="-17.78" y="-5.08" length="middle" direction="pas" />
          <pin name="9" x="-17.78" y="-7.62" length="middle" direction="pas" />
          <pin name="2" x="17.78" y="2.54" length="middle" direction="pas" rot="R180" />
          <pin name="4" x="17.78" y="0" length="middle" direction="pas" rot="R180" />
          <pin name="6" x="17.78" y="-2.54" length="middle" direction="pas" rot="R180" />
          <pin name="8" x="17.78" y="-5.08" length="middle" direction="pas" rot="R180" />
          <pin name="10" x="17.78" y="-7.62" length="middle" direction="pas" rot="R180" />
          <wire x1="-12.7" y1="7.62" x2="-12.7" y2="-12.7" width="0.4064" layer="94" />
          <wire x1="-12.7" y1="-12.7" x2="12.7" y2="-12.7" width="0.4064" layer="94" />
          <wire x1="12.7" y1="-12.7" x2="12.7" y2="7.62" width="0.4064" layer="94" />
          <wire x1="12.7" y1="7.62" x2="-12.7" y2="7.62" width="0.4064" layer="94" />
          <text x="-4.7244" y="11.6586" size="2.0828" layer="95" ratio="10" rot="SR0">&gt;NAME</text>
          <text x="-5.461" y="-16.4338" size="2.0828" layer="96" ratio="10" rot="SR0">&gt;VALUE</text>
        </symbol>
      </symbols>
      <devicesets>
        <deviceset name="FTSH-105-01-L-DV-K" prefix="J">
          <gates>
            <gate name="A" symbol="FTSH-105-01-L-DV-K" x="0" y="0" />
          </gates>
          <devices>
            <device name="" package="SAMTEC_FTSH-105-01-L-DV-K" xmlns="eagle">
              <connects>
                <connect gate="A" pin="1" pad="1" />
                <connect gate="A" pin="10" pad="10" />
                <connect gate="A" pin="2" pad="2" />
                <connect gate="A" pin="3" pad="3" />
                <connect gate="A" pin="4" pad="4" />
                <connect gate="A" pin="5" pad="5" />
                <connect gate="A" pin="6" pad="6" />
                <connect gate="A" pin="7" pad="7" />
                <connect gate="A" pin="8" pad="8" />
                <connect gate="A" pin="9" pad="9" />
              </connects>
              <technologies>
                <technology name="">
                  <attribute name="MPN" value="FTSH-105-01-L-DV-K" constant="no" />
                  <attribute name="OC_FARNELL" value="-" constant="no" />
                  <attribute name="OC_NEWARK" value="02M8557" constant="no" />
                  <attribute name="PACKAGE" value="HEADER, 1.27MM, 2X5WAY, SMT" constant="no" />
                  <attribute name="SUPPLIER" value="SAMTEC" constant="no" />
                </technology>
              </technologies>
            </device>
          </devices>
        </deviceset>
      </devicesets>
    </library>
  </drawing>
</eagle>