<eagle version="6.5.0" xmlns="eagle">
  <drawing>
    <library>
      <packages>
        <package name="PVG3A203C01R00" xmlns="eagle">
          <smd name="2" x="0" y="-1.65" dx="1.4" dy="0.9" layer="1" rot="R180" />
          <smd name="1" x="-1.15" y="1.65" dx="1.1" dy="0.9" layer="1" rot="R180" />
          <smd name="3" x="1.15" y="1.65" dx="1.1" dy="0.9" layer="1" rot="R180" />
          <wire x1="2.1" y1="-2.5" x2="2.1" y2="2.5" width="0.127" layer="21" />
          <wire x1="2.1" y1="2.5" x2="-2.1" y2="2.5" width="0.127" layer="21" />
          <wire x1="-2.1" y1="2.5" x2="-2.1" y2="-2.5" width="0.127" layer="21" />
          <wire x1="-2.1" y1="-2.5" x2="2.1" y2="-2.5" width="0.127" layer="21" />
          <text x="-2.3" y="2.7" size="1" layer="21" font="vector" ratio="12">&gt;NAME</text>
          <circle x="-2.8" y="2.1" radius="0.0635" width="0.16" layer="21" />
        </package>
      </packages>
      <symbols>
        <symbol name="PVG3A203C01R00">
          <wire x1="1.778" y1="2.54" x2="1.778" y2="-2.54" width="0.254" layer="94" />
          <wire x1="3.302" y1="-2.54" x2="3.302" y2="2.54" width="0.254" layer="94" />
          <wire x1="5.08" y1="0" x2="4.191" y2="0" width="0.1524" layer="94" />
          <wire x1="3.302" y1="2.54" x2="1.778" y2="2.54" width="0.254" layer="94" />
          <wire x1="1.778" y1="-2.54" x2="3.302" y2="-2.54" width="0.254" layer="94" />
          <wire x1="0" y1="-3.683" x2="0" y2="-1.143" width="0.1524" layer="94" />
          <wire x1="0" y1="-1.143" x2="-0.635" y2="-2.413" width="0.1524" layer="94" />
          <wire x1="-0.635" y1="-2.413" x2="0.635" y2="-2.413" width="0.1524" layer="94" />
          <wire x1="0.635" y1="-2.413" x2="0" y2="-1.143" width="0.1524" layer="94" />
          <wire x1="4.191" y1="0" x2="0.254" y2="2.54" width="0.1524" layer="94" />
          <wire x1="-0.127" y1="1.905" x2="0.254" y2="2.54" width="0.1524" layer="94" />
          <wire x1="0.254" y1="2.54" x2="0.635" y2="3.175" width="0.1524" layer="94" />
          <text x="-3.175" y="-3.81" size="1.524" layer="95" ratio="10" rot="R90">&gt;NAME</text>
          <text x="-1.27" y="-3.81" size="1.524" layer="96" ratio="10" rot="R90">&gt;VALUE</text>
          <text x="0.635" y="-4.953" size="1.27" layer="94" rot="R90">1</text>
          <text x="0.635" y="4.572" size="1.27" layer="94" rot="R90">3</text>
          <pin name="1" x="2.54" y="-5.08" visible="pad" length="short" direction="pas" rot="R90" />
          <pin name="3" x="2.54" y="5.08" visible="pad" length="short" direction="pas" rot="R270" />
          <pin name="2" x="7.62" y="0" visible="pad" length="short" direction="pas" rot="R180" />
          <text x="5.08" y="-2.54" size="1.778" layer="94">2</text>
        </symbol>
      </symbols>
      <devicesets>
        <deviceset name="PVG3A203C01R00" prefix="RV">
          <gates>
            <gate name="G$1" symbol="PVG3A203C01R00" x="0" y="0" />
          </gates>
          <devices>
            <device name="" package="PVG3A203C01R00" xmlns="eagle">
              <connects>
                <connect gate="G$1" pin="1" pad="1" />
                <connect gate="G$1" pin="2" pad="2" />
                <connect gate="G$1" pin="3" pad="3" />
              </connects>
              <technologies>
                <technology name="" />
              </technologies>
            </device>
          </devices>
        </deviceset>
      </devicesets>
    </library>
  </drawing>
</eagle>