<eagle version="6.5.0" xmlns="eagle">
  <drawing>
    <library>
      <packages>
        <package name="2_PIN_AB0" xmlns="eagle">
          <circle x="-1.1" y="0.01" radius="0.1542" width="0" layer="21" />
          <wire x1="-0.3" y1="0.15" x2="-0.3" y2="-0.15" width="0.05" layer="51" />
          <wire x1="-0.3" y1="-0.15" x2="0.3" y2="-0.15" width="0.05" layer="51" />
          <wire x1="0.3" y1="-0.15" x2="0.3" y2="0.15" width="0.05" layer="51" />
          <wire x1="0.3" y1="0.15" x2="-0.3" y2="0.15" width="0.05" layer="51" />
          <rectangle x1="-0.425" y1="-0.25" x2="-0.025" y2="0.25" layer="29" />
          <rectangle x1="0.02" y1="-0.25" x2="0.425" y2="0.25" layer="29" />
          <smd name="C1" x="-0.225" y="0" dx="0.3" dy="0.4" layer="1" rot="R180" stop="no" />
          <smd name="C2" x="0.225" y="0" dx="0.3" dy="0.4" layer="1" rot="R180" stop="no" />
          <text x="-2.03" y="0.665" size="1.016" layer="25" font="vector" ratio="15">&gt;NAME</text>
          <wire x1="-0.7" y1="-0.5" x2="0.7" y2="-0.5" width="0.127" layer="21" />
          <wire x1="0.7" y1="-0.5" x2="0.7" y2="0.5" width="0.127" layer="21" />
          <wire x1="0.7" y1="0.5" x2="-0.7" y2="0.5" width="0.127" layer="21" />
          <wire x1="-0.7" y1="0.5" x2="-0.7" y2="-0.5" width="0.127" layer="21" />
        </package>
      </packages>
      <symbols>
        <symbol name="BIDIRECTIONAL_DIODE">
          <wire x1="1.27" y1="2.54" x2="0" y2="2.54" width="0.254" layer="94" />
          <wire x1="0" y1="2.54" x2="-1.27" y2="2.54" width="0.254" layer="94" />
          <wire x1="-1.27" y1="2.54" x2="0" y2="5.08" width="0.254" layer="94" />
          <wire x1="0" y1="5.08" x2="1.27" y2="2.54" width="0.254" layer="94" />
          <wire x1="-1.27" y1="5.08" x2="1.27" y2="5.08" width="0.254" layer="94" />
          <wire x1="1.27" y1="5.08" x2="1.27" y2="4.318" width="0.254" layer="94" />
          <wire x1="0" y1="2.54" x2="0" y2="-2.54" width="0.254" layer="94" />
          <wire x1="0" y1="-2.54" x2="-1.27" y2="-2.54" width="0.254" layer="94" />
          <wire x1="-1.27" y1="-2.54" x2="0" y2="-5.08" width="0.254" layer="94" />
          <wire x1="0" y1="-5.08" x2="1.27" y2="-2.54" width="0.254" layer="94" />
          <wire x1="1.27" y1="-2.54" x2="0" y2="-2.54" width="0.254" layer="94" />
          <wire x1="1.524" y1="-5.08" x2="-1.524" y2="-5.08" width="0.254" layer="94" />
          <wire x1="-1.524" y1="-5.08" x2="-1.524" y2="-4.318" width="0.254" layer="94" />
          <pin name="C1" x="0" y="7.62" visible="off" length="short" direction="pas" rot="R270" />
          <pin name="C2" x="0" y="-7.62" visible="off" length="short" direction="pas" rot="R90" />
          <text x="-5.08" y="-5.08" size="1.778" layer="95" rot="R90">&gt;NAME</text>
          <text x="5.08" y="-5.08" size="1.778" layer="96" rot="R90">&gt;VALUE</text>
        </symbol>
      </symbols>
      <devicesets>
        <deviceset name="TVN0201" prefix="D">
          <gates>
            <gate name="G$1" symbol="BIDIRECTIONAL_DIODE" x="0" y="2.54" />
          </gates>
          <devices>
            <device name="" package="2_PIN_AB0" xmlns="eagle">
              <connects>
                <connect gate="G$1" pin="C1" pad="C1" />
                <connect gate="G$1" pin="C2" pad="C2" />
              </connects>
              <technologies>
                <technology name="" />
              </technologies>
            </device>
          </devices>
        </deviceset>
      </devicesets>
    </library>
  </drawing>
</eagle>