<eagle version="6.5.0" xmlns="eagle">
  <drawing>
    <library>
      <packages>
        <package name="TO252" xmlns="eagle">
          <description>&lt;b&gt;SMALL OUTLINE TRANSISTOR&lt;/b&gt;&lt;p&gt;
TS-003</description>
          <wire x1="3.2766" y1="3.8354" x2="3.277" y2="-2.159" width="0.2032" layer="21" />
          <wire x1="3.277" y1="-2.159" x2="-3.277" y2="-2.159" width="0.2032" layer="21" />
          <wire x1="-3.277" y1="-2.159" x2="-3.2766" y2="3.8354" width="0.2032" layer="21" />
          <wire x1="-3.277" y1="3.835" x2="3.2774" y2="3.8346" width="0.2032" layer="51" />
          <wire x1="-3.973" y1="5.983" x2="3.973" y2="5.983" width="0.0508" layer="39" />
          <wire x1="3.973" y1="-5.983" x2="-3.973" y2="-5.983" width="0.0508" layer="39" />
          <wire x1="-3.973" y1="-5.983" x2="-3.973" y2="5.983" width="0.0508" layer="39" />
          <wire x1="3.973" y1="5.983" x2="3.973" y2="-5.983" width="0.0508" layer="39" />
          <wire x1="-2.5654" y1="3.937" x2="-2.5654" y2="4.6482" width="0.2032" layer="51" />
          <wire x1="-2.5654" y1="4.6482" x2="-2.1082" y2="5.1054" width="0.2032" layer="51" />
          <wire x1="-2.1082" y1="5.1054" x2="2.1082" y2="5.1054" width="0.2032" layer="51" />
          <wire x1="2.1082" y1="5.1054" x2="2.5654" y2="4.6482" width="0.2032" layer="51" />
          <wire x1="2.5654" y1="4.6482" x2="2.5654" y2="3.937" width="0.2032" layer="51" />
          <wire x1="2.5654" y1="3.937" x2="-2.5654" y2="3.937" width="0.2032" layer="51" />
          <smd name="2" x="0" y="2.5" dx="5.3" dy="6.2" layer="1" />
          <smd name="1" x="-2.286" y="-4.826" dx="1.016" dy="1.651" layer="1" />
          <smd name="3" x="2.286" y="-4.826" dx="1.016" dy="1.651" layer="1" />
          <text x="-1.905" y="6.35" size="0.889" layer="25" ratio="11">&gt;NAME</text>
          <text x="-1.905" y="0" size="0.635" layer="27" ratio="10">&gt;VALUE</text>
          <rectangle x1="-2.7178" y1="-5.1562" x2="-1.8542" y2="-2.2606" layer="51" />
          <rectangle x1="1.8542" y1="-5.1562" x2="2.7178" y2="-2.2606" layer="51" />
          <rectangle x1="-0.4318" y1="-3.0226" x2="0.4318" y2="-2.2606" layer="21" />
          <polygon width="0.1998" layer="51">
            <vertex x="-2.5654" y="3.937" />
            <vertex x="-2.5654" y="4.6482" />
            <vertex x="-2.1082" y="5.1054" />
            <vertex x="2.1082" y="5.1054" />
            <vertex x="2.5654" y="4.6482" />
            <vertex x="2.5654" y="3.937" />
          </polygon>
        </package>
      </packages>
      <symbols>
        <symbol name="CJ78M05">
          <text x="-7.62" y="3.81" size="1.27" layer="95" ratio="10">&gt;NAME</text>
          <text x="-1.27" y="3.81" size="1.27" layer="96" ratio="10">&gt;VALUE</text>
          <pin name="GND" x="0" y="-8.89" length="short" rot="R90" />
          <pin name="OUT" x="11.43" y="0" length="short" rot="R180" />
          <pin name="IN" x="-11.43" y="0" length="short" />
          <wire x1="-7.62" y1="3.81" x2="7.62" y2="3.81" width="0.1524" layer="94" />
          <wire x1="7.62" y1="3.81" x2="7.62" y2="0" width="0.1524" layer="94" />
          <wire x1="7.62" y1="0" x2="7.62" y2="-5.08" width="0.1524" layer="94" />
          <wire x1="7.62" y1="-5.08" x2="0" y2="-5.08" width="0.1524" layer="94" />
          <wire x1="0" y1="-5.08" x2="-7.62" y2="-5.08" width="0.1524" layer="94" />
          <wire x1="-7.62" y1="-5.08" x2="-7.62" y2="0" width="0.1524" layer="94" />
          <wire x1="-7.62" y1="0" x2="-7.62" y2="3.81" width="0.1524" layer="94" />
          <wire x1="8.89" y1="0" x2="7.62" y2="0" width="0.1524" layer="94" />
          <wire x1="0" y1="-6.35" x2="0" y2="-5.08" width="0.1524" layer="94" />
          <wire x1="-7.62" y1="0" x2="-8.89" y2="0" width="0.1524" layer="94" />
        </symbol>
      </symbols>
      <devicesets>
        <deviceset name="CJ78M05" prefix="U">
          <gates>
            <gate name="U" symbol="CJ78M05" x="0" y="0" />
          </gates>
          <devices>
            <device name="-1300040P1" package="TO252" xmlns="eagle">
              <connects>
                <connect gate="U" pin="GND" pad="2" />
                <connect gate="U" pin="IN" pad="1" />
                <connect gate="U" pin="OUT" pad="3" />
              </connects>
              <technologies>
                <technology name="" />
              </technologies>
            </device>
          </devices>
        </deviceset>
      </devicesets>
    </library>
  </drawing>
</eagle>