<?xml version="1.0" encoding="utf-8"?>
<!DOCTYPE eagle SYSTEM "eagle.dtd">
<eagle version="6.6.0">
<drawing>
<settings>
<setting alwaysvectorfont="no"/>
<setting verticaltext="up"/>
</settings>
<grid distance="1.975" unitdist="mm" unit="mm" style="lines" multiple="1" display="yes" altdistance="0.05" altunitdist="mm" altunit="mm"/>
<layers>
<layer number="1" name="Top" color="4" fill="1" visible="yes" active="yes"/>
<layer number="16" name="Bottom" color="1" fill="1" visible="yes" active="yes"/>
<layer number="17" name="Pads" color="2" fill="1" visible="yes" active="yes"/>
<layer number="18" name="Vias" color="2" fill="1" visible="yes" active="yes"/>
<layer number="19" name="Unrouted" color="6" fill="1" visible="yes" active="yes"/>
<layer number="20" name="Dimension" color="15" fill="1" visible="yes" active="yes"/>
<layer number="21" name="tPlace" color="7" fill="1" visible="yes" active="yes"/>
<layer number="22" name="bPlace" color="7" fill="1" visible="yes" active="yes"/>
<layer number="23" name="tOrigins" color="15" fill="1" visible="yes" active="yes"/>
<layer number="24" name="bOrigins" color="15" fill="1" visible="yes" active="yes"/>
<layer number="25" name="tNames" color="7" fill="1" visible="yes" active="yes"/>
<layer number="26" name="bNames" color="7" fill="1" visible="yes" active="yes"/>
<layer number="27" name="tValues" color="7" fill="1" visible="yes" active="yes"/>
<layer number="28" name="bValues" color="7" fill="1" visible="yes" active="yes"/>
<layer number="29" name="tStop" color="7" fill="3" visible="yes" active="yes"/>
<layer number="30" name="bStop" color="7" fill="6" visible="yes" active="yes"/>
<layer number="31" name="tCream" color="7" fill="4" visible="yes" active="yes"/>
<layer number="32" name="bCream" color="7" fill="5" visible="yes" active="yes"/>
<layer number="33" name="tFinish" color="6" fill="3" visible="yes" active="yes"/>
<layer number="34" name="bFinish" color="6" fill="6" visible="yes" active="yes"/>
<layer number="35" name="tGlue" color="7" fill="4" visible="yes" active="yes"/>
<layer number="36" name="bGlue" color="7" fill="5" visible="yes" active="yes"/>
<layer number="37" name="tTest" color="7" fill="1" visible="yes" active="yes"/>
<layer number="38" name="bTest" color="7" fill="1" visible="yes" active="yes"/>
<layer number="39" name="tKeepout" color="4" fill="11" visible="yes" active="yes"/>
<layer number="40" name="bKeepout" color="1" fill="11" visible="yes" active="yes"/>
<layer number="41" name="tRestrict" color="4" fill="10" visible="yes" active="yes"/>
<layer number="42" name="bRestrict" color="1" fill="10" visible="yes" active="yes"/>
<layer number="43" name="vRestrict" color="2" fill="10" visible="yes" active="yes"/>
<layer number="44" name="Drills" color="7" fill="1" visible="yes" active="yes"/>
<layer number="45" name="Holes" color="7" fill="1" visible="yes" active="yes"/>
<layer number="46" name="Milling" color="3" fill="1" visible="yes" active="yes"/>
<layer number="47" name="Measures" color="7" fill="1" visible="yes" active="yes"/>
<layer number="48" name="Document" color="7" fill="1" visible="yes" active="yes"/>
<layer number="49" name="Reference" color="7" fill="1" visible="yes" active="yes"/>
<layer number="50" name="dxf" color="7" fill="1" visible="yes" active="yes"/>
<layer number="51" name="tDocu" color="7" fill="1" visible="yes" active="yes"/>
<layer number="52" name="bDocu" color="7" fill="1" visible="yes" active="yes"/>
<layer number="53" name="tGND_GNDA" color="7" fill="1" visible="yes" active="yes"/>
<layer number="54" name="bGND_GNDA" color="7" fill="1" visible="yes" active="yes"/>
<layer number="56" name="wert" color="7" fill="1" visible="yes" active="yes"/>
<layer number="57" name="tCAD" color="7" fill="1" visible="yes" active="yes"/>
<layer number="91" name="Nets" color="2" fill="1" visible="yes" active="yes"/>
<layer number="92" name="Busses" color="1" fill="1" visible="yes" active="yes"/>
<layer number="93" name="Pins" color="2" fill="1" visible="yes" active="yes"/>
<layer number="94" name="Symbols" color="4" fill="1" visible="yes" active="yes"/>
<layer number="95" name="Names" color="7" fill="1" visible="yes" active="yes"/>
<layer number="96" name="Values" color="7" fill="1" visible="yes" active="yes"/>
<layer number="97" name="Info" color="7" fill="1" visible="yes" active="yes"/>
<layer number="98" name="Guide" color="6" fill="1" visible="yes" active="yes"/>
<layer number="99" name="SpiceOrder" color="7" fill="1" visible="yes" active="yes"/>
</layers>
<library>
<packages>
<package name="USB-B-MICRO-SMD_V03">
<text x="-4.47" y="3.769" size="1.016" layer="25" font="vector" ratio="15">&gt;NAME</text>
<smd name="3" x="0" y="2.35" dx="0.4" dy="1.35" layer="1" rot="R180"/>
<smd name="4" x="-0.65" y="2.35" dx="0.4" dy="1.35" layer="1" rot="R180"/>
<smd name="5" x="-1.3" y="2.35" dx="0.4" dy="1.35" layer="1" rot="R180"/>
<smd name="2" x="0.65" y="2.35" dx="0.4" dy="1.35" layer="1" rot="R180"/>
<smd name="1" x="1.3" y="2.35" dx="0.4" dy="1.35" layer="1" rot="R180"/>
<smd name="SHIELD1" x="-3.1" y="2.025" dx="2.1" dy="2" layer="1"/>
<smd name="SHIELD2" x="3.1" y="2.025" dx="2.1" dy="2" layer="1"/>
<smd name="SHIELD3" x="-4.1" y="-0.325" dx="1.6" dy="1.9" layer="1"/>
<smd name="SHIELD6" x="4.1" y="-0.325" dx="1.6" dy="1.9" layer="1"/>
<smd name="SHIELD4" x="-0.85" y="-0.325" dx="1.2" dy="1.9" layer="1"/>
<smd name="SHIELD5" x="0.85" y="-0.325" dx="1.2" dy="1.9" layer="1"/>
<wire x1="-3.9" y1="-1.7" x2="-3.9" y2="-1.975" width="0.1524" layer="21"/>
<wire x1="-3.9" y1="-1.975" x2="3.9" y2="-1.975" width="0.1524" layer="21"/>
<wire x1="3.9" y1="-1.975" x2="3.9" y2="-1.7" width="0.1524" layer="21"/>
<circle x="1.6" y="3.4" radius="0.1524" width="0" layer="21"/>
<rectangle x1="-1.95" y1="0.7" x2="1.95" y2="1.625" layer="41"/>
<rectangle x1="-3.75" y1="0.7" x2="-1.95" y2="0.95" layer="41"/>
<rectangle x1="1.95" y1="0.7" x2="3.75" y2="0.95" layer="41"/>
<rectangle x1="-3.2" y1="-1.8" x2="-2.8" y2="0.7" layer="41"/>
<rectangle x1="-3.75" y1="-1.8" x2="-3.2" y2="-1.35" layer="41"/>
<rectangle x1="-2.8" y1="0.2" x2="-1.5" y2="0.7" layer="41"/>
<rectangle x1="-2" y1="-1.8" x2="-1.5" y2="0.2" layer="41"/>
<rectangle x1="-0.2" y1="-1.8" x2="0.2" y2="0.7" layer="41"/>
<rectangle x1="-1.5" y1="-1.8" x2="-0.2" y2="-1.35" layer="41"/>
<rectangle x1="1.5" y1="0.2" x2="2.8" y2="0.7" layer="41"/>
<rectangle x1="2.8" y1="-1.8" x2="3.2" y2="0.7" layer="41"/>
<rectangle x1="1.5" y1="-1.8" x2="2" y2="0.2" layer="41"/>
<rectangle x1="0.2" y1="-1.8" x2="1.5" y2="-1.35" layer="41"/>
<rectangle x1="3.2" y1="-1.8" x2="3.75" y2="-1.35" layer="41"/>
</package>
</packages>
<symbols>
<symbol name="MICROB-PLUG">
<wire x1="-5.08" y1="7.62" x2="-5.08" y2="-7.62" width="0.508" layer="94"/>
<wire x1="-5.08" y1="-7.62" x2="5.08" y2="-7.62" width="0.508" layer="94"/>
<wire x1="5.08" y1="-7.62" x2="5.08" y2="7.62" width="0.508" layer="94"/>
<wire x1="5.08" y1="7.62" x2="-5.08" y2="7.62" width="0.508" layer="94"/>
<text x="-4.826" y="8.128" size="1.778" layer="95">&gt;NAME</text>
<text x="-5.08" y="-9.906" size="1.778" layer="96">&gt;VALUE</text>
<pin name="VCC" x="-7.62" y="5.08" length="short" direction="pas"/>
<pin name="D-" x="-7.62" y="2.54" length="short" direction="pas"/>
<pin name="D+" x="-7.62" y="0" length="short" direction="pas"/>
<pin name="ID" x="-7.62" y="-2.54" length="short" direction="pas"/>
<pin name="GND" x="-7.62" y="-5.08" length="short" direction="pas"/>
<pin name="SHIELD" x="7.62" y="0" visible="off" length="short" direction="pas" rot="R180"/>
<text x="4.064" y="0" size="1.778" layer="95" rot="R90" align="bottom-center">SHIELD</text>
</symbol>
</symbols>
<devicesets>
<deviceset name="HRS_ZX62R-B-5P" prefix="JP" uservalue="yes">
<gates>
<gate name="G$1" symbol="MICROB-PLUG" x="0" y="0"/>
</gates>
<devices>
<device name="CONN-11752" package="USB-B-MICRO-SMD_V03">
<connects>
<connect gate="G$1" pin="D+" pad="3"/>
<connect gate="G$1" pin="D-" pad="2"/>
<connect gate="G$1" pin="GND" pad="5"/>
<connect gate="G$1" pin="ID" pad="4"/>
<connect gate="G$1" pin="SHIELD" pad="SHIELD1 SHIELD2 SHIELD3 SHIELD4 SHIELD5 SHIELD6" route="any"/>
<connect gate="G$1" pin="VCC" pad="1"/>
</connects>
<technologies>
<technology name="">
<attribute name="PROD_ID" value="CONN-11752" constant="no"/>
</technology>
</technologies>
</device>
</devices>
</deviceset>
</devicesets>
</library>
</drawing>
</eagle>
