<eagle xmlns="eagle" version="6.5.0">
  <drawing>
    <library>
      <packages>
        <package xmlns="eagle" name="SOIC-8">
          <smd name="P$1" x="-2.7" y="1.905" dx="0.6" dy="1.55" layer="1" rot="R270"/>
          <smd name="P$2" x="-2.7" y="0.635" dx="0.6" dy="1.55" layer="1" rot="R270"/>
          <smd name="P$3" x="-2.7" y="-0.635" dx="0.6" dy="1.55" layer="1" rot="R270"/>
          <smd name="P$4" x="-2.7" y="-1.905" dx="0.6" dy="1.55" layer="1" rot="R270"/>
          <smd name="P$5" x="2.7" y="-1.905" dx="0.6" dy="1.55" layer="1" rot="R270"/>
          <smd name="P$6" x="2.7" y="-0.635" dx="0.6" dy="1.55" layer="1" rot="R270"/>
          <smd name="P$7" x="2.7" y="0.635" dx="0.6" dy="1.55" layer="1" rot="R270"/>
          <smd name="P$8" x="2.7" y="1.905" dx="0.6" dy="1.55" layer="1" rot="R270"/>
          <wire x1="1.8" y1="-2.4" x2="-1.8" y2="-2.4" width="0.127" layer="21"/>
          <wire x1="1.8" y1="2.4" x2="-1.8" y2="2.4" width="0.127" layer="21"/>
          <circle x="-3.4" y="2.6" radius="0.152" width="0" layer="21"/>
          <text x="-4.4" y="3" size="1.27" layer="25">&gt;NAME</text>
        </package>
      </packages>
      <symbols>
        <symbol name="24LC32A-I/MS">
          <pin name="A0" x="-12.7" y="7.62" length="middle"/>
          <pin name="A1" x="-12.7" y="2.54" length="middle"/>
          <pin name="A2" x="-12.7" y="-2.54" length="middle"/>
          <pin name="VSS" x="-12.7" y="-7.62" length="middle"/>
          <pin name="SDA" x="12.7" y="-7.62" length="middle" rot="R180"/>
          <pin name="SCL" x="12.7" y="-2.54" length="middle" rot="R180"/>
          <pin name="WP" x="12.7" y="2.54" length="middle" rot="R180"/>
          <pin name="VCC" x="12.7" y="7.62" length="middle" rot="R180"/>
          <wire x1="-7.62" y1="10.16" x2="-7.62" y2="-10.16" width="0.254" layer="94"/>
          <wire x1="-7.62" y1="-10.16" x2="7.62" y2="-10.16" width="0.254" layer="94"/>
          <wire x1="7.62" y1="-10.16" x2="7.62" y2="10.16" width="0.254" layer="94"/>
          <wire x1="7.62" y1="10.16" x2="-7.62" y2="10.16" width="0.254" layer="94"/>
          <text x="-10.16" y="12.7" size="1.778" layer="95">&gt;NAME</text>
          <text x="-10.16" y="15.24" size="1.778" layer="96">&gt;VALUE</text>
        </symbol>
      </symbols>
      <devicesets>
        <deviceset name="24LC32A-I/SN">
          <gates>
            <gate name="G$1" symbol="24LC32A-I/MS" x="0" y="0"/>
          </gates>
          <devices>
            <device xmlns="eagle" name="" package="SOIC-8">
              <connects>
                <connect gate="G$1" pin="A0" pad="P$1"/>
                <connect gate="G$1" pin="A1" pad="P$2"/>
                <connect gate="G$1" pin="A2" pad="P$3"/>
                <connect gate="G$1" pin="SCL" pad="P$6"/>
                <connect gate="G$1" pin="SDA" pad="P$5"/>
                <connect gate="G$1" pin="VCC" pad="P$8"/>
                <connect gate="G$1" pin="VSS" pad="P$4"/>
                <connect gate="G$1" pin="WP" pad="P$7"/>
              </connects>
              <technologies>
                <technology name=""/>
              </technologies>
            </device>
          </devices>
        </deviceset>
      </devicesets>
    </library>
  </drawing>
</eagle>