<eagle version="6.5.0" xmlns="eagle">
  <drawing>
    <library>
      <packages>
        <package name="R_1210" xmlns="eagle">
          <description>&lt;B&gt;
1210
&lt;/B&gt; SMT inch-code chip resistor package&lt;P&gt;
Derived from dimensions and tolerances
in the &lt;B&gt; &lt;A HREF="http://www.samsungsem.com/global/support/library/product-catalog/__icsFiles/afieldfile/2015/01/12/CHIP_RESISTOR_150112_1.pdf"&gt;Samsung Thick Film Chip Resistor Catalog&lt;/A&gt;&lt;/B&gt;
dated December 2014,
for 
general-purpose chip resistor
reflow soldering.</description>
          <wire x1="-0.6" y1="1.2" x2="0.6" y2="1.2" width="0.1524" layer="21" />
          <wire x1="-0.6" y1="-1.2" x2="0.6" y2="-1.2" width="0.1524" layer="21" />
          <smd name="P$1" x="-1.55" y="0" dx="1.3" dy="2.4" layer="1" />
          <smd name="P$2" x="1.55" y="0" dx="1.3" dy="2.4" layer="1" />
          <text x="-2.2" y="1.5" size="1.016" layer="25" font="vector" ratio="15">&gt;NAME</text>
          <wire x1="-1.6" y1="1.275" x2="1.6" y2="1.275" width="0.0762" layer="51" />
          <wire x1="1.6" y1="1.275" x2="1.6" y2="-1.275" width="0.0762" layer="51" />
          <wire x1="1.6" y1="-1.275" x2="-1.6" y2="-1.275" width="0.0762" layer="51" />
          <wire x1="-1.6" y1="-1.275" x2="-1.6" y2="1.275" width="0.0762" layer="51" />
        </package>
      </packages>
      <symbols>
        <symbol name="R">
          <description>&lt;B&gt;Resistor&lt;/B&gt;</description>
          <wire x1="-2.54" y1="0" x2="-2.159" y2="1.016" width="0.2032" layer="94" />
          <wire x1="-2.159" y1="1.016" x2="-1.524" y2="-1.016" width="0.2032" layer="94" />
          <wire x1="-1.524" y1="-1.016" x2="-0.889" y2="1.016" width="0.2032" layer="94" />
          <wire x1="-0.889" y1="1.016" x2="-0.254" y2="-1.016" width="0.2032" layer="94" />
          <wire x1="-0.254" y1="-1.016" x2="0.381" y2="1.016" width="0.2032" layer="94" />
          <wire x1="0.381" y1="1.016" x2="1.016" y2="-1.016" width="0.2032" layer="94" />
          <wire x1="1.016" y1="-1.016" x2="1.651" y2="1.016" width="0.2032" layer="94" />
          <wire x1="1.651" y1="1.016" x2="2.286" y2="-1.016" width="0.2032" layer="94" />
          <wire x1="2.286" y1="-1.016" x2="2.54" y2="0" width="0.2032" layer="94" />
          <pin name="1" x="-5.08" y="0" visible="off" length="short" direction="pas" swaplevel="1" />
          <pin name="2" x="5.08" y="0" visible="off" length="short" direction="pas" swaplevel="1" rot="R180" />
          <text x="-3.81" y="1.4986" size="1.778" layer="95">&gt;NAME</text>
          <text x="-3.81" y="-3.302" size="1.778" layer="96">&gt;VALUE</text>
        </symbol>
      </symbols>
      <devicesets>
        <deviceset name="RESISTOR_1210" prefix="R">
          <gates>
            <gate name="G$1" symbol="R" x="0" y="0" />
          </gates>
          <devices>
            <device name="" package="R_1210" xmlns="eagle">
              <connects>
                <connect gate="G$1" pin="1" pad="P$1" />
                <connect gate="G$1" pin="2" pad="P$2" />
              </connects>
              <technologies>
                <technology name="" />
              </technologies>
            </device>
          </devices>
        </deviceset>
      </devicesets>
    </library>
  </drawing>
</eagle>