<?xml version="1.0" encoding="utf-8"?>
<!DOCTYPE eagle SYSTEM "eagle.dtd">
<eagle version="6.5.0">
<drawing>
<settings>
<setting alwaysvectorfont="no"/>
<setting verticaltext="up"/>
</settings>
<grid distance="0.1" unitdist="inch" unit="inch" style="lines" multiple="1" display="no" altdistance="0.01" altunitdist="inch" altunit="inch"/>
<layers>
</layers>
<library>
<packages>
<package name="0603-LED-KINGBRIGHT">
<smd name="1" x="-0.825" y="0" dx="0.8" dy="0.8" layer="1"/>
<smd name="2" x="0.825" y="0" dx="0.8" dy="0.8" layer="1"/>
<wire x1="-1.7" y1="-0.85" x2="-1.7" y2="0.85" width="0.1542" layer="21"/>
<wire x1="-1.7" y1="0.85" x2="1.7" y2="0.85" width="0.1542" layer="21"/>
<wire x1="1.7" y1="0.85" x2="1.7" y2="-0.85" width="0.1542" layer="21"/>
<wire x1="1.7" y1="-0.85" x2="-1.7" y2="-0.85" width="0.1542" layer="21"/>
<polygon width="0.127" layer="21">
<vertex x="-1.7" y="-0.425"/>
<vertex x="-1.275" y="-0.85"/>
<vertex x="-1.7" y="-0.85"/>
</polygon>
<circle x="-1.275" y="-1.275" radius="0.1542" width="0" layer="21"/>
<text x="-2.55" y="1.275" size="1.016" layer="25" font="vector" ratio="15">&gt;NAME</text>
</package>
</packages>
<symbols>
<symbol name="LED_WITH_PIN1_CATHODE">
<description>&lt;B&gt;LED with pin 1 cathode&lt;/B&gt;&lt;P&gt;
Designed for the Osram LB Q39G-L2N2-35-1
blue led, in an 0603 package.&lt;P&gt;
Digikey 475-2816-1-ND</description>
<wire x1="-1.27" y1="2.54" x2="1.27" y2="2.54" width="0.254" layer="94"/>
<wire x1="1.778" y1="5.08" x2="2.54" y2="5.842" width="0.254" layer="94"/>
<wire x1="2.54" y1="5.842" x2="2.54" y2="5.334" width="0.254" layer="94"/>
<wire x1="2.54" y1="5.334" x2="3.048" y2="5.842" width="0.254" layer="94"/>
<wire x1="1.524" y1="3.81" x2="2.286" y2="4.572" width="0.254" layer="94"/>
<wire x1="2.286" y1="4.572" x2="2.286" y2="4.064" width="0.254" layer="94"/>
<wire x1="2.286" y1="4.064" x2="2.794" y2="4.572" width="0.254" layer="94"/>
<pin name="C" x="0" y="0" visible="off" length="short" direction="pas" rot="R90"/>
<pin name="A" x="0" y="7.62" visible="off" length="short" direction="pas" rot="R270"/>
<text x="-5.08" y="0" size="1.778" layer="95" rot="R90">&gt;NAME</text>
<text x="-2.54" y="0" size="1.778" layer="95" rot="R90">&gt;VALUE</text>
<polygon width="0.254" layer="94">
<vertex x="0" y="2.54"/>
<vertex x="-1.27" y="5.08"/>
<vertex x="1.27" y="5.08"/>
</polygon>
<polygon width="0.254" layer="94">
<vertex x="3.556" y="6.35"/>
<vertex x="3.048" y="6.096"/>
<vertex x="3.302" y="5.842"/>
</polygon>
<polygon width="0.254" layer="94">
<vertex x="3.302" y="5.08"/>
<vertex x="2.794" y="4.826"/>
<vertex x="3.048" y="4.572"/>
</polygon>
</symbol>
</symbols>
<devicesets>
<deviceset name="LED-0603-KINGBRIGHT">
<gates>
<gate name="G$1" symbol="LED_WITH_PIN1_CATHODE" x="0" y="0"/>
</gates>
<devices>
<device name="" package="0603-LED-KINGBRIGHT">
<connects>
<connect gate="G$1" pin="A" pad="2"/>
<connect gate="G$1" pin="C" pad="1"/>
</connects>
<technologies>
<technology name=""/>
</technologies>
</device>
</devices>
</deviceset>
</devicesets>
</library>
</drawing>
</eagle>
