<!DOCTYPE eagle SYSTEM "eagle.dtd">
<eagle version="6.6.0">
<drawing>
<settings>
<setting alwaysvectorfont="no"/>
<setting verticaltext="up"/>
</settings>
<grid distance="0.05" unitdist="inch" unit="inch" style="lines" multiple="1" display="yes" altdistance="0.025" altunitdist="inch" altunit="inch"/>
<layers>
<layer number="1" name="Top" color="4" fill="1" visible="yes" active="yes"/>
<layer number="16" name="Bottom" color="1" fill="1" visible="yes" active="yes"/>
<layer number="17" name="Pads" color="2" fill="1" visible="yes" active="yes"/>
<layer number="18" name="Vias" color="2" fill="1" visible="yes" active="yes"/>
<layer number="19" name="Unrouted" color="6" fill="1" visible="yes" active="yes"/>
<layer number="20" name="Dimension" color="15" fill="1" visible="yes" active="yes"/>
<layer number="21" name="tPlace" color="7" fill="1" visible="yes" active="yes"/>
<layer number="22" name="bPlace" color="7" fill="1" visible="yes" active="yes"/>
<layer number="23" name="tOrigins" color="15" fill="1" visible="yes" active="yes"/>
<layer number="24" name="bOrigins" color="15" fill="1" visible="yes" active="yes"/>
<layer number="25" name="tNames" color="7" fill="1" visible="yes" active="yes"/>
<layer number="26" name="bNames" color="7" fill="1" visible="yes" active="yes"/>
<layer number="27" name="tValues" color="7" fill="1" visible="yes" active="yes"/>
<layer number="28" name="bValues" color="7" fill="1" visible="yes" active="yes"/>
<layer number="29" name="tStop" color="7" fill="3" visible="yes" active="yes"/>
<layer number="30" name="bStop" color="7" fill="6" visible="yes" active="yes"/>
<layer number="31" name="tCream" color="7" fill="4" visible="yes" active="yes"/>
<layer number="32" name="bCream" color="7" fill="5" visible="yes" active="yes"/>
<layer number="33" name="tFinish" color="6" fill="3" visible="yes" active="yes"/>
<layer number="34" name="bFinish" color="6" fill="6" visible="yes" active="yes"/>
<layer number="35" name="tGlue" color="7" fill="4" visible="yes" active="yes"/>
<layer number="36" name="bGlue" color="7" fill="5" visible="yes" active="yes"/>
<layer number="37" name="tTest" color="7" fill="1" visible="yes" active="yes"/>
<layer number="38" name="bTest" color="7" fill="1" visible="yes" active="yes"/>
<layer number="39" name="tKeepout" color="4" fill="11" visible="yes" active="yes"/>
<layer number="40" name="bKeepout" color="1" fill="11" visible="yes" active="yes"/>
<layer number="41" name="tRestrict" color="4" fill="10" visible="yes" active="yes"/>
<layer number="42" name="bRestrict" color="1" fill="10" visible="yes" active="yes"/>
<layer number="43" name="vRestrict" color="2" fill="10" visible="yes" active="yes"/>
<layer number="44" name="Drills" color="7" fill="1" visible="yes" active="yes"/>
<layer number="45" name="Holes" color="7" fill="1" visible="yes" active="yes"/>
<layer number="46" name="Milling" color="3" fill="1" visible="yes" active="yes"/>
<layer number="47" name="Measures" color="7" fill="1" visible="yes" active="yes"/>
<layer number="48" name="Document" color="7" fill="1" visible="yes" active="yes"/>
<layer number="49" name="Reference" color="7" fill="1" visible="yes" active="yes"/>
<layer number="50" name="dxf" color="7" fill="1" visible="yes" active="yes"/>
<layer number="51" name="tDocu" color="7" fill="1" visible="yes" active="yes"/>
<layer number="52" name="bDocu" color="7" fill="1" visible="yes" active="yes"/>
<layer number="53" name="tGND_GNDA" color="7" fill="1" visible="yes" active="yes"/>
<layer number="54" name="bGND_GNDA" color="7" fill="1" visible="yes" active="yes"/>
<layer number="56" name="wert" color="7" fill="1" visible="yes" active="yes"/>
<layer number="57" name="tCAD" color="7" fill="1" visible="yes" active="yes"/>
<layer number="91" name="Nets" color="2" fill="1" visible="yes" active="yes"/>
<layer number="92" name="Busses" color="1" fill="1" visible="yes" active="yes"/>
<layer number="93" name="Pins" color="2" fill="1" visible="yes" active="yes"/>
<layer number="94" name="Symbols" color="4" fill="1" visible="yes" active="yes"/>
<layer number="95" name="Names" color="7" fill="1" visible="yes" active="yes"/>
<layer number="96" name="Values" color="7" fill="1" visible="yes" active="yes"/>
<layer number="97" name="Info" color="7" fill="1" visible="yes" active="yes"/>
<layer number="98" name="Guide" color="6" fill="1" visible="yes" active="yes"/>
<layer number="99" name="SpiceOrder" color="7" fill="1" visible="yes" active="yes"/>
</layers>
<library>
<packages>
<package name="TQFP64">
<description>64-Lead TQFP Plastic Thin Quad Flatpack - 10x10x1mm Body, 2mmFP</description>
<wire x1="4.2" y1="5.15" x2="5.15" y2="5.15" width="0.1524" layer="21"/>
<wire x1="5.15" y1="5.15" x2="5.15" y2="4.2" width="0.1524" layer="21"/>
<wire x1="5.15" y1="-4.2" x2="5.15" y2="-5.15" width="0.1524" layer="21"/>
<wire x1="5.15" y1="-5.15" x2="4.2" y2="-5.15" width="0.1524" layer="21"/>
<wire x1="-5.15" y1="-4.2" x2="-5.15" y2="-5.15" width="0.1524" layer="21"/>
<wire x1="-5.15" y1="-5.15" x2="-4.2" y2="-5.15" width="0.1524" layer="21"/>
<smd name="8" x="-5.75" y="0.25" dx="0.3" dy="1.2" layer="1" rot="R270" stop="no"/>
<smd name="9" x="-5.75" y="-0.25" dx="0.3" dy="1.2" layer="1" rot="R270" stop="no"/>
<smd name="6" x="-5.75" y="1.25" dx="0.3" dy="1.2" layer="1" rot="R270" stop="no"/>
<smd name="4" x="-5.75" y="2.25" dx="0.3" dy="1.2" layer="1" rot="R270" stop="no"/>
<smd name="2" x="-5.75" y="3.25" dx="0.3" dy="1.2" layer="1" rot="R270" stop="no"/>
<smd name="7" x="-5.75" y="0.75" dx="0.3" dy="1.2" layer="1" rot="R270" stop="no"/>
<smd name="5" x="-5.75" y="1.75" dx="0.3" dy="1.2" layer="1" rot="R270" stop="no"/>
<smd name="3" x="-5.75" y="2.75" dx="0.3" dy="1.2" layer="1" rot="R270" stop="no"/>
<smd name="1" x="-5.75" y="3.75" dx="0.3" dy="1.2" layer="1" rot="R270" stop="no"/>
<smd name="11" x="-5.75" y="-1.25" dx="0.3" dy="1.2" layer="1" rot="R270" stop="no"/>
<smd name="13" x="-5.75" y="-2.25" dx="0.3" dy="1.2" layer="1" rot="R270" stop="no"/>
<smd name="15" x="-5.75" y="-3.25" dx="0.3" dy="1.2" layer="1" rot="R270" stop="no"/>
<smd name="16" x="-5.75" y="-3.75" dx="0.3" dy="1.2" layer="1" rot="R270" stop="no"/>
<smd name="14" x="-5.75" y="-2.75" dx="0.3" dy="1.2" layer="1" rot="R270" stop="no"/>
<smd name="12" x="-5.75" y="-1.75" dx="0.3" dy="1.2" layer="1" rot="R270" stop="no"/>
<smd name="10" x="-5.75" y="-0.75" dx="0.3" dy="1.2" layer="1" rot="R270" stop="no"/>
<smd name="24" x="-0.25" y="-5.75" dx="0.3" dy="1.2" layer="1" stop="no"/>
<smd name="25" x="0.25" y="-5.75" dx="0.3" dy="1.2" layer="1" stop="no"/>
<smd name="22" x="-1.25" y="-5.75" dx="0.3" dy="1.2" layer="1" stop="no"/>
<smd name="20" x="-2.25" y="-5.75" dx="0.3" dy="1.2" layer="1" stop="no"/>
<smd name="18" x="-3.25" y="-5.75" dx="0.3" dy="1.2" layer="1" stop="no"/>
<smd name="23" x="-0.75" y="-5.75" dx="0.3" dy="1.2" layer="1" stop="no"/>
<smd name="21" x="-1.75" y="-5.75" dx="0.3" dy="1.2" layer="1" stop="no"/>
<smd name="19" x="-2.75" y="-5.75" dx="0.3" dy="1.2" layer="1" stop="no"/>
<smd name="17" x="-3.75" y="-5.75" dx="0.3" dy="1.2" layer="1" stop="no"/>
<smd name="27" x="1.25" y="-5.75" dx="0.3" dy="1.2" layer="1" stop="no"/>
<smd name="29" x="2.25" y="-5.75" dx="0.3" dy="1.2" layer="1" stop="no"/>
<smd name="31" x="3.25" y="-5.75" dx="0.3" dy="1.2" layer="1" stop="no"/>
<smd name="32" x="3.75" y="-5.75" dx="0.3" dy="1.2" layer="1" stop="no"/>
<smd name="30" x="2.75" y="-5.75" dx="0.3" dy="1.2" layer="1" stop="no"/>
<smd name="28" x="1.75" y="-5.75" dx="0.3" dy="1.2" layer="1" stop="no"/>
<smd name="26" x="0.75" y="-5.75" dx="0.3" dy="1.2" layer="1" stop="no"/>
<smd name="40" x="5.75" y="-0.25" dx="0.3" dy="1.2" layer="1" rot="R90" stop="no"/>
<smd name="41" x="5.75" y="0.25" dx="0.3" dy="1.2" layer="1" rot="R90" stop="no"/>
<smd name="38" x="5.75" y="-1.25" dx="0.3" dy="1.2" layer="1" rot="R90" stop="no"/>
<smd name="36" x="5.75" y="-2.25" dx="0.3" dy="1.2" layer="1" rot="R90" stop="no"/>
<smd name="34" x="5.75" y="-3.25" dx="0.3" dy="1.2" layer="1" rot="R90" stop="no"/>
<smd name="39" x="5.75" y="-0.75" dx="0.3" dy="1.2" layer="1" rot="R90" stop="no"/>
<smd name="37" x="5.75" y="-1.75" dx="0.3" dy="1.2" layer="1" rot="R90" stop="no"/>
<smd name="35" x="5.75" y="-2.75" dx="0.3" dy="1.2" layer="1" rot="R90" stop="no"/>
<smd name="33" x="5.75" y="-3.75" dx="0.3" dy="1.2" layer="1" rot="R90" stop="no"/>
<smd name="43" x="5.75" y="1.25" dx="0.3" dy="1.2" layer="1" rot="R90" stop="no"/>
<smd name="45" x="5.75" y="2.25" dx="0.3" dy="1.2" layer="1" rot="R90" stop="no"/>
<smd name="47" x="5.75" y="3.25" dx="0.3" dy="1.2" layer="1" rot="R90" stop="no"/>
<smd name="48" x="5.75" y="3.75" dx="0.3" dy="1.2" layer="1" rot="R90" stop="no"/>
<smd name="46" x="5.75" y="2.75" dx="0.3" dy="1.2" layer="1" rot="R90" stop="no"/>
<smd name="44" x="5.75" y="1.75" dx="0.3" dy="1.2" layer="1" rot="R90" stop="no"/>
<smd name="42" x="5.75" y="0.75" dx="0.3" dy="1.2" layer="1" rot="R90" stop="no"/>
<smd name="56" x="0.25" y="5.75" dx="0.3" dy="1.2" layer="1" rot="R180" stop="no"/>
<smd name="57" x="-0.25" y="5.75" dx="0.3" dy="1.2" layer="1" rot="R180" stop="no"/>
<smd name="54" x="1.25" y="5.75" dx="0.3" dy="1.2" layer="1" rot="R180" stop="no"/>
<smd name="52" x="2.25" y="5.75" dx="0.3" dy="1.2" layer="1" rot="R180" stop="no"/>
<smd name="50" x="3.25" y="5.75" dx="0.3" dy="1.2" layer="1" rot="R180" stop="no"/>
<smd name="55" x="0.75" y="5.75" dx="0.3" dy="1.2" layer="1" rot="R180" stop="no"/>
<smd name="53" x="1.75" y="5.75" dx="0.3" dy="1.2" layer="1" rot="R180" stop="no"/>
<smd name="51" x="2.75" y="5.75" dx="0.3" dy="1.2" layer="1" rot="R180" stop="no"/>
<smd name="49" x="3.75" y="5.75" dx="0.3" dy="1.2" layer="1" rot="R180" stop="no"/>
<smd name="59" x="-1.25" y="5.75" dx="0.3" dy="1.2" layer="1" rot="R180" stop="no"/>
<smd name="61" x="-2.25" y="5.75" dx="0.3" dy="1.2" layer="1" rot="R180" stop="no"/>
<smd name="63" x="-3.25" y="5.75" dx="0.3" dy="1.2" layer="1" rot="R180" stop="no"/>
<smd name="64" x="-3.75" y="5.75" dx="0.3" dy="1.2" layer="1" rot="R180" stop="no"/>
<smd name="62" x="-2.75" y="5.75" dx="0.3" dy="1.2" layer="1" rot="R180" stop="no"/>
<smd name="60" x="-1.75" y="5.75" dx="0.3" dy="1.2" layer="1" rot="R180" stop="no"/>
<smd name="58" x="-0.75" y="5.75" dx="0.3" dy="1.2" layer="1" rot="R180" stop="no"/>
<text x="-4.905" y="7.445" size="1.016" layer="25" font="vector" ratio="15">&gt;NAME</text>
<circle x="-6.5" y="4.5" radius="0.15" width="0.35" layer="21"/>
<wire x1="-5.15" y1="4.2" x2="-5.15" y2="5.15" width="0.127" layer="21"/>
<wire x1="-5.15" y1="5.15" x2="-4.2" y2="5.15" width="0.127" layer="21"/>
<rectangle x1="-3.95" y1="-6.4" x2="-3.55" y2="-5.1" layer="29"/>
<rectangle x1="-3.45" y1="-6.4" x2="-3.05" y2="-5.1" layer="29"/>
<rectangle x1="-2.95" y1="-6.4" x2="-2.55" y2="-5.1" layer="29"/>
<rectangle x1="-2.45" y1="-6.4" x2="-2.05" y2="-5.1" layer="29"/>
<rectangle x1="-1.95" y1="-6.4" x2="-1.55" y2="-5.1" layer="29"/>
<rectangle x1="-1.45" y1="-6.4" x2="-1.05" y2="-5.1" layer="29"/>
<rectangle x1="-0.95" y1="-6.4" x2="-0.55" y2="-5.1" layer="29"/>
<rectangle x1="-0.45" y1="-6.4" x2="-0.05" y2="-5.1" layer="29"/>
<rectangle x1="0.05" y1="-6.4" x2="0.45" y2="-5.1" layer="29"/>
<rectangle x1="0.55" y1="-6.4" x2="0.95" y2="-5.1" layer="29"/>
<rectangle x1="1.05" y1="-6.4" x2="1.45" y2="-5.1" layer="29"/>
<rectangle x1="1.55" y1="-6.4" x2="1.95" y2="-5.1" layer="29"/>
<rectangle x1="2.05" y1="-6.4" x2="2.45" y2="-5.1" layer="29"/>
<rectangle x1="2.55" y1="-6.4" x2="2.95" y2="-5.1" layer="29"/>
<rectangle x1="3.05" y1="-6.4" x2="3.45" y2="-5.1" layer="29"/>
<rectangle x1="3.55" y1="-6.4" x2="3.95" y2="-5.1" layer="29"/>
<rectangle x1="-5.95" y1="-4.4" x2="-5.55" y2="-3.1" layer="29" rot="R90"/>
<rectangle x1="-5.95" y1="-3.9" x2="-5.55" y2="-2.6" layer="29" rot="R90"/>
<rectangle x1="-5.95" y1="-3.4" x2="-5.55" y2="-2.1" layer="29" rot="R90"/>
<rectangle x1="-5.95" y1="-2.9" x2="-5.55" y2="-1.6" layer="29" rot="R90"/>
<rectangle x1="-5.95" y1="-2.4" x2="-5.55" y2="-1.1" layer="29" rot="R90"/>
<rectangle x1="-5.95" y1="-1.9" x2="-5.55" y2="-0.6" layer="29" rot="R90"/>
<rectangle x1="-5.95" y1="-1.4" x2="-5.55" y2="-0.1" layer="29" rot="R90"/>
<rectangle x1="-5.95" y1="-0.9" x2="-5.55" y2="0.4" layer="29" rot="R90"/>
<rectangle x1="-5.95" y1="-0.4" x2="-5.55" y2="0.9" layer="29" rot="R90"/>
<rectangle x1="-5.95" y1="0.1" x2="-5.55" y2="1.4" layer="29" rot="R90"/>
<rectangle x1="-5.95" y1="0.6" x2="-5.55" y2="1.9" layer="29" rot="R90"/>
<rectangle x1="-5.95" y1="1.1" x2="-5.55" y2="2.4" layer="29" rot="R90"/>
<rectangle x1="-5.95" y1="1.6" x2="-5.55" y2="2.9" layer="29" rot="R90"/>
<rectangle x1="-5.95" y1="2.1" x2="-5.55" y2="3.4" layer="29" rot="R90"/>
<rectangle x1="-5.95" y1="2.6" x2="-5.55" y2="3.9" layer="29" rot="R90"/>
<rectangle x1="-5.95" y1="3.1" x2="-5.55" y2="4.4" layer="29" rot="R90"/>
<rectangle x1="5.55" y1="-4.4" x2="5.95" y2="-3.1" layer="29" rot="R90"/>
<rectangle x1="5.55" y1="-3.9" x2="5.95" y2="-2.6" layer="29" rot="R90"/>
<rectangle x1="5.55" y1="-3.4" x2="5.95" y2="-2.1" layer="29" rot="R90"/>
<rectangle x1="5.55" y1="-2.9" x2="5.95" y2="-1.6" layer="29" rot="R90"/>
<rectangle x1="5.55" y1="-2.4" x2="5.95" y2="-1.1" layer="29" rot="R90"/>
<rectangle x1="5.55" y1="-1.9" x2="5.95" y2="-0.6" layer="29" rot="R90"/>
<rectangle x1="5.55" y1="-1.4" x2="5.95" y2="-0.1" layer="29" rot="R90"/>
<rectangle x1="5.55" y1="-0.9" x2="5.95" y2="0.4" layer="29" rot="R90"/>
<rectangle x1="5.55" y1="-0.4" x2="5.95" y2="0.9" layer="29" rot="R90"/>
<rectangle x1="5.55" y1="0.1" x2="5.95" y2="1.4" layer="29" rot="R90"/>
<rectangle x1="5.55" y1="0.6" x2="5.95" y2="1.9" layer="29" rot="R90"/>
<rectangle x1="5.55" y1="1.1" x2="5.95" y2="2.4" layer="29" rot="R90"/>
<rectangle x1="5.55" y1="1.6" x2="5.95" y2="2.9" layer="29" rot="R90"/>
<rectangle x1="5.55" y1="2.1" x2="5.95" y2="3.4" layer="29" rot="R90"/>
<rectangle x1="5.55" y1="2.6" x2="5.95" y2="3.9" layer="29" rot="R90"/>
<rectangle x1="5.55" y1="3.1" x2="5.95" y2="4.4" layer="29" rot="R90"/>
<rectangle x1="3.55" y1="5.1" x2="3.95" y2="6.4" layer="29" rot="R180"/>
<rectangle x1="3.05" y1="5.1" x2="3.45" y2="6.4" layer="29" rot="R180"/>
<rectangle x1="2.55" y1="5.1" x2="2.95" y2="6.4" layer="29" rot="R180"/>
<rectangle x1="2.05" y1="5.1" x2="2.45" y2="6.4" layer="29" rot="R180"/>
<rectangle x1="1.55" y1="5.1" x2="1.95" y2="6.4" layer="29" rot="R180"/>
<rectangle x1="1.05" y1="5.1" x2="1.45" y2="6.4" layer="29" rot="R180"/>
<rectangle x1="0.55" y1="5.1" x2="0.95" y2="6.4" layer="29" rot="R180"/>
<rectangle x1="0.05" y1="5.1" x2="0.45" y2="6.4" layer="29" rot="R180"/>
<rectangle x1="-0.45" y1="5.1" x2="-0.05" y2="6.4" layer="29" rot="R180"/>
<rectangle x1="-0.95" y1="5.1" x2="-0.55" y2="6.4" layer="29" rot="R180"/>
<rectangle x1="-1.45" y1="5.1" x2="-1.05" y2="6.4" layer="29" rot="R180"/>
<rectangle x1="-1.95" y1="5.1" x2="-1.55" y2="6.4" layer="29" rot="R180"/>
<rectangle x1="-2.45" y1="5.1" x2="-2.05" y2="6.4" layer="29" rot="R180"/>
<rectangle x1="-2.95" y1="5.1" x2="-2.55" y2="6.4" layer="29" rot="R180"/>
<rectangle x1="-3.45" y1="5.1" x2="-3.05" y2="6.4" layer="29" rot="R180"/>
<rectangle x1="-3.95" y1="5.1" x2="-3.55" y2="6.4" layer="29" rot="R180"/>
</package>
</packages>
<symbols>
<symbol name="STM32F405RG">
<wire x1="-22.86" y1="45.72" x2="25.4" y2="45.72" width="0.254" layer="94"/>
<wire x1="25.4" y1="45.72" x2="25.4" y2="-43.18" width="0.254" layer="94"/>
<wire x1="25.4" y1="-43.18" x2="-22.86" y2="-43.18" width="0.254" layer="94"/>
<wire x1="-22.86" y1="-43.18" x2="-22.86" y2="45.72" width="0.254" layer="94"/>
<text x="-22.86" y="48.26" size="1.778" layer="95">&gt;NAME</text>
<text x="-22.86" y="-48.26" size="1.778" layer="96">&gt;VALUE</text>
<pin name="VBAT" x="-27.94" y="40.64" length="middle" direction="pas"/>
<pin name="PC13" x="-27.94" y="38.1" length="middle" direction="pas"/>
<pin name="PC14" x="-27.94" y="35.56" length="middle" direction="pas"/>
<pin name="PC15" x="-27.94" y="33.02" length="middle" direction="pas"/>
<pin name="PH0" x="-27.94" y="30.48" length="middle" direction="pas"/>
<pin name="PH1" x="-27.94" y="27.94" length="middle" direction="pas"/>
<pin name="NRST" x="-27.94" y="25.4" length="middle" direction="pas"/>
<pin name="PC0" x="-27.94" y="22.86" length="middle" direction="pas"/>
<pin name="PC1" x="-27.94" y="20.32" length="middle" direction="pas"/>
<pin name="PC2" x="-27.94" y="17.78" length="middle" direction="pas"/>
<pin name="PC3" x="-27.94" y="15.24" length="middle" direction="pas"/>
<pin name="VSSA" x="-27.94" y="12.7" length="middle" direction="pas"/>
<pin name="VDDA" x="-27.94" y="10.16" length="middle" direction="pas"/>
<pin name="PA0" x="-27.94" y="7.62" length="middle" direction="pas"/>
<pin name="PA1" x="-27.94" y="5.08" length="middle" direction="pas"/>
<pin name="PA2/UART2_TX" x="-27.94" y="2.54" length="middle" direction="pas"/>
<pin name="PA3/UART2_RX" x="-27.94" y="0" length="middle" direction="pas"/>
<pin name="VSS1" x="-27.94" y="-2.54" length="middle" direction="pas"/>
<pin name="VDD1" x="-27.94" y="-5.08" length="middle" direction="pas"/>
<pin name="PA4/SPI1_NSS" x="-27.94" y="-7.62" length="middle" direction="pas"/>
<pin name="PA5/SPI1_SCK" x="-27.94" y="-10.16" length="middle" direction="pas"/>
<pin name="PA6/SPI1_MISO" x="-27.94" y="-12.7" length="middle" direction="pas"/>
<pin name="PA7/SPI1_MOSI" x="-27.94" y="-15.24" length="middle" direction="pas"/>
<pin name="PC4" x="-27.94" y="-17.78" length="middle" direction="pas"/>
<pin name="PC5" x="-27.94" y="-20.32" length="middle" direction="pas"/>
<pin name="PB0" x="-27.94" y="-22.86" length="middle" direction="pas"/>
<pin name="PB1" x="-27.94" y="-25.4" length="middle" direction="pas"/>
<pin name="PB2-BOOT1" x="-27.94" y="-27.94" length="middle" direction="pas"/>
<pin name="PB10" x="-27.94" y="-30.48" length="middle" direction="pas"/>
<pin name="PB11" x="-27.94" y="-33.02" length="middle" direction="pas"/>
<pin name="VCAP1" x="-27.94" y="-35.56" length="middle" direction="pas"/>
<pin name="VDD2" x="-27.94" y="-38.1" length="middle" direction="pas"/>
<pin name="PB12/I2S2_WS" x="30.48" y="-38.1" length="middle" direction="pas" rot="R180"/>
<pin name="PB13/I2S2_CK" x="30.48" y="-35.56" length="middle" direction="pas" rot="R180"/>
<pin name="PB14/I2S2_XD" x="30.48" y="-33.02" length="middle" direction="pas" rot="R180"/>
<pin name="PB15/I2S2_SD" x="30.48" y="-30.48" length="middle" direction="pas" rot="R180"/>
<pin name="PC6/I2S2_MCK" x="30.48" y="-27.94" length="middle" direction="pas" rot="R180"/>
<pin name="PC7" x="30.48" y="-25.4" length="middle" direction="pas" rot="R180"/>
<pin name="PC8/SDIO_D0" x="30.48" y="-22.86" length="middle" direction="pas" rot="R180"/>
<pin name="PC9/SDIO_D1" x="30.48" y="-20.32" length="middle" direction="pas" rot="R180"/>
<pin name="PA8" x="30.48" y="-17.78" length="middle" direction="pas" rot="R180"/>
<pin name="PA9/UART1_TX" x="30.48" y="-15.24" length="middle" direction="pas" rot="R180"/>
<pin name="PA10/UART1_RX" x="30.48" y="-12.7" length="middle" direction="pas" rot="R180"/>
<pin name="PA11" x="30.48" y="-10.16" length="middle" direction="pas" rot="R180"/>
<pin name="PA12" x="30.48" y="-7.62" length="middle" direction="pas" rot="R180"/>
<pin name="PA13/JTMS" x="30.48" y="-5.08" length="middle" direction="pas" rot="R180"/>
<pin name="VCAP2" x="30.48" y="-2.54" length="middle" direction="pas" rot="R180"/>
<pin name="VDD3" x="30.48" y="0" length="middle" direction="pas" rot="R180"/>
<pin name="PA14/JTCK" x="30.48" y="2.54" length="middle" direction="pas" rot="R180"/>
<pin name="PA15/JTDI" x="30.48" y="5.08" length="middle" direction="pas" rot="R180"/>
<pin name="PC10/SDIO_D2" x="30.48" y="7.62" length="middle" direction="pas" rot="R180"/>
<pin name="PC11/SDIO_D3" x="30.48" y="10.16" length="middle" direction="pas" rot="R180"/>
<pin name="PC12/SDIO_CLK" x="30.48" y="12.7" length="middle" direction="pas" rot="R180"/>
<pin name="PD2/SDIO_CMD" x="30.48" y="15.24" length="middle" direction="pas" rot="R180"/>
<pin name="PB3/JTDO" x="30.48" y="17.78" length="middle" direction="pas" rot="R180"/>
<pin name="PB4/JTRST" x="30.48" y="20.32" length="middle" direction="pas" rot="R180"/>
<pin name="PB5" x="30.48" y="22.86" length="middle" direction="pas" rot="R180"/>
<pin name="PB6" x="30.48" y="25.4" length="middle" direction="pas" rot="R180"/>
<pin name="PB7" x="30.48" y="27.94" length="middle" direction="pas" rot="R180"/>
<pin name="BOOT0" x="30.48" y="30.48" length="middle" direction="pas" rot="R180"/>
<pin name="PB8" x="30.48" y="33.02" length="middle" direction="pas" rot="R180"/>
<pin name="PB9" x="30.48" y="35.56" length="middle" direction="pas" rot="R180"/>
<pin name="VSS2" x="30.48" y="38.1" length="middle" direction="pas" rot="R180"/>
<pin name="VDD4" x="30.48" y="40.64" length="middle" direction="pas" rot="R180"/>
</symbol>
</symbols>
<devicesets>
<deviceset name="STM32F405RG">
<gates>
<gate name="G$1" symbol="STM32F405RG" x="0" y="0"/>
</gates>
<devices>
<device name="" package="TQFP64">
<connects>
<connect gate="G$1" pin="BOOT0" pad="60"/>
<connect gate="G$1" pin="NRST" pad="7"/>
<connect gate="G$1" pin="PA0" pad="14"/>
<connect gate="G$1" pin="PA1" pad="15"/>
<connect gate="G$1" pin="PA10/UART1_RX" pad="43"/>
<connect gate="G$1" pin="PA11" pad="44"/>
<connect gate="G$1" pin="PA12" pad="45"/>
<connect gate="G$1" pin="PA13/JTMS" pad="46"/>
<connect gate="G$1" pin="PA14/JTCK" pad="49"/>
<connect gate="G$1" pin="PA15/JTDI" pad="50"/>
<connect gate="G$1" pin="PA2/UART2_TX" pad="16"/>
<connect gate="G$1" pin="PA3/UART2_RX" pad="17"/>
<connect gate="G$1" pin="PA4/SPI1_NSS" pad="20"/>
<connect gate="G$1" pin="PA5/SPI1_SCK" pad="21"/>
<connect gate="G$1" pin="PA6/SPI1_MISO" pad="22"/>
<connect gate="G$1" pin="PA7/SPI1_MOSI" pad="23"/>
<connect gate="G$1" pin="PA8" pad="41"/>
<connect gate="G$1" pin="PA9/UART1_TX" pad="42"/>
<connect gate="G$1" pin="PB0" pad="26"/>
<connect gate="G$1" pin="PB1" pad="27"/>
<connect gate="G$1" pin="PB10" pad="29"/>
<connect gate="G$1" pin="PB11" pad="30"/>
<connect gate="G$1" pin="PB12/I2S2_WS" pad="33"/>
<connect gate="G$1" pin="PB13/I2S2_CK" pad="34"/>
<connect gate="G$1" pin="PB14/I2S2_XD" pad="35"/>
<connect gate="G$1" pin="PB15/I2S2_SD" pad="36"/>
<connect gate="G$1" pin="PB2-BOOT1" pad="28"/>
<connect gate="G$1" pin="PB3/JTDO" pad="55"/>
<connect gate="G$1" pin="PB4/JTRST" pad="56"/>
<connect gate="G$1" pin="PB5" pad="57"/>
<connect gate="G$1" pin="PB6" pad="58"/>
<connect gate="G$1" pin="PB7" pad="59"/>
<connect gate="G$1" pin="PB8" pad="61"/>
<connect gate="G$1" pin="PB9" pad="62"/>
<connect gate="G$1" pin="PC0" pad="8"/>
<connect gate="G$1" pin="PC1" pad="9"/>
<connect gate="G$1" pin="PC10/SDIO_D2" pad="51"/>
<connect gate="G$1" pin="PC11/SDIO_D3" pad="52"/>
<connect gate="G$1" pin="PC12/SDIO_CLK" pad="53"/>
<connect gate="G$1" pin="PC13" pad="2"/>
<connect gate="G$1" pin="PC14" pad="3"/>
<connect gate="G$1" pin="PC15" pad="4"/>
<connect gate="G$1" pin="PC2" pad="10"/>
<connect gate="G$1" pin="PC3" pad="11"/>
<connect gate="G$1" pin="PC4" pad="24"/>
<connect gate="G$1" pin="PC5" pad="25"/>
<connect gate="G$1" pin="PC6/I2S2_MCK" pad="37"/>
<connect gate="G$1" pin="PC7" pad="38"/>
<connect gate="G$1" pin="PC8/SDIO_D0" pad="39"/>
<connect gate="G$1" pin="PC9/SDIO_D1" pad="40"/>
<connect gate="G$1" pin="PD2/SDIO_CMD" pad="54"/>
<connect gate="G$1" pin="PH0" pad="5"/>
<connect gate="G$1" pin="PH1" pad="6"/>
<connect gate="G$1" pin="VBAT" pad="1"/>
<connect gate="G$1" pin="VCAP1" pad="31"/>
<connect gate="G$1" pin="VCAP2" pad="47"/>
<connect gate="G$1" pin="VDD1" pad="19"/>
<connect gate="G$1" pin="VDD2" pad="32"/>
<connect gate="G$1" pin="VDD3" pad="48"/>
<connect gate="G$1" pin="VDD4" pad="64"/>
<connect gate="G$1" pin="VDDA" pad="13"/>
<connect gate="G$1" pin="VSS1" pad="18"/>
<connect gate="G$1" pin="VSS2" pad="63"/>
<connect gate="G$1" pin="VSSA" pad="12"/>
</connects>
<technologies>
<technology name=""/>
</technologies>
</device>
</devices>
</deviceset>
</devicesets>
</library>
</drawing>
</eagle>