<eagle version="6.5.0" xmlns="eagle">
  <drawing>
    <library>
      <packages>
        <package name="SO-8" xmlns="eagle">
          <description>&lt;B&gt;SO-8&lt;/b&gt; -- also known as SOIC-8&lt;P&gt;
Desgined for the Texas Instruments TMP275AID</description>
          <smd name="1" x="-1.905" y="-2.4" dx="0.6" dy="2" layer="1" />
          <smd name="2" x="-0.635" y="-2.4" dx="0.6" dy="2" layer="1" />
          <smd name="3" x="0.635" y="-2.4" dx="0.6" dy="2" layer="1" />
          <smd name="4" x="1.905" y="-2.4" dx="0.6" dy="2" layer="1" />
          <smd name="8" x="-1.905" y="2.4" dx="0.6" dy="2" layer="1" />
          <smd name="7" x="-0.635" y="2.4" dx="0.6" dy="2" layer="1" />
          <smd name="6" x="0.635" y="2.4" dx="0.6" dy="2" layer="1" />
          <smd name="5" x="1.905" y="2.4" dx="0.6" dy="2" layer="1" />
          <wire x1="-2.7" y1="2.2" x2="-2.7" y2="-2.2" width="0.127" layer="21" />
          <wire x1="2.7" y1="2.2" x2="2.7" y2="-2.2" width="0.127" layer="21" />
          <wire x1="2.7" y1="-2.2" x2="2.5" y2="-2.2" width="0.127" layer="21" />
          <wire x1="2.7" y1="2.2" x2="2.5" y2="2.2" width="0.127" layer="21" />
          <wire x1="-2.7" y1="2.2" x2="-2.5" y2="2.2" width="0.127" layer="21" />
          <wire x1="-2.7" y1="-2.2" x2="-2.5" y2="-2.2" width="0.127" layer="21" />
          <circle x="-2.5" y="-2.7" radius="0.06" width="0.127" layer="21" />
          <text x="-3" y="4" size="1.27" layer="21" font="vector" ratio="15">&gt;NAME</text>
        </package>
      </packages>
      <symbols>
        <symbol name="TMP275AID">
          <description>&lt;B&gt;TMP275AID1&lt;/B&gt; -- 0.5°C Digital Out Temperature Sensor.&lt;P&gt;
&lt;B&gt;Texas Instruments  &lt;A HREF="http://www.ti.com/product/TMP275AID"&gt; TMP275AID&lt;/A&gt;&lt;/B&gt;&lt;P&gt;
Octopart MPN: TMP275AID
&lt;br&gt;
Digi-Key part number: 296-21416-5-ND</description>
          <pin name="SDA" x="-15.24" y="7.62" visible="pin" length="middle" direction="pas" />
          <pin name="SCL" x="-15.24" y="2.54" visible="pin" length="middle" direction="pas" />
          <pin name="ALERT" x="-15.24" y="-2.54" visible="pin" length="middle" direction="pas" />
          <pin name="GND" x="-15.24" y="-7.62" visible="pin" length="middle" direction="pas" />
          <pin name="A2" x="15.24" y="-7.62" visible="pin" length="middle" direction="pas" rot="R180" />
          <pin name="A1" x="15.24" y="-2.54" visible="pin" length="middle" direction="pas" rot="R180" />
          <pin name="A0" x="15.24" y="2.54" visible="pin" length="middle" direction="pas" rot="R180" />
          <pin name="V+" x="15.24" y="7.62" visible="pin" length="middle" direction="pas" rot="R180" />
          <wire x1="-10.16" y1="10.16" x2="10.16" y2="10.16" width="0.254" layer="94" />
          <wire x1="10.16" y1="10.16" x2="10.16" y2="-10.16" width="0.254" layer="94" />
          <wire x1="10.16" y1="-10.16" x2="-10.16" y2="-10.16" width="0.254" layer="94" />
          <wire x1="-10.16" y1="-10.16" x2="-10.16" y2="10.16" width="0.254" layer="94" />
          <text x="-10.16" y="12.7" size="1.778" layer="95" ratio="20">&gt;NAME</text>
          <text x="-10.16" y="10.414" size="1.778" layer="96" ratio="20">&gt;VALUE</text>
        </symbol>
      </symbols>
      <devicesets>
        <deviceset name="TMP275AID" prefix="U">
          <gates>
            <gate name="G$1" symbol="TMP275AID" x="0" y="0" />
          </gates>
          <devices>
            <device name="" package="SO-8" xmlns="eagle">
              <connects>
                <connect gate="G$1" pin="A0" pad="7" />
                <connect gate="G$1" pin="A1" pad="6" />
                <connect gate="G$1" pin="A2" pad="5" />
                <connect gate="G$1" pin="ALERT" pad="3" />
                <connect gate="G$1" pin="GND" pad="4" />
                <connect gate="G$1" pin="SCL" pad="2" />
                <connect gate="G$1" pin="SDA" pad="1" />
                <connect gate="G$1" pin="V+" pad="8" />
              </connects>
              <technologies>
                <technology name="" />
              </technologies>
            </device>
          </devices>
        </deviceset>
      </devicesets>
    </library>
  </drawing>
</eagle>