<eagle version="6.5.0" xmlns="eagle">
  <drawing>
    <library>
      <packages>
        <package name="MSOP10" xmlns="eagle">
          <description>&lt;b&gt;10 Lead Platic MSOP&lt;/b&gt;&lt;p&gt;
Source: http://www.linear.com .. LT1996</description>
          <wire x1="-1.425" y1="-1.4" x2="1.425" y2="-1.4" width="0.2032" layer="51" />
          <wire x1="1.425" y1="-1.4" x2="1.425" y2="1.4" width="0.2032" layer="21" />
          <wire x1="1.425" y1="1.4" x2="-1.425" y2="1.4" width="0.2032" layer="51" />
          <wire x1="-1.425" y1="1.4" x2="-1.425" y2="-1.4" width="0.2032" layer="21" />
          <circle x="-1.05" y="-1.05" radius="0.2" width="0" layer="21" />
          <smd name="1" x="-1" y="-2.05" dx="0.3" dy="1" layer="1" stop="no" cream="no" />
          <smd name="2" x="-0.5" y="-2.05" dx="0.3" dy="1" layer="1" stop="no" cream="no" />
          <smd name="3" x="0" y="-2.05" dx="0.3" dy="1" layer="1" stop="no" cream="no" />
          <smd name="4" x="0.5" y="-2.05" dx="0.3" dy="1" layer="1" stop="no" cream="no" />
          <smd name="5" x="1" y="-2.05" dx="0.3" dy="1" layer="1" stop="no" cream="no" />
          <smd name="6" x="1" y="2.05" dx="0.3" dy="1" layer="1" rot="R180" stop="no" cream="no" />
          <smd name="7" x="0.5" y="2.05" dx="0.3" dy="1" layer="1" rot="R180" stop="no" cream="no" />
          <smd name="8" x="0" y="2.05" dx="0.3" dy="1" layer="1" rot="R180" stop="no" cream="no" />
          <smd name="9" x="-0.5" y="2.05" dx="0.3" dy="1" layer="1" rot="R180" stop="no" cream="no" />
          <smd name="10" x="-1" y="2.05" dx="0.3" dy="1" layer="1" rot="R180" stop="no" cream="no" />
          <text x="-1.974" y="-1.504" size="1.016" layer="25" rot="R90">&gt;NAME</text>
          <text x="2.943" y="-1.612" size="1.016" layer="27" rot="R90">&gt;VALUE</text>
          <rectangle x1="-1.15" y1="-2.45" x2="-0.85" y2="-1.475" layer="51" />
          <rectangle x1="-0.65" y1="-2.45" x2="-0.35" y2="-1.475" layer="51" />
          <rectangle x1="-0.15" y1="-2.45" x2="0.15" y2="-1.475" layer="51" />
          <rectangle x1="0.35" y1="-2.45" x2="0.65" y2="-1.475" layer="51" />
          <rectangle x1="0.85" y1="-2.45" x2="1.15" y2="-1.475" layer="51" />
          <rectangle x1="-1.2" y1="-2.6" x2="-0.8" y2="-1.5" layer="29" />
          <rectangle x1="-0.7" y1="-2.6" x2="-0.3" y2="-1.5" layer="29" />
          <rectangle x1="-0.2" y1="-2.6" x2="0.2" y2="-1.5" layer="29" />
          <rectangle x1="0.3" y1="-2.6" x2="0.7" y2="-1.5" layer="29" />
          <rectangle x1="0.8" y1="-2.6" x2="1.2" y2="-1.5" layer="29" />
          <rectangle x1="-1.125" y1="-2.5" x2="-0.875" y2="-1.625" layer="31" />
          <rectangle x1="-0.625" y1="-2.5" x2="-0.375" y2="-1.625" layer="31" />
          <rectangle x1="-0.125" y1="-2.5" x2="0.125" y2="-1.625" layer="31" />
          <rectangle x1="0.375" y1="-2.5" x2="0.625" y2="-1.625" layer="31" />
          <rectangle x1="0.875" y1="-2.5" x2="1.125" y2="-1.625" layer="31" />
          <rectangle x1="0.85" y1="1.475" x2="1.15" y2="2.45" layer="51" rot="R180" />
          <rectangle x1="0.35" y1="1.475" x2="0.65" y2="2.45" layer="51" rot="R180" />
          <rectangle x1="-0.15" y1="1.475" x2="0.15" y2="2.45" layer="51" rot="R180" />
          <rectangle x1="-0.65" y1="1.475" x2="-0.35" y2="2.45" layer="51" rot="R180" />
          <rectangle x1="-1.15" y1="1.475" x2="-0.85" y2="2.45" layer="51" rot="R180" />
          <rectangle x1="0.8" y1="1.5" x2="1.2" y2="2.6" layer="29" rot="R180" />
          <rectangle x1="0.3" y1="1.5" x2="0.7" y2="2.6" layer="29" rot="R180" />
          <rectangle x1="-0.2" y1="1.5" x2="0.2" y2="2.6" layer="29" rot="R180" />
          <rectangle x1="-0.7" y1="1.5" x2="-0.3" y2="2.6" layer="29" rot="R180" />
          <rectangle x1="-1.2" y1="1.5" x2="-0.8" y2="2.6" layer="29" rot="R180" />
          <rectangle x1="0.875" y1="1.625" x2="1.125" y2="2.5" layer="31" rot="R180" />
          <rectangle x1="0.375" y1="1.625" x2="0.625" y2="2.5" layer="31" rot="R180" />
          <rectangle x1="-0.125" y1="1.625" x2="0.125" y2="2.5" layer="31" rot="R180" />
          <rectangle x1="-0.625" y1="1.625" x2="-0.375" y2="2.5" layer="31" rot="R180" />
          <rectangle x1="-1.125" y1="1.625" x2="-0.875" y2="2.5" layer="31" rot="R180" />
        </package>
      </packages>
      <symbols>
        <symbol name="LTC4150">
          <wire x1="-10.16" y1="12.7" x2="-10.16" y2="-10.16" width="0.254" layer="94" xmlns="eagle" />
          <wire x1="-10.16" y1="-10.16" x2="10.16" y2="-10.16" width="0.254" layer="94" xmlns="eagle" />
          <wire x1="10.16" y1="-10.16" x2="10.16" y2="12.7" width="0.254" layer="94" xmlns="eagle" />
          <wire x1="10.16" y1="12.7" x2="-10.16" y2="12.7" width="0.254" layer="94" xmlns="eagle" />
          <pin name="SENSE+" x="-15.24" y="7.62" length="middle" xmlns="eagle" />
          <pin name="SENSE-" x="-15.24" y="5.08" length="middle" xmlns="eagle" />
          <pin name="CF+" x="-15.24" y="2.54" length="middle" xmlns="eagle" />
          <pin name="CF-" x="-15.24" y="-5.08" length="middle" xmlns="eagle" />
          <pin name="!SHDN!" x="15.24" y="-5.08" length="middle" direction="in" rot="R180" xmlns="eagle" />
          <pin name="GND" x="-15.24" y="-7.62" length="middle" direction="pwr" xmlns="eagle" />
          <pin name="!CLR!" x="15.24" y="5.08" length="middle" rot="R180" xmlns="eagle" />
          <pin name="VDD" x="-15.24" y="10.16" length="middle" direction="pwr" xmlns="eagle" />
          <pin name="!INT!" x="15.24" y="10.16" length="middle" rot="R180" xmlns="eagle" />
          <pin name="POL" x="15.24" y="0" length="middle" rot="R180" xmlns="eagle" />
          <text x="-10.16" y="13.716" size="1.778" layer="95" xmlns="eagle">&gt;NAME</text>
          <text x="-10.16" y="-13.208" size="1.778" layer="95" xmlns="eagle">&gt;VALUE</text>
        </symbol>
      </symbols>
      <devicesets>
        <deviceset name="LTC4150" prefix="U">
          <gates>
            <gate name="G$1" symbol="LTC4150" x="0" y="0" />
          </gates>
          <devices>
            <device name="" package="MSOP10" xmlns="eagle">
              <connects>
                <connect gate="G$1" pin="!CLR!" pad="9" />
                <connect gate="G$1" pin="!INT!" pad="10" />
                <connect gate="G$1" pin="!SHDN!" pad="5" />
                <connect gate="G$1" pin="CF+" pad="3" />
                <connect gate="G$1" pin="CF-" pad="4" />
                <connect gate="G$1" pin="GND" pad="7" />
                <connect gate="G$1" pin="POL" pad="6" />
                <connect gate="G$1" pin="SENSE+" pad="1" />
                <connect gate="G$1" pin="SENSE-" pad="2" />
                <connect gate="G$1" pin="VDD" pad="8" />
              </connects>
              <technologies>
                <technology name="" />
              </technologies>
            </device>
          </devices>
        </deviceset>
      </devicesets>
    </library>
  </drawing>
</eagle>