<!DOCTYPE eagle SYSTEM "eagle.dtd">
<eagle version="6.5.0">
<drawing>
<settings>
<setting alwaysvectorfont="no"/>
<setting verticaltext="up"/>
</settings>
<grid distance="0.2" unitdist="mm" unit="mm" style="lines" multiple="1" display="yes" altdistance="0.025" altunitdist="inch" altunit="inch"/>
<layers>
<layer number="1" name="Top" color="4" fill="1" visible="yes" active="yes"/>
<layer number="16" name="Bottom" color="1" fill="1" visible="yes" active="yes"/>
<layer number="17" name="Pads" color="2" fill="1" visible="yes" active="yes"/>
<layer number="18" name="Vias" color="2" fill="1" visible="yes" active="yes"/>
<layer number="19" name="Unrouted" color="6" fill="1" visible="yes" active="yes"/>
<layer number="20" name="Dimension" color="15" fill="1" visible="yes" active="yes"/>
<layer number="21" name="tPlace" color="7" fill="1" visible="yes" active="yes"/>
<layer number="22" name="bPlace" color="7" fill="1" visible="yes" active="yes"/>
<layer number="23" name="tOrigins" color="15" fill="1" visible="yes" active="yes"/>
<layer number="24" name="bOrigins" color="15" fill="1" visible="yes" active="yes"/>
<layer number="25" name="tNames" color="7" fill="1" visible="yes" active="yes"/>
<layer number="26" name="bNames" color="7" fill="1" visible="yes" active="yes"/>
<layer number="27" name="tValues" color="7" fill="1" visible="yes" active="yes"/>
<layer number="28" name="bValues" color="7" fill="1" visible="yes" active="yes"/>
<layer number="29" name="tStop" color="7" fill="3" visible="yes" active="yes"/>
<layer number="30" name="bStop" color="7" fill="6" visible="yes" active="yes"/>
<layer number="31" name="tCream" color="7" fill="4" visible="yes" active="yes"/>
<layer number="32" name="bCream" color="7" fill="5" visible="yes" active="yes"/>
<layer number="33" name="tFinish" color="6" fill="3" visible="yes" active="yes"/>
<layer number="34" name="bFinish" color="6" fill="6" visible="yes" active="yes"/>
<layer number="35" name="tGlue" color="7" fill="4" visible="yes" active="yes"/>
<layer number="36" name="bGlue" color="7" fill="5" visible="yes" active="yes"/>
<layer number="37" name="tTest" color="7" fill="1" visible="yes" active="yes"/>
<layer number="38" name="bTest" color="7" fill="1" visible="yes" active="yes"/>
<layer number="39" name="tKeepout" color="4" fill="11" visible="yes" active="yes"/>
<layer number="40" name="bKeepout" color="1" fill="11" visible="yes" active="yes"/>
<layer number="41" name="tRestrict" color="4" fill="10" visible="yes" active="yes"/>
<layer number="42" name="bRestrict" color="1" fill="10" visible="yes" active="yes"/>
<layer number="43" name="vRestrict" color="2" fill="10" visible="yes" active="yes"/>
<layer number="44" name="Drills" color="7" fill="1" visible="yes" active="yes"/>
<layer number="45" name="Holes" color="7" fill="1" visible="yes" active="yes"/>
<layer number="46" name="Milling" color="3" fill="1" visible="yes" active="yes"/>
<layer number="47" name="Measures" color="7" fill="1" visible="yes" active="yes"/>
<layer number="48" name="Document" color="7" fill="1" visible="yes" active="yes"/>
<layer number="49" name="Reference" color="7" fill="1" visible="yes" active="yes"/>
<layer number="50" name="dxf" color="7" fill="1" visible="yes" active="yes"/>
<layer number="51" name="tDocu" color="7" fill="1" visible="yes" active="yes"/>
<layer number="52" name="bDocu" color="7" fill="1" visible="yes" active="yes"/>
<layer number="53" name="tGND_GNDA" color="7" fill="1" visible="yes" active="yes"/>
<layer number="54" name="bGND_GNDA" color="7" fill="1" visible="yes" active="yes"/>
<layer number="56" name="wert" color="7" fill="1" visible="yes" active="yes"/>
<layer number="57" name="tCAD" color="7" fill="1" visible="yes" active="yes"/>
<layer number="91" name="Nets" color="2" fill="1" visible="yes" active="yes"/>
<layer number="92" name="Busses" color="1" fill="1" visible="yes" active="yes"/>
<layer number="93" name="Pins" color="2" fill="1" visible="yes" active="yes"/>
<layer number="94" name="Symbols" color="4" fill="1" visible="yes" active="yes"/>
<layer number="95" name="Names" color="7" fill="1" visible="yes" active="yes"/>
<layer number="96" name="Values" color="7" fill="1" visible="yes" active="yes"/>
<layer number="97" name="Info" color="7" fill="1" visible="yes" active="yes"/>
<layer number="98" name="Guide" color="6" fill="1" visible="yes" active="yes"/>
<layer number="99" name="SpiceOrder" color="7" fill="1" visible="yes" active="yes"/>
</layers>
<library>
<packages>
<package name="SSOP28DB">
<description>&lt;b&gt;Small Shrink Outline Package&lt;/b&gt;</description>
<wire x1="2.925" y1="-5.2" x2="-2.925" y2="-5.2" width="0.15239999999999998" layer="21"/>
<wire x1="-2.925" y1="5.2" x2="2.925" y2="5.2" width="0.15239999999999998" layer="21"/>
<smd name="28" x="3.656" y="4.225" dx="0.348" dy="1.397" layer="1" rot="R270"/>
<smd name="27" x="3.656" y="3.575" dx="0.348" dy="1.397" layer="1" rot="R270"/>
<smd name="26" x="3.656" y="2.925" dx="0.348" dy="1.397" layer="1" rot="R270"/>
<smd name="25" x="3.656" y="2.275" dx="0.348" dy="1.397" layer="1" rot="R270"/>
<smd name="24" x="3.656" y="1.625" dx="0.348" dy="1.397" layer="1" rot="R270"/>
<smd name="23" x="3.656" y="0.975" dx="0.348" dy="1.397" layer="1" rot="R270"/>
<smd name="22" x="3.656" y="0.325" dx="0.348" dy="1.397" layer="1" rot="R270"/>
<smd name="20" x="3.656" y="-0.975" dx="0.348" dy="1.397" layer="1" rot="R270"/>
<smd name="21" x="3.656" y="-0.325" dx="0.348" dy="1.397" layer="1" rot="R270"/>
<smd name="19" x="3.656" y="-1.625" dx="0.348" dy="1.397" layer="1" rot="R270"/>
<smd name="18" x="3.656" y="-2.275" dx="0.348" dy="1.397" layer="1" rot="R270"/>
<smd name="17" x="3.656" y="-2.925" dx="0.348" dy="1.397" layer="1" rot="R270"/>
<smd name="16" x="3.656" y="-3.575" dx="0.348" dy="1.397" layer="1" rot="R270"/>
<smd name="15" x="3.656" y="-4.225" dx="0.348" dy="1.397" layer="1" rot="R270"/>
<smd name="1" x="-3.656" y="4.225" dx="0.348" dy="1.397" layer="1" rot="R270"/>
<smd name="2" x="-3.656" y="3.575" dx="0.348" dy="1.397" layer="1" rot="R270"/>
<smd name="3" x="-3.656" y="2.925" dx="0.348" dy="1.397" layer="1" rot="R270"/>
<smd name="4" x="-3.656" y="2.275" dx="0.348" dy="1.397" layer="1" rot="R270"/>
<smd name="5" x="-3.656" y="1.625" dx="0.348" dy="1.397" layer="1" rot="R270"/>
<smd name="6" x="-3.656" y="0.975" dx="0.348" dy="1.397" layer="1" rot="R270"/>
<smd name="7" x="-3.656" y="0.325" dx="0.348" dy="1.397" layer="1" rot="R270"/>
<smd name="8" x="-3.656" y="-0.325" dx="0.348" dy="1.397" layer="1" rot="R270"/>
<smd name="9" x="-3.656" y="-0.975" dx="0.348" dy="1.397" layer="1" rot="R270"/>
<smd name="10" x="-3.656" y="-1.625" dx="0.348" dy="1.397" layer="1" rot="R270"/>
<smd name="11" x="-3.656" y="-2.275" dx="0.348" dy="1.397" layer="1" rot="R270"/>
<smd name="12" x="-3.656" y="-2.925" dx="0.348" dy="1.397" layer="1" rot="R270"/>
<smd name="13" x="-3.656" y="-3.575" dx="0.348" dy="1.397" layer="1" rot="R270"/>
<smd name="14" x="-3.656" y="-4.225" dx="0.348" dy="1.397" layer="1" rot="R270"/>
<text x="0.41" y="6.53" size="1.016" layer="25" font="vector" ratio="15" rot="R180">&gt;NAME</text>
<circle x="-4.8" y="4.8" radius="0.15239999999999998" width="0" layer="21"/>
</package>
</packages>
<symbols>
<symbol name="FT232R">
<wire x1="-10.16" y1="20.32" x2="10.16" y2="20.32" width="0.254" layer="94"/>
<wire x1="10.16" y1="20.32" x2="10.16" y2="-20.32" width="0.254" layer="94"/>
<wire x1="10.16" y1="-20.32" x2="-10.16" y2="-20.32" width="0.254" layer="94"/>
<wire x1="-10.16" y1="-20.32" x2="-10.16" y2="20.32" width="0.254" layer="94"/>
<text x="-7.62" y="20.828" size="1.778" layer="95">&gt;NAME</text>
<text x="-7.62" y="-22.86" size="1.778" layer="96">&gt;VALUE</text>
<pin name="RESET" x="-15.24" y="-5.08" length="middle" direction="pas" function="dot"/>
<pin name="OSCI" x="-15.24" y="0" length="middle" direction="pas"/>
<pin name="OSCO" x="-15.24" y="-2.54" length="middle" direction="pas"/>
<pin name="DSR" x="15.24" y="2.54" length="middle" direction="pas" function="dot" rot="R180"/>
<pin name="DCD" x="15.24" y="0" length="middle" direction="pas" function="dot" rot="R180"/>
<pin name="RI" x="15.24" y="-2.54" length="middle" direction="pas" function="dot" rot="R180"/>
<pin name="3V3OUT" x="-15.24" y="7.62" length="middle" direction="pas"/>
<pin name="USBDM" x="-15.24" y="17.78" length="middle" direction="pas"/>
<pin name="USBDP" x="-15.24" y="15.24" length="middle" direction="pas"/>
<pin name="GND7" x="-15.24" y="-12.7" length="middle" direction="pas"/>
<pin name="GND18" x="-15.24" y="-15.24" length="middle" direction="pas"/>
<pin name="GND21" x="-15.24" y="-17.78" length="middle" direction="pas"/>
<pin name="TXD" x="15.24" y="17.78" length="middle" direction="pas" rot="R180"/>
<pin name="RXD" x="15.24" y="15.24" length="middle" direction="pas" rot="R180"/>
<pin name="VCCIO" x="-15.24" y="5.08" length="middle" direction="pas"/>
<pin name="AGND" x="-15.24" y="-10.16" length="middle" direction="pas"/>
<pin name="TEST" x="-15.24" y="-7.62" length="middle" direction="pas"/>
<pin name="VCC" x="-15.24" y="10.16" length="middle" direction="pas"/>
<pin name="TXLED" x="15.24" y="-7.62" length="middle" direction="pas" function="dot" rot="R180"/>
<pin name="RXLED" x="15.24" y="-10.16" length="middle" direction="pas" function="dot" rot="R180"/>
<pin name="RTS" x="15.24" y="7.62" length="middle" direction="pas" function="dot" rot="R180"/>
<pin name="CTS" x="15.24" y="10.16" length="middle" direction="pas" function="dot" rot="R180"/>
<pin name="DTR" x="15.24" y="5.08" length="middle" direction="pas" function="dot" rot="R180"/>
<pin name="PWREN" x="15.24" y="-12.7" length="middle" direction="pas" function="dot" rot="R180"/>
<pin name="TXDEN" x="15.24" y="-15.24" length="middle" direction="pas" rot="R180"/>
<pin name="SLEEP" x="15.24" y="-17.78" length="middle" direction="pas" function="dot" rot="R180"/>
</symbol>
</symbols>
<devicesets>
<deviceset name="FT232RL" prefix="U">
<gates>
<gate name="G$1" symbol="FT232R" x="0" y="0"/>
</gates>
<devices>
<device name="SSOP" package="SSOP28DB">
<connects>
<connect gate="G$1" pin="3V3OUT" pad="17"/>
<connect gate="G$1" pin="AGND" pad="25"/>
<connect gate="G$1" pin="CTS" pad="11"/>
<connect gate="G$1" pin="DCD" pad="10"/>
<connect gate="G$1" pin="DSR" pad="9"/>
<connect gate="G$1" pin="DTR" pad="2"/>
<connect gate="G$1" pin="GND18" pad="18"/>
<connect gate="G$1" pin="GND21" pad="21"/>
<connect gate="G$1" pin="GND7" pad="7"/>
<connect gate="G$1" pin="OSCI" pad="27"/>
<connect gate="G$1" pin="OSCO" pad="28"/>
<connect gate="G$1" pin="PWREN" pad="14"/>
<connect gate="G$1" pin="RESET" pad="19"/>
<connect gate="G$1" pin="RI" pad="6"/>
<connect gate="G$1" pin="RTS" pad="3"/>
<connect gate="G$1" pin="RXD" pad="5"/>
<connect gate="G$1" pin="RXLED" pad="22"/>
<connect gate="G$1" pin="SLEEP" pad="12"/>
<connect gate="G$1" pin="TEST" pad="26"/>
<connect gate="G$1" pin="TXD" pad="1"/>
<connect gate="G$1" pin="TXDEN" pad="13"/>
<connect gate="G$1" pin="TXLED" pad="23"/>
<connect gate="G$1" pin="USBDM" pad="16"/>
<connect gate="G$1" pin="USBDP" pad="15"/>
<connect gate="G$1" pin="VCC" pad="20"/>
<connect gate="G$1" pin="VCCIO" pad="4"/>
</connects>
<technologies>
<technology name="">
<attribute name="PROD_ID" value="IC-00870"/>
</technology>
</technologies>
</device>
</devices>
</deviceset>
</devicesets>
</library>
</drawing>
</eagle>