<eagle version="6.5.0" xmlns="eagle">
  <drawing>
    <library>
      <packages>
        <package name="PRT-00127" xmlns="eagle">
          <smd name="P12" x="4.965" y="-6.85" dx="1.8" dy="1.4" layer="1" rot="R180" />
          <smd name="P11" x="0.735" y="-6.85" dx="1.8" dy="1.4" layer="1" rot="R180" />
          <smd name="P10" x="-6.675" y="7.375" dx="1.9" dy="1.4" layer="1" rot="R270" />
          <smd name="P9" x="6.475" y="6.375" dx="1.9" dy="1.4" layer="1" rot="R270" />
          <smd name="P8" x="5.775" y="3.55" dx="1.5" dy="0.8" layer="1" rot="R270" />
          <smd name="P7" x="4.675" y="3.55" dx="1.5" dy="0.8" layer="1" rot="R270" />
          <smd name="P5" x="2.475" y="3.55" dx="1.5" dy="0.8" layer="1" rot="R270" />
          <smd name="P6" x="3.575" y="3.75" dx="1.5" dy="0.8" layer="1" rot="R270" />
          <smd name="P4" x="1.375" y="3.75" dx="1.5" dy="0.8" layer="1" rot="R270" />
          <smd name="P3" x="0.275" y="3.55" dx="1.5" dy="0.8" layer="1" rot="R270" />
          <smd name="P2" x="-0.825" y="3.15" dx="1.5" dy="0.8" layer="1" rot="R270" />
          <smd name="P1" x="-1.925" y="3.55" dx="1.5" dy="0.8" layer="1" rot="R270" />
          <rectangle x1="6.7" y1="-7.45" x2="7.3" y2="5.15" layer="29" rot="R180" />
          <wire x1="-7.025" y1="-7.15" x2="-7.025" y2="6.2" width="0.127" layer="21" />
          <wire x1="5.55" y1="7.15" x2="-5.75" y2="7.15" width="0.127" layer="21" />
          <wire x1="-7.025" y1="-7.15" x2="-0.35" y2="-7.15" width="0.127" layer="21" />
          <wire x1="7.025" y1="-7.15" x2="6.05" y2="-7.15" width="0.127" layer="21" />
          <wire x1="7.025" y1="-7.15" x2="7.025" y2="5.2" width="0.127" layer="21" />
          <circle x="-2.35" y="1.95" radius="0.15" width="0.3" layer="21" />
          <text x="-5" y="8" size="1.27" layer="25">&gt;NAME</text>
        </package>
      </packages>
      <symbols>
        <symbol name="MICROSD">
          <wire x1="7.62" y1="17.78" x2="7.62" y2="-10.16" width="0.254" layer="94" />
          <wire x1="7.62" y1="-10.16" x2="-7.62" y2="-10.16" width="0.254" layer="94" />
          <wire x1="-7.62" y1="-10.16" x2="-7.62" y2="17.78" width="0.254" layer="94" />
          <wire x1="-7.62" y1="17.78" x2="7.62" y2="17.78" width="0.254" layer="94" />
          <text x="-10.16" y="22.86" size="1.27" layer="95">&gt;NAME</text>
          <text x="-10.16" y="20.32" size="1.27" layer="96">&gt;VALUE</text>
          <pin name="D0" x="12.7" y="10.16" length="middle" rot="R180" />
          <pin name="D1" x="12.7" y="7.62" length="middle" rot="R180" />
          <pin name="D2" x="12.7" y="5.08" length="middle" rot="R180" />
          <pin name="D3" x="12.7" y="2.54" length="middle" rot="R180" />
          <pin name="VDD" x="12.7" y="15.24" length="middle" rot="R180" />
          <pin name="CMD" x="12.7" y="12.7" length="middle" rot="R180" />
          <pin name="CD" x="12.7" y="0" length="middle" rot="R180" />
          <pin name="CLK" x="12.7" y="-2.54" length="middle" rot="R180" />
          <pin name="VSS" x="12.7" y="-5.08" length="middle" rot="R180" />
          <pin name="GND" x="12.7" y="-7.62" length="middle" rot="R180" />
        </symbol>
      </symbols>
      <devicesets>
        <deviceset name="MICROSD">
          <gates>
            <gate name="G$1" symbol="MICROSD" x="0" y="0" />
          </gates>
          <devices>
            <device name="" package="PRT-00127" xmlns="eagle">
              <connects>
                <connect gate="G$1" pin="CD" pad="P11 P12" />
                <connect gate="G$1" pin="CLK" pad="P5" />
                <connect gate="G$1" pin="CMD" pad="P3" />
                <connect gate="G$1" pin="D0" pad="P7" />
                <connect gate="G$1" pin="D1" pad="P8" />
                <connect gate="G$1" pin="D2" pad="P1" />
                <connect gate="G$1" pin="D3" pad="P2" />
                <connect gate="G$1" pin="GND" pad="P9 P10" />
                <connect gate="G$1" pin="VDD" pad="P4" />
                <connect gate="G$1" pin="VSS" pad="P6" />
              </connects>
              <technologies>
                <technology name="" />
              </technologies>
            </device>
          </devices>
        </deviceset>
      </devicesets>
    </library>
  </drawing>
</eagle>